\beamer@endinputifotherversion {3.33pt}
\beamer@sectionintoc {1}{Anonymous}{3}{0}{1}
\beamer@subsectionintoc {1}{1}{Anonymous?}{3}{0}{1}
\beamer@subsectionintoc {1}{2}{Spy}{6}{0}{1}
\beamer@subsectionintoc {1}{3}{Bulk Surveillance}{7}{0}{1}
\beamer@sectionintoc {2}{Free Softwares}{8}{0}{2}
\beamer@sectionintoc {3}{Email Self-defense}{9}{0}{3}
\beamer@subsectionintoc {3}{1}{Step 1}{9}{0}{3}
\beamer@subsectionintoc {3}{2}{Step 2}{10}{0}{3}
\beamer@subsectionintoc {3}{3}{Step 3}{11}{0}{3}
\beamer@sectionintoc {4}{References}{12}{0}{4}
