\relax 
\providecommand\hyper@newdestlabel[2]{}
\providecommand\HyperFirstAtBeginDocument{\AtBeginDocument}
\HyperFirstAtBeginDocument{\ifx\hyper@anchor\@undefined
\global\let\oldcontentsline\contentsline
\gdef\contentsline#1#2#3#4{\oldcontentsline{#1}{#2}{#3}}
\global\let\oldnewlabel\newlabel
\gdef\newlabel#1#2{\newlabelxx{#1}#2}
\gdef\newlabelxx#1#2#3#4#5#6{\oldnewlabel{#1}{{#2}{#3}}}
\AtEndDocument{\ifx\hyper@anchor\@undefined
\let\contentsline\oldcontentsline
\let\newlabel\oldnewlabel
\fi}
\fi}
\global\let\hyper@last\relax 
\gdef\HyperFirstAtBeginDocument#1{#1}
\providecommand\HyField@AuxAddToFields[1]{}
\providecommand\HyField@AuxAddToCoFields[2]{}
\@writefile{toc}{\beamer@endinputifotherversion {3.33pt}}
\@writefile{nav}{\beamer@endinputifotherversion {3.33pt}}
\@writefile{nav}{\headcommand {\slideentry {0}{0}{1}{1/1}{}{0}}}
\@writefile{nav}{\headcommand {\beamer@framepages {1}{1}}}
\@writefile{nav}{\headcommand {\slideentry {0}{0}{2}{2/2}{}{0}}}
\@writefile{nav}{\headcommand {\beamer@framepages {2}{2}}}
\citation{0}
\citation{0}
\@writefile{toc}{\beamer@sectionintoc {1}{Anonymous}{3}{0}{1}}
\@writefile{nav}{\headcommand {\sectionentry {1}{Anonymous}{3}{Anonymous}{0}}}
\@writefile{nav}{\headcommand {\beamer@sectionpages {1}{2}}}
\@writefile{nav}{\headcommand {\beamer@subsectionpages {1}{2}}}
\@writefile{toc}{\beamer@subsectionintoc {1}{1}{Anonymous?}{3}{0}{1}}
\@writefile{nav}{\headcommand {\beamer@subsectionentry {0}{1}{1}{3}{Anonymous?}}\headcommand {\beamer@subsectionpages {3}{2}}}
\citation{0}
\citation{0}
\citation{0}
\citation{0}
\@writefile{nav}{\headcommand {\slideentry {1}{1}{1}{3/5}{Anonymous?}{0}}}
\@writefile{nav}{\headcommand {\beamer@framepages {3}{5}}}
\citation{1}
\@writefile{toc}{\beamer@subsectionintoc {1}{2}{Spy}{6}{0}{1}}
\@writefile{nav}{\headcommand {\beamer@subsectionentry {0}{1}{2}{6}{Spy}}\headcommand {\beamer@subsectionpages {3}{5}}}
\@writefile{nav}{\headcommand {\slideentry {1}{2}{1}{6/6}{Spy}{0}}}
\@writefile{nav}{\headcommand {\beamer@framepages {6}{6}}}
\citation{1}
\@writefile{toc}{\beamer@subsectionintoc {1}{3}{Bulk Surveillance}{7}{0}{1}}
\@writefile{nav}{\headcommand {\beamer@subsectionentry {0}{1}{3}{7}{Bulk Surveillance}}\headcommand {\beamer@subsectionpages {6}{6}}}
\@writefile{nav}{\headcommand {\slideentry {1}{3}{1}{7/7}{Bulk Surveillance}{0}}}
\@writefile{nav}{\headcommand {\beamer@framepages {7}{7}}}
\citation{2}
\@writefile{toc}{\beamer@sectionintoc {2}{Free Softwares}{8}{0}{2}}
\@writefile{nav}{\headcommand {\sectionentry {2}{Free Softwares}{8}{Free Softwares}{0}}}
\@writefile{nav}{\headcommand {\beamer@sectionpages {3}{7}}}
\@writefile{nav}{\headcommand {\beamer@subsectionpages {7}{7}}}
\@writefile{nav}{\headcommand {\slideentry {2}{0}{2}{8/8}{}{0}}}
\@writefile{nav}{\headcommand {\beamer@framepages {8}{8}}}
\citation{3}
\@writefile{toc}{\beamer@sectionintoc {3}{Email Self-defense}{9}{0}{3}}
\@writefile{nav}{\headcommand {\sectionentry {3}{Email Self-defense}{9}{Email Self-defense}{0}}}
\@writefile{nav}{\headcommand {\beamer@sectionpages {8}{8}}}
\@writefile{nav}{\headcommand {\beamer@subsectionpages {8}{8}}}
\@writefile{toc}{\beamer@subsectionintoc {3}{1}{Step 1}{9}{0}{3}}
\@writefile{nav}{\headcommand {\beamer@subsectionentry {0}{3}{1}{9}{Step 1}}\headcommand {\beamer@subsectionpages {9}{8}}}
\@writefile{nav}{\headcommand {\slideentry {3}{1}{1}{9/9}{Step 1}{0}}}
\@writefile{nav}{\headcommand {\beamer@framepages {9}{9}}}
\citation{3}
\@writefile{toc}{\beamer@subsectionintoc {3}{2}{Step 2}{10}{0}{3}}
\@writefile{nav}{\headcommand {\beamer@subsectionentry {0}{3}{2}{10}{Step 2}}\headcommand {\beamer@subsectionpages {9}{9}}}
\@writefile{nav}{\headcommand {\slideentry {3}{2}{1}{10/10}{Step 2}{0}}}
\@writefile{nav}{\headcommand {\beamer@framepages {10}{10}}}
\citation{3}
\@writefile{toc}{\beamer@subsectionintoc {3}{3}{Step 3}{11}{0}{3}}
\@writefile{nav}{\headcommand {\beamer@subsectionentry {0}{3}{3}{11}{Step 3}}\headcommand {\beamer@subsectionpages {10}{10}}}
\@writefile{nav}{\headcommand {\slideentry {3}{3}{1}{11/11}{Step 3}{0}}}
\@writefile{nav}{\headcommand {\beamer@framepages {11}{11}}}
\bibcite{0}{\hyperlink {beamerbib0}{WIKIPEDIA}}
\bibcite{1}{\hyperlink {beamerbib1}{FSF}}
\bibcite{2}{\hyperlink {beamerbib2}{FSF}}
\bibcite{3}{\hyperlink {beamerbib3}{FSF}}
\@writefile{toc}{\beamer@sectionintoc {4}{References}{12}{0}{4}}
\@writefile{nav}{\headcommand {\sectionentry {4}{References}{12}{References}{0}}}
\@writefile{nav}{\headcommand {\beamer@sectionpages {9}{11}}}
\@writefile{nav}{\headcommand {\beamer@subsectionpages {11}{11}}}
\@writefile{nav}{\headcommand {\slideentry {4}{0}{2}{12/12}{}{0}}}
\@writefile{nav}{\headcommand {\beamer@framepages {12}{12}}}
\@writefile{nav}{\headcommand {\slideentry {4}{0}{3}{13/13}{}{0}}}
\@writefile{nav}{\headcommand {\beamer@framepages {13}{13}}}
\@writefile{nav}{\headcommand {\beamer@partpages {1}{13}}}
\@writefile{nav}{\headcommand {\beamer@subsectionpages {12}{13}}}
\@writefile{nav}{\headcommand {\beamer@sectionpages {12}{13}}}
\@writefile{nav}{\headcommand {\beamer@documentpages {13}}}
\@writefile{nav}{\headcommand {\def \inserttotalframenumber {11}}}
