\beamer@endinputifotherversion {3.36pt}
\beamer@sectionintoc {1}{Me}{3}{0}{1}
\beamer@sectionintoc {2}{GNU Guile}{16}{0}{2}
\beamer@subsectionintoc {2}{1}{Install}{16}{0}{2}
\beamer@subsectionintoc {2}{2}{Scheme}{17}{0}{2}
\beamer@subsectionintoc {2}{3}{Guile}{19}{0}{2}
\beamer@subsectionintoc {2}{4}{Linking}{21}{0}{2}
\beamer@subsectionintoc {2}{5}{Extension}{24}{0}{2}
\beamer@subsectionintoc {2}{6}{Module}{26}{0}{2}
\beamer@subsectionintoc {2}{7}{Web}{28}{0}{2}
\beamer@sectionintoc {3}{References}{29}{0}{3}
\beamer@sectionintoc {4}{End}{30}{0}{4}
