\relax 
\providecommand\hyper@newdestlabel[2]{}
\providecommand\HyperFirstAtBeginDocument{\AtBeginDocument}
\HyperFirstAtBeginDocument{\ifx\hyper@anchor\@undefined
\global\let\oldcontentsline\contentsline
\gdef\contentsline#1#2#3#4{\oldcontentsline{#1}{#2}{#3}}
\global\let\oldnewlabel\newlabel
\gdef\newlabel#1#2{\newlabelxx{#1}#2}
\gdef\newlabelxx#1#2#3#4#5#6{\oldnewlabel{#1}{{#2}{#3}}}
\AtEndDocument{\ifx\hyper@anchor\@undefined
\let\contentsline\oldcontentsline
\let\newlabel\oldnewlabel
\fi}
\fi}
\global\let\hyper@last\relax 
\gdef\HyperFirstAtBeginDocument#1{#1}
\providecommand\HyField@AuxAddToFields[1]{}
\providecommand\HyField@AuxAddToCoFields[2]{}
\@writefile{toc}{\beamer@endinputifotherversion {3.36pt}}
\@writefile{nav}{\beamer@endinputifotherversion {3.36pt}}
\@writefile{nav}{\headcommand {\slideentry {0}{0}{1}{1/1}{}{0}}}
\@writefile{nav}{\headcommand {\beamer@framepages {1}{1}}}
\@writefile{nav}{\headcommand {\slideentry {0}{0}{2}{2/2}{}{0}}}
\@writefile{nav}{\headcommand {\beamer@framepages {2}{2}}}
\@writefile{toc}{\beamer@sectionintoc {1}{Me}{3}{0}{1}}
\@writefile{nav}{\headcommand {\sectionentry {1}{Me}{3}{Me}{0}}}
\@writefile{nav}{\headcommand {\beamer@sectionpages {1}{2}}}
\@writefile{nav}{\headcommand {\beamer@subsectionpages {1}{2}}}
\@writefile{nav}{\headcommand {\slideentry {1}{0}{1}{3/15}{}{0}}}
\@writefile{nav}{\headcommand {\beamer@framepages {3}{15}}}
\@writefile{toc}{\beamer@sectionintoc {2}{GNU Guile}{16}{0}{2}}
\@writefile{nav}{\headcommand {\sectionentry {2}{GNU Guile}{16}{GNU Guile}{0}}}
\@writefile{nav}{\headcommand {\beamer@sectionpages {3}{15}}}
\@writefile{nav}{\headcommand {\beamer@subsectionpages {3}{15}}}
\@writefile{toc}{\beamer@subsectionintoc {2}{1}{Install}{16}{0}{2}}
\@writefile{nav}{\headcommand {\beamer@subsectionentry {0}{2}{1}{16}{Install}}\headcommand {\beamer@subsectionpages {16}{15}}}
\@writefile{nav}{\headcommand {\slideentry {2}{1}{1}{16/16}{Install}{0}}}
\@writefile{nav}{\headcommand {\beamer@framepages {16}{16}}}
\@writefile{toc}{\beamer@subsectionintoc {2}{2}{Scheme}{17}{0}{2}}
\@writefile{nav}{\headcommand {\beamer@subsectionentry {0}{2}{2}{17}{Scheme}}\headcommand {\beamer@subsectionpages {16}{16}}}
\@writefile{nav}{\headcommand {\slideentry {2}{2}{1}{17/17}{Scheme}{0}}}
\@writefile{nav}{\headcommand {\beamer@framepages {17}{17}}}
\@writefile{nav}{\headcommand {\slideentry {2}{2}{1}{17/18}{Scheme}{0}}}
\@writefile{nav}{\headcommand {\beamer@framepages {17}{18}}}
\@writefile{toc}{\beamer@subsectionintoc {2}{3}{Guile}{19}{0}{2}}
\@writefile{nav}{\headcommand {\beamer@subsectionentry {0}{2}{3}{19}{Guile}}\headcommand {\beamer@subsectionpages {17}{18}}}
\@writefile{nav}{\headcommand {\slideentry {2}{3}{1}{19/19}{Guile}{0}}}
\@writefile{nav}{\headcommand {\beamer@framepages {19}{19}}}
\@writefile{nav}{\headcommand {\slideentry {2}{3}{1}{19/20}{Guile}{0}}}
\@writefile{nav}{\headcommand {\beamer@framepages {19}{20}}}
\@writefile{toc}{\beamer@subsectionintoc {2}{4}{Linking}{21}{0}{2}}
\@writefile{nav}{\headcommand {\beamer@subsectionentry {0}{2}{4}{21}{Linking}}\headcommand {\beamer@subsectionpages {19}{20}}}
\@writefile{nav}{\headcommand {\slideentry {2}{4}{1}{21/21}{Linking}{0}}}
\@writefile{nav}{\headcommand {\beamer@framepages {21}{21}}}
\@writefile{nav}{\headcommand {\slideentry {2}{4}{1}{21/22}{Linking}{0}}}
\@writefile{nav}{\headcommand {\beamer@framepages {21}{22}}}
\@writefile{nav}{\headcommand {\slideentry {2}{4}{1}{21/23}{Linking}{0}}}
\@writefile{nav}{\headcommand {\beamer@framepages {21}{23}}}
\@writefile{toc}{\beamer@subsectionintoc {2}{5}{Extension}{24}{0}{2}}
\@writefile{nav}{\headcommand {\beamer@subsectionentry {0}{2}{5}{24}{Extension}}\headcommand {\beamer@subsectionpages {21}{23}}}
\@writefile{nav}{\headcommand {\slideentry {2}{5}{1}{24/24}{Extension}{0}}}
\@writefile{nav}{\headcommand {\beamer@framepages {24}{24}}}
\@writefile{nav}{\headcommand {\slideentry {2}{5}{1}{24/25}{Extension}{0}}}
\@writefile{nav}{\headcommand {\beamer@framepages {24}{25}}}
\@writefile{toc}{\beamer@subsectionintoc {2}{6}{Module}{26}{0}{2}}
\@writefile{nav}{\headcommand {\beamer@subsectionentry {0}{2}{6}{26}{Module}}\headcommand {\beamer@subsectionpages {24}{25}}}
\@writefile{nav}{\headcommand {\slideentry {2}{6}{1}{26/26}{Module}{0}}}
\@writefile{nav}{\headcommand {\beamer@framepages {26}{26}}}
\@writefile{nav}{\headcommand {\slideentry {2}{6}{1}{26/27}{Module}{0}}}
\@writefile{nav}{\headcommand {\beamer@framepages {26}{27}}}
\@writefile{toc}{\beamer@subsectionintoc {2}{7}{Web}{28}{0}{2}}
\@writefile{nav}{\headcommand {\beamer@subsectionentry {0}{2}{7}{28}{Web}}\headcommand {\beamer@subsectionpages {26}{27}}}
\@writefile{nav}{\headcommand {\slideentry {2}{7}{1}{28/28}{Web}{0}}}
\@writefile{nav}{\headcommand {\beamer@framepages {28}{28}}}
\bibdata{talk}
\bibcite{2}{\hyperlink {beamerbib2}{FSF, 2016}}
\bibcite{1}{\hyperlink {beamerbib1}{Sirlin, 2016}}
\bibstyle{apalike}
\@writefile{toc}{\beamer@sectionintoc {3}{References}{29}{0}{3}}
\@writefile{nav}{\headcommand {\sectionentry {3}{References}{29}{References}{0}}}
\@writefile{nav}{\headcommand {\beamer@sectionpages {16}{28}}}
\@writefile{nav}{\headcommand {\beamer@subsectionpages {28}{28}}}
\@writefile{nav}{\headcommand {\slideentry {3}{0}{1}{29/29}{}{0}}}
\@writefile{nav}{\headcommand {\beamer@framepages {29}{29}}}
\@writefile{toc}{\beamer@sectionintoc {4}{End}{30}{0}{4}}
\@writefile{nav}{\headcommand {\sectionentry {4}{End}{30}{End}{0}}}
\@writefile{nav}{\headcommand {\beamer@sectionpages {29}{29}}}
\@writefile{nav}{\headcommand {\beamer@subsectionpages {29}{29}}}
\@writefile{nav}{\headcommand {\slideentry {4}{0}{1}{30/30}{}{0}}}
\@writefile{nav}{\headcommand {\beamer@framepages {30}{30}}}
\@writefile{nav}{\headcommand {\beamer@partpages {1}{30}}}
\@writefile{nav}{\headcommand {\beamer@subsectionpages {30}{30}}}
\@writefile{nav}{\headcommand {\beamer@sectionpages {30}{30}}}
\@writefile{nav}{\headcommand {\beamer@documentpages {30}}}
\@writefile{nav}{\headcommand {\def \inserttotalframenumber {18}}}
