\relax 
\providecommand\hyper@newdestlabel[2]{}
\providecommand\HyperFirstAtBeginDocument{\AtBeginDocument}
\HyperFirstAtBeginDocument{\ifx\hyper@anchor\@undefined
\global\let\oldcontentsline\contentsline
\gdef\contentsline#1#2#3#4{\oldcontentsline{#1}{#2}{#3}}
\global\let\oldnewlabel\newlabel
\gdef\newlabel#1#2{\newlabelxx{#1}#2}
\gdef\newlabelxx#1#2#3#4#5#6{\oldnewlabel{#1}{{#2}{#3}}}
\AtEndDocument{\ifx\hyper@anchor\@undefined
\let\contentsline\oldcontentsline
\let\newlabel\oldnewlabel
\fi}
\fi}
\global\let\hyper@last\relax 
\gdef\HyperFirstAtBeginDocument#1{#1}
\providecommand\HyField@AuxAddToFields[1]{}
\providecommand\HyField@AuxAddToCoFields[2]{}
\catcode `"\active 
\@writefile{toc}{\beamer@endinputifotherversion {3.36pt}}
\@writefile{nav}{\beamer@endinputifotherversion {3.36pt}}
\select@language{brazilian}
\@writefile{toc}{\select@language{brazilian}}
\@writefile{lof}{\select@language{brazilian}}
\@writefile{lot}{\select@language{brazilian}}
\@writefile{nav}{\headcommand {\slideentry {0}{0}{1}{1/1}{}{0}}}
\@writefile{nav}{\headcommand {\beamer@framepages {1}{1}}}
\citation{1}
\citation{1}
\citation{1}
\citation{1}
\citation{1}
\@writefile{nav}{\headcommand {\slideentry {0}{0}{2}{2/6}{}{0}}}
\@writefile{nav}{\headcommand {\beamer@framepages {2}{6}}}
\citation{3}
\citation{3}
\citation{3}
\citation{3}
\@writefile{nav}{\headcommand {\slideentry {0}{0}{3}{7/10}{}{0}}}
\@writefile{nav}{\headcommand {\beamer@framepages {7}{10}}}
\citation{3}
\citation{3}
\citation{3}
\citation{3}
\citation{3}
\citation{3}
\@writefile{nav}{\headcommand {\slideentry {0}{0}{4}{11/16}{}{0}}}
\@writefile{nav}{\headcommand {\beamer@framepages {11}{16}}}
\@writefile{nav}{\headcommand {\slideentry {0}{0}{5}{17/21}{}{0}}}
\@writefile{nav}{\headcommand {\beamer@framepages {17}{21}}}
\@writefile{nav}{\headcommand {\slideentry {0}{0}{6}{22/29}{}{0}}}
\@writefile{nav}{\headcommand {\beamer@framepages {22}{29}}}
\@writefile{nav}{\headcommand {\slideentry {0}{0}{7}{30/34}{}{0}}}
\@writefile{nav}{\headcommand {\beamer@framepages {30}{34}}}
\@writefile{nav}{\headcommand {\slideentry {0}{0}{8}{35/39}{}{0}}}
\@writefile{nav}{\headcommand {\beamer@framepages {35}{39}}}
\@writefile{nav}{\headcommand {\slideentry {0}{0}{9}{40/43}{}{0}}}
\@writefile{nav}{\headcommand {\beamer@framepages {40}{43}}}
\@writefile{nav}{\headcommand {\slideentry {0}{0}{10}{44/50}{}{0}}}
\@writefile{nav}{\headcommand {\beamer@framepages {44}{50}}}
\@writefile{nav}{\headcommand {\slideentry {0}{0}{11}{51/53}{}{0}}}
\@writefile{nav}{\headcommand {\beamer@framepages {51}{53}}}
\@writefile{nav}{\headcommand {\slideentry {0}{0}{12}{55/59}{}{0}}}
\@writefile{nav}{\headcommand {\beamer@framepages {55}{59}}}
\bibdata{talk}
\bibcite{1}{\hyperlink {beamerbib1}{Deitel and Deitel, 2010}}
\bibcite{3}{\hyperlink {beamerbib3}{Evaristo, 2015}}
\bibcite{2}{\hyperlink {beamerbib2}{Mizrahi, 2014}}
\bibstyle{apalike}
\@writefile{nav}{\headcommand {\slideentry {0}{0}{13}{60/60}{}{0}}}
\@writefile{nav}{\headcommand {\beamer@framepages {60}{60}}}
\@writefile{nav}{\headcommand {\slideentry {0}{0}{14}{61/61}{}{0}}}
\@writefile{nav}{\headcommand {\beamer@framepages {61}{61}}}
\@writefile{nav}{\headcommand {\beamer@partpages {1}{61}}}
\@writefile{nav}{\headcommand {\beamer@subsectionpages {1}{61}}}
\@writefile{nav}{\headcommand {\beamer@sectionpages {1}{61}}}
\@writefile{nav}{\headcommand {\beamer@documentpages {61}}}
\@writefile{nav}{\headcommand {\def \inserttotalframenumber {14}}}
