\relax 
\providecommand\hyper@newdestlabel[2]{}
\providecommand\HyperFirstAtBeginDocument{\AtBeginDocument}
\HyperFirstAtBeginDocument{\ifx\hyper@anchor\@undefined
\global\let\oldcontentsline\contentsline
\gdef\contentsline#1#2#3#4{\oldcontentsline{#1}{#2}{#3}}
\global\let\oldnewlabel\newlabel
\gdef\newlabel#1#2{\newlabelxx{#1}#2}
\gdef\newlabelxx#1#2#3#4#5#6{\oldnewlabel{#1}{{#2}{#3}}}
\AtEndDocument{\ifx\hyper@anchor\@undefined
\let\contentsline\oldcontentsline
\let\newlabel\oldnewlabel
\fi}
\fi}
\global\let\hyper@last\relax 
\gdef\HyperFirstAtBeginDocument#1{#1}
\providecommand\HyField@AuxAddToFields[1]{}
\providecommand\HyField@AuxAddToCoFields[2]{}
\catcode `"\active 
\@writefile{toc}{\beamer@endinputifotherversion {3.36pt}}
\@writefile{nav}{\beamer@endinputifotherversion {3.36pt}}
\select@language{brazilian}
\@writefile{toc}{\select@language{brazilian}}
\@writefile{lof}{\select@language{brazilian}}
\@writefile{lot}{\select@language{brazilian}}
\@writefile{nav}{\headcommand {\slideentry {0}{0}{1}{1/1}{}{0}}}
\@writefile{nav}{\headcommand {\beamer@framepages {1}{1}}}
\@writefile{nav}{\headcommand {\slideentry {0}{0}{2}{2/8}{}{0}}}
\@writefile{nav}{\headcommand {\beamer@framepages {2}{8}}}
\@writefile{nav}{\headcommand {\slideentry {0}{0}{3}{9/12}{}{0}}}
\@writefile{nav}{\headcommand {\beamer@framepages {9}{12}}}
\@writefile{nav}{\headcommand {\slideentry {0}{0}{4}{13/16}{}{0}}}
\@writefile{nav}{\headcommand {\beamer@framepages {13}{16}}}
\@writefile{nav}{\headcommand {\slideentry {0}{0}{5}{17/20}{}{0}}}
\@writefile{nav}{\headcommand {\beamer@framepages {17}{20}}}
\@writefile{nav}{\headcommand {\slideentry {0}{0}{6}{21/22}{}{0}}}
\@writefile{nav}{\headcommand {\beamer@framepages {21}{22}}}
\@writefile{lol}{\contentsline {lstlisting}{static/code/code}}
\@writefile{nav}{\headcommand {\slideentry {0}{0}{7}{23/24}{}{0}}}
\@writefile{nav}{\headcommand {\beamer@framepages {23}{24}}}
\@writefile{lol}{\contentsline {lstlisting}{static/code/code}}
\@writefile{nav}{\headcommand {\slideentry {0}{0}{8}{25/26}{}{0}}}
\@writefile{nav}{\headcommand {\beamer@framepages {25}{26}}}
\@writefile{lol}{\contentsline {lstlisting}{static/code/code}}
\@writefile{nav}{\headcommand {\slideentry {0}{0}{9}{27/28}{}{0}}}
\@writefile{nav}{\headcommand {\beamer@framepages {27}{28}}}
\@writefile{lol}{\contentsline {lstlisting}{static/code/code}}
\@writefile{nav}{\headcommand {\slideentry {0}{0}{10}{29/30}{}{0}}}
\@writefile{nav}{\headcommand {\beamer@framepages {29}{30}}}
\@writefile{lol}{\contentsline {lstlisting}{static/code/code}}
\@writefile{nav}{\headcommand {\slideentry {0}{0}{11}{31/32}{}{0}}}
\@writefile{nav}{\headcommand {\beamer@framepages {31}{32}}}
\@writefile{lol}{\contentsline {lstlisting}{static/code/code}}
\@writefile{nav}{\headcommand {\slideentry {0}{0}{12}{33/34}{}{0}}}
\@writefile{nav}{\headcommand {\beamer@framepages {33}{34}}}
\bibdata{talk}
\bibcite{1}{\hyperlink {beamerbib1}{Rob and Coronel, 2011}}
\bibstyle{apalike}
\@writefile{nav}{\headcommand {\slideentry {0}{0}{13}{35/35}{}{0}}}
\@writefile{nav}{\headcommand {\beamer@framepages {35}{35}}}
\@writefile{nav}{\headcommand {\slideentry {0}{0}{14}{36/36}{}{0}}}
\@writefile{nav}{\headcommand {\beamer@framepages {36}{36}}}
\@writefile{nav}{\headcommand {\beamer@partpages {1}{36}}}
\@writefile{nav}{\headcommand {\beamer@subsectionpages {1}{36}}}
\@writefile{nav}{\headcommand {\beamer@sectionpages {1}{36}}}
\@writefile{nav}{\headcommand {\beamer@documentpages {36}}}
\@writefile{nav}{\headcommand {\def \inserttotalframenumber {14}}}
