\beamer@endinputifotherversion {3.36pt}
\select@language {brazilian}
\beamer@sectionintoc {1}{An\IeC {\'a}lise L\IeC {\'e}xica}{3}{0}{1}
\beamer@subsectionintoc {1}{1}{Introdu\IeC {\c c}\IeC {\~a}o}{3}{0}{1}
\beamer@subsectionintoc {1}{2}{An\IeC {\'a}lise L\IeC {\'e}xica}{8}{0}{1}
\beamer@subsectionintoc {1}{3}{Express\IeC {\~o}es Regulares}{22}{0}{1}
\beamer@subsectionintoc {1}{4}{Algoritmo}{34}{0}{1}
\beamer@subsectionintoc {1}{5}{C\IeC {\'o}digo}{53}{0}{1}
\beamer@subsectionintoc {1}{6}{Exerc\IeC {\'\i }cio}{54}{0}{1}
\beamer@sectionintoc {2}{Refer\IeC {\^e}ncias}{58}{0}{2}
\beamer@sectionintoc {3}{Fim}{59}{0}{3}
