\relax 
\providecommand\hyper@newdestlabel[2]{}
\providecommand\HyperFirstAtBeginDocument{\AtBeginDocument}
\HyperFirstAtBeginDocument{\ifx\hyper@anchor\@undefined
\global\let\oldcontentsline\contentsline
\gdef\contentsline#1#2#3#4{\oldcontentsline{#1}{#2}{#3}}
\global\let\oldnewlabel\newlabel
\gdef\newlabel#1#2{\newlabelxx{#1}#2}
\gdef\newlabelxx#1#2#3#4#5#6{\oldnewlabel{#1}{{#2}{#3}}}
\AtEndDocument{\ifx\hyper@anchor\@undefined
\let\contentsline\oldcontentsline
\let\newlabel\oldnewlabel
\fi}
\fi}
\global\let\hyper@last\relax 
\gdef\HyperFirstAtBeginDocument#1{#1}
\providecommand\HyField@AuxAddToFields[1]{}
\providecommand\HyField@AuxAddToCoFields[2]{}
\catcode `"\active 
\@writefile{toc}{\beamer@endinputifotherversion {3.36pt}}
\@writefile{nav}{\beamer@endinputifotherversion {3.36pt}}
\select@language{brazilian}
\@writefile{toc}{\select@language{brazilian}}
\@writefile{lof}{\select@language{brazilian}}
\@writefile{lot}{\select@language{brazilian}}
\@writefile{nav}{\headcommand {\slideentry {0}{0}{1}{1/1}{}{0}}}
\@writefile{nav}{\headcommand {\beamer@framepages {1}{1}}}
\@writefile{nav}{\headcommand {\slideentry {0}{0}{2}{2/2}{}{0}}}
\@writefile{nav}{\headcommand {\beamer@framepages {2}{2}}}
\citation{1}
\@writefile{toc}{\beamer@sectionintoc {1}{An\IeC {\'a}lise L\IeC {\'e}xica}{3}{0}{1}}
\@writefile{nav}{\headcommand {\sectionentry {1}{An\IeC {\'a}lise L\IeC {\'e}xica}{3}{An\IeC {\'a}lise L\IeC {\'e}xica}{0}}}
\@writefile{nav}{\headcommand {\beamer@sectionpages {1}{2}}}
\@writefile{nav}{\headcommand {\beamer@subsectionpages {1}{2}}}
\@writefile{toc}{\beamer@subsectionintoc {1}{1}{Introdu\IeC {\c c}\IeC {\~a}o}{3}{0}{1}}
\@writefile{nav}{\headcommand {\beamer@subsectionentry {0}{1}{1}{3}{Introdu\IeC {\c c}\IeC {\~a}o}}\headcommand {\beamer@subsectionpages {3}{2}}}
\citation{1}
\citation{1}
\citation{1}
\citation{1}
\@writefile{nav}{\headcommand {\slideentry {1}{1}{1}{3/7}{Introdu\IeC {\c c}\IeC {\~a}o}{0}}}
\@writefile{nav}{\headcommand {\beamer@framepages {3}{7}}}
\@writefile{toc}{\beamer@subsectionintoc {1}{2}{An\IeC {\'a}lise L\IeC {\'e}xica}{8}{0}{1}}
\@writefile{nav}{\headcommand {\beamer@subsectionentry {0}{1}{2}{8}{An\IeC {\'a}lise L\IeC {\'e}xica}}\headcommand {\beamer@subsectionpages {3}{7}}}
\@writefile{nav}{\headcommand {\slideentry {1}{2}{1}{8/9}{An\IeC {\'a}lise L\IeC {\'e}xica}{0}}}
\@writefile{nav}{\headcommand {\beamer@framepages {8}{9}}}
\@writefile{nav}{\headcommand {\slideentry {1}{2}{2}{10/21}{An\IeC {\'a}lise L\IeC {\'e}xica}{0}}}
\@writefile{nav}{\headcommand {\beamer@framepages {10}{21}}}
\@writefile{toc}{\beamer@subsectionintoc {1}{3}{Express\IeC {\~o}es Regulares}{22}{0}{1}}
\@writefile{nav}{\headcommand {\beamer@subsectionentry {0}{1}{3}{22}{Express\IeC {\~o}es Regulares}}\headcommand {\beamer@subsectionpages {8}{21}}}
\@writefile{nav}{\headcommand {\slideentry {1}{3}{1}{22/26}{Express\IeC {\~o}es Regulares}{0}}}
\@writefile{nav}{\headcommand {\beamer@framepages {22}{26}}}
\@writefile{nav}{\headcommand {\slideentry {1}{3}{2}{27/33}{Express\IeC {\~o}es Regulares}{0}}}
\@writefile{nav}{\headcommand {\beamer@framepages {27}{33}}}
\@writefile{toc}{\beamer@subsectionintoc {1}{4}{Algoritmo}{34}{0}{1}}
\@writefile{nav}{\headcommand {\beamer@subsectionentry {0}{1}{4}{34}{Algoritmo}}\headcommand {\beamer@subsectionpages {22}{33}}}
\@writefile{nav}{\headcommand {\slideentry {1}{4}{1}{34/35}{Algoritmo}{0}}}
\@writefile{nav}{\headcommand {\beamer@framepages {34}{35}}}
\@writefile{nav}{\headcommand {\slideentry {1}{4}{2}{36/37}{Algoritmo}{0}}}
\@writefile{nav}{\headcommand {\beamer@framepages {36}{37}}}
\@writefile{nav}{\headcommand {\slideentry {1}{4}{3}{38/42}{Algoritmo}{0}}}
\@writefile{nav}{\headcommand {\beamer@framepages {38}{42}}}
\@writefile{nav}{\headcommand {\slideentry {1}{4}{4}{43/50}{Algoritmo}{0}}}
\@writefile{nav}{\headcommand {\beamer@framepages {43}{50}}}
\@writefile{nav}{\headcommand {\slideentry {1}{4}{5}{51/52}{Algoritmo}{0}}}
\@writefile{nav}{\headcommand {\beamer@framepages {51}{52}}}
\@writefile{toc}{\beamer@subsectionintoc {1}{5}{C\IeC {\'o}digo}{53}{0}{1}}
\@writefile{nav}{\headcommand {\beamer@subsectionentry {0}{1}{5}{53}{C\IeC {\'o}digo}}\headcommand {\beamer@subsectionpages {34}{52}}}
\@writefile{toc}{\beamer@subsectionintoc {1}{6}{Exerc\IeC {\'\i }cio}{54}{0}{1}}
\@writefile{nav}{\headcommand {\beamer@subsectionentry {0}{1}{6}{54}{Exerc\IeC {\'\i }cio}}\headcommand {\beamer@subsectionpages {53}{53}}}
\@writefile{nav}{\headcommand {\slideentry {1}{6}{1}{54/57}{Exerc\IeC {\'\i }cio}{0}}}
\@writefile{nav}{\headcommand {\beamer@framepages {54}{57}}}
\bibdata{talk}
\bibcite{1}{\hyperlink {beamerbib1}{AHO and Sethi, 2013}}
\bibcite{4}{\hyperlink {beamerbib4}{Louden, 2016}}
\bibcite{3}{\hyperlink {beamerbib3}{Prince and Toscani, 2015}}
\bibcite{2}{\hyperlink {beamerbib2}{Sebesta, 2014}}
\bibcite{5}{\hyperlink {beamerbib5}{Toscani, 2016}}
\bibstyle{apalike}
\@writefile{toc}{\beamer@sectionintoc {2}{Refer\IeC {\^e}ncias}{58}{0}{2}}
\@writefile{nav}{\headcommand {\sectionentry {2}{Refer\IeC {\^e}ncias}{58}{Refer\IeC {\^e}ncias}{0}}}
\@writefile{nav}{\headcommand {\beamer@sectionpages {3}{57}}}
\@writefile{nav}{\headcommand {\beamer@subsectionpages {54}{57}}}
\@writefile{nav}{\headcommand {\slideentry {2}{0}{1}{58/58}{}{0}}}
\@writefile{nav}{\headcommand {\beamer@framepages {58}{58}}}
\@writefile{toc}{\beamer@sectionintoc {3}{Fim}{59}{0}{3}}
\@writefile{nav}{\headcommand {\sectionentry {3}{Fim}{59}{Fim}{0}}}
\@writefile{nav}{\headcommand {\beamer@sectionpages {58}{58}}}
\@writefile{nav}{\headcommand {\beamer@subsectionpages {58}{58}}}
\@writefile{nav}{\headcommand {\slideentry {3}{0}{1}{59/59}{}{0}}}
\@writefile{nav}{\headcommand {\beamer@framepages {59}{59}}}
\@writefile{nav}{\headcommand {\beamer@partpages {1}{59}}}
\@writefile{nav}{\headcommand {\beamer@subsectionpages {59}{59}}}
\@writefile{nav}{\headcommand {\beamer@sectionpages {59}{59}}}
\@writefile{nav}{\headcommand {\beamer@documentpages {59}}}
\@writefile{nav}{\headcommand {\def \inserttotalframenumber {15}}}
