\begin{thebibliography}{}

\bibitem[AHO and Sethi, 2013]{1}
AHO, A.~V. and Sethi, R.~U. (2013).
\newblock {\em Compiladores - Princípios, Técnicas e Feramentas}.
\newblock LTC.

\bibitem[Louden, 2016]{4}
Louden, K. (2016).
\newblock {\em Compiladores - Princípios e Práticas}.
\newblock Cengage Learning.

\bibitem[Prince and Toscani, 2015]{3}
Prince, A. M.~A. and Toscani, S.~S. (2015).
\newblock {\em Implementação de Linguagens de Programação: Compiladores}.
\newblock Sagra Luzzatto.

\bibitem[Sebesta, 2014]{2}
Sebesta, R.~W. (2014).
\newblock {\em Conceitos de Linguagens de Programação}.
\newblock Bookman.

\bibitem[Toscani, 2016]{5}
Toscani, S. (2016).
\newblock {\em Implementação de Linguagens de Programação: Compiladores Vol
  9}.
\newblock Bookman.

\end{thebibliography}
