\relax 
\providecommand\hyper@newdestlabel[2]{}
\providecommand\HyperFirstAtBeginDocument{\AtBeginDocument}
\HyperFirstAtBeginDocument{\ifx\hyper@anchor\@undefined
\global\let\oldcontentsline\contentsline
\gdef\contentsline#1#2#3#4{\oldcontentsline{#1}{#2}{#3}}
\global\let\oldnewlabel\newlabel
\gdef\newlabel#1#2{\newlabelxx{#1}#2}
\gdef\newlabelxx#1#2#3#4#5#6{\oldnewlabel{#1}{{#2}{#3}}}
\AtEndDocument{\ifx\hyper@anchor\@undefined
\let\contentsline\oldcontentsline
\let\newlabel\oldnewlabel
\fi}
\fi}
\global\let\hyper@last\relax 
\gdef\HyperFirstAtBeginDocument#1{#1}
\providecommand\HyField@AuxAddToFields[1]{}
\providecommand\HyField@AuxAddToCoFields[2]{}
\catcode `"\active 
\@writefile{toc}{\beamer@endinputifotherversion {3.36pt}}
\@writefile{nav}{\beamer@endinputifotherversion {3.36pt}}
\select@language{brazilian}
\@writefile{toc}{\select@language{brazilian}}
\@writefile{lof}{\select@language{brazilian}}
\@writefile{lot}{\select@language{brazilian}}
\@writefile{nav}{\headcommand {\slideentry {0}{0}{1}{1/1}{}{0}}}
\@writefile{nav}{\headcommand {\beamer@framepages {1}{1}}}
\@writefile{nav}{\headcommand {\slideentry {0}{0}{2}{2/2}{}{0}}}
\@writefile{nav}{\headcommand {\beamer@framepages {2}{2}}}
\@writefile{toc}{\beamer@sectionintoc {1}{Miner}{3}{0}{1}}
\@writefile{nav}{\headcommand {\sectionentry {1}{Miner}{3}{Miner}{0}}}
\@writefile{nav}{\headcommand {\beamer@sectionpages {1}{2}}}
\@writefile{nav}{\headcommand {\beamer@subsectionpages {1}{2}}}
\@writefile{toc}{\beamer@subsectionintoc {1}{1}{Bitcoin miner}{3}{0}{1}}
\@writefile{nav}{\headcommand {\beamer@subsectionentry {0}{1}{1}{3}{Bitcoin miner}}\headcommand {\beamer@subsectionpages {3}{2}}}
\@writefile{nav}{\headcommand {\slideentry {1}{1}{1}{3/6}{Bitcoin miner}{0}}}
\@writefile{nav}{\headcommand {\beamer@framepages {3}{6}}}
\@writefile{nav}{\headcommand {\slideentry {1}{1}{2}{7/14}{Bitcoin miner}{0}}}
\@writefile{nav}{\headcommand {\beamer@framepages {7}{14}}}
\@writefile{nav}{\headcommand {\slideentry {1}{1}{3}{15/16}{Bitcoin miner}{0}}}
\@writefile{nav}{\headcommand {\beamer@framepages {15}{16}}}
\@writefile{nav}{\headcommand {\slideentry {1}{1}{4}{17/18}{Bitcoin miner}{0}}}
\@writefile{nav}{\headcommand {\beamer@framepages {17}{18}}}
\@writefile{nav}{\headcommand {\slideentry {1}{1}{5}{19/20}{Bitcoin miner}{0}}}
\@writefile{nav}{\headcommand {\beamer@framepages {19}{20}}}
\@writefile{nav}{\headcommand {\slideentry {1}{1}{6}{21/22}{Bitcoin miner}{0}}}
\@writefile{nav}{\headcommand {\beamer@framepages {21}{22}}}
\@writefile{toc}{\beamer@sectionintoc {2}{Hardware para minera\IeC {\c c}\IeC {\~a}o}{23}{0}{2}}
\@writefile{nav}{\headcommand {\sectionentry {2}{Hardware para minera\IeC {\c c}\IeC {\~a}o}{23}{Hardware para minera\IeC {\c c}\IeC {\~a}o}{0}}}
\@writefile{nav}{\headcommand {\beamer@sectionpages {3}{22}}}
\@writefile{nav}{\headcommand {\beamer@subsectionpages {3}{22}}}
\@writefile{toc}{\beamer@subsectionintoc {2}{1}{Hardware}{23}{0}{2}}
\@writefile{nav}{\headcommand {\beamer@subsectionentry {0}{2}{1}{23}{Hardware}}\headcommand {\beamer@subsectionpages {23}{22}}}
\@writefile{nav}{\headcommand {\slideentry {2}{1}{1}{23/28}{Hardware}{0}}}
\@writefile{nav}{\headcommand {\beamer@framepages {23}{28}}}
\@writefile{nav}{\headcommand {\slideentry {2}{1}{2}{29/30}{Hardware}{0}}}
\@writefile{nav}{\headcommand {\beamer@framepages {29}{30}}}
\@writefile{nav}{\headcommand {\slideentry {2}{1}{3}{31/32}{Hardware}{0}}}
\@writefile{nav}{\headcommand {\beamer@framepages {31}{32}}}
\@writefile{nav}{\headcommand {\slideentry {2}{1}{4}{33/36}{Hardware}{0}}}
\@writefile{nav}{\headcommand {\beamer@framepages {33}{36}}}
\@writefile{nav}{\headcommand {\slideentry {2}{1}{5}{37/41}{Hardware}{0}}}
\@writefile{nav}{\headcommand {\beamer@framepages {37}{41}}}
\@writefile{nav}{\headcommand {\slideentry {2}{1}{6}{42/43}{Hardware}{0}}}
\@writefile{nav}{\headcommand {\beamer@framepages {42}{43}}}
\@writefile{nav}{\headcommand {\slideentry {2}{1}{7}{44/48}{Hardware}{0}}}
\@writefile{nav}{\headcommand {\beamer@framepages {44}{48}}}
\@writefile{nav}{\headcommand {\slideentry {2}{1}{8}{49/52}{Hardware}{0}}}
\@writefile{nav}{\headcommand {\beamer@framepages {49}{52}}}
\@writefile{nav}{\headcommand {\slideentry {2}{1}{9}{53/56}{Hardware}{0}}}
\@writefile{nav}{\headcommand {\beamer@framepages {53}{56}}}
\@writefile{nav}{\headcommand {\slideentry {2}{1}{10}{57/58}{Hardware}{0}}}
\@writefile{nav}{\headcommand {\beamer@framepages {57}{58}}}
\@writefile{nav}{\headcommand {\slideentry {2}{1}{11}{59/65}{Hardware}{0}}}
\@writefile{nav}{\headcommand {\beamer@framepages {59}{65}}}
\@writefile{nav}{\headcommand {\slideentry {2}{1}{12}{66/70}{Hardware}{0}}}
\@writefile{nav}{\headcommand {\beamer@framepages {66}{70}}}
\@writefile{nav}{\headcommand {\slideentry {2}{1}{13}{71/72}{Hardware}{0}}}
\@writefile{nav}{\headcommand {\beamer@framepages {71}{72}}}
\@writefile{nav}{\headcommand {\slideentry {2}{1}{14}{73/77}{Hardware}{0}}}
\@writefile{nav}{\headcommand {\beamer@framepages {73}{77}}}
\@writefile{toc}{\beamer@subsectionintoc {2}{2}{Pool de minera\IeC {\c c}\IeC {\~a}o}{78}{0}{2}}
\@writefile{nav}{\headcommand {\beamer@subsectionentry {0}{2}{2}{78}{Pool de minera\IeC {\c c}\IeC {\~a}o}}\headcommand {\beamer@subsectionpages {23}{77}}}
\@writefile{nav}{\headcommand {\slideentry {2}{2}{1}{78/83}{Pool de minera\IeC {\c c}\IeC {\~a}o}{0}}}
\@writefile{nav}{\headcommand {\beamer@framepages {78}{83}}}
\@writefile{nav}{\headcommand {\slideentry {2}{2}{2}{84/85}{Pool de minera\IeC {\c c}\IeC {\~a}o}{0}}}
\@writefile{nav}{\headcommand {\beamer@framepages {84}{85}}}
\@writefile{nav}{\headcommand {\slideentry {2}{2}{3}{86/91}{Pool de minera\IeC {\c c}\IeC {\~a}o}{0}}}
\@writefile{nav}{\headcommand {\beamer@framepages {86}{91}}}
\@writefile{toc}{\beamer@sectionintoc {3}{Anonimato}{92}{0}{3}}
\@writefile{nav}{\headcommand {\sectionentry {3}{Anonimato}{92}{Anonimato}{0}}}
\@writefile{nav}{\headcommand {\beamer@sectionpages {23}{91}}}
\@writefile{nav}{\headcommand {\beamer@subsectionpages {78}{91}}}
\@writefile{toc}{\beamer@subsectionintoc {3}{1}{Anonimato b\IeC {\'a}sico}{92}{0}{3}}
\@writefile{nav}{\headcommand {\beamer@subsectionentry {0}{3}{1}{92}{Anonimato b\IeC {\'a}sico}}\headcommand {\beamer@subsectionpages {92}{91}}}
\@writefile{nav}{\headcommand {\slideentry {3}{1}{1}{92/94}{Anonimato b\IeC {\'a}sico}{0}}}
\@writefile{nav}{\headcommand {\beamer@framepages {92}{94}}}
\@writefile{nav}{\headcommand {\slideentry {3}{1}{2}{95/101}{Anonimato b\IeC {\'a}sico}{0}}}
\@writefile{nav}{\headcommand {\beamer@framepages {95}{101}}}
\@writefile{nav}{\headcommand {\slideentry {3}{1}{3}{102/104}{Anonimato b\IeC {\'a}sico}{0}}}
\@writefile{nav}{\headcommand {\beamer@framepages {102}{104}}}
\@writefile{nav}{\headcommand {\slideentry {3}{1}{4}{105/108}{Anonimato b\IeC {\'a}sico}{0}}}
\@writefile{nav}{\headcommand {\beamer@framepages {105}{108}}}
\@writefile{nav}{\headcommand {\slideentry {3}{1}{5}{109/112}{Anonimato b\IeC {\'a}sico}{0}}}
\@writefile{nav}{\headcommand {\beamer@framepages {109}{112}}}
\@writefile{nav}{\headcommand {\slideentry {3}{1}{6}{113/115}{Anonimato b\IeC {\'a}sico}{0}}}
\@writefile{nav}{\headcommand {\beamer@framepages {113}{115}}}
\citation{3}
\@writefile{toc}{\beamer@subsectionintoc {3}{2}{Como deanonimar o Bitcoin}{116}{0}{3}}
\@writefile{nav}{\headcommand {\beamer@subsectionentry {0}{3}{2}{116}{Como deanonimar o Bitcoin}}\headcommand {\beamer@subsectionpages {92}{115}}}
\citation{3}
\citation{3}
\citation{3}
\citation{3}
\@writefile{nav}{\headcommand {\slideentry {3}{2}{1}{116/120}{Como deanonimar o Bitcoin}{0}}}
\@writefile{nav}{\headcommand {\beamer@framepages {116}{120}}}
\@writefile{nav}{\headcommand {\slideentry {3}{2}{2}{121/124}{Como deanonimar o Bitcoin}{0}}}
\@writefile{nav}{\headcommand {\beamer@framepages {121}{124}}}
\@writefile{toc}{\beamer@subsectionintoc {3}{3}{Mixing}{125}{0}{3}}
\@writefile{nav}{\headcommand {\beamer@subsectionentry {0}{3}{3}{125}{Mixing}}\headcommand {\beamer@subsectionpages {116}{124}}}
\@writefile{nav}{\headcommand {\slideentry {3}{3}{1}{125/130}{Mixing}{0}}}
\@writefile{nav}{\headcommand {\beamer@framepages {125}{130}}}
\citation{1}
\@writefile{toc}{\beamer@sectionintoc {4}{Bitcoin}{131}{0}{4}}
\@writefile{nav}{\headcommand {\sectionentry {4}{Bitcoin}{131}{Bitcoin}{0}}}
\@writefile{nav}{\headcommand {\beamer@sectionpages {92}{130}}}
\@writefile{nav}{\headcommand {\beamer@subsectionpages {125}{130}}}
\@writefile{toc}{\beamer@subsectionintoc {4}{1}{Bitcoin core software}{131}{0}{4}}
\@writefile{nav}{\headcommand {\beamer@subsectionentry {0}{4}{1}{131}{Bitcoin core software}}\headcommand {\beamer@subsectionpages {131}{130}}}
\citation{1}
\citation{1}
\citation{1}
\@writefile{nav}{\headcommand {\slideentry {4}{1}{1}{131/134}{Bitcoin core software}{0}}}
\@writefile{nav}{\headcommand {\beamer@framepages {131}{134}}}
\@writefile{nav}{\headcommand {\slideentry {4}{1}{2}{135/138}{Bitcoin core software}{0}}}
\@writefile{nav}{\headcommand {\beamer@framepages {135}{138}}}
\@writefile{nav}{\headcommand {\slideentry {4}{1}{3}{139/140}{Bitcoin core software}{0}}}
\@writefile{nav}{\headcommand {\beamer@framepages {139}{140}}}
\@writefile{nav}{\headcommand {\slideentry {4}{1}{4}{141/144}{Bitcoin core software}{0}}}
\@writefile{nav}{\headcommand {\beamer@framepages {141}{144}}}
\@writefile{toc}{\beamer@subsectionintoc {4}{2}{Ra\IeC {\'\i }zes do Bitcoin}{145}{0}{4}}
\@writefile{nav}{\headcommand {\beamer@subsectionentry {0}{4}{2}{145}{Ra\IeC {\'\i }zes do Bitcoin}}\headcommand {\beamer@subsectionpages {131}{144}}}
\@writefile{nav}{\headcommand {\slideentry {4}{2}{1}{145/147}{Ra\IeC {\'\i }zes do Bitcoin}{0}}}
\@writefile{nav}{\headcommand {\beamer@framepages {145}{147}}}
\citation{2}
\citation{2}
\citation{2}
\citation{2}
\citation{2}
\citation{2}
\citation{2}
\@writefile{nav}{\headcommand {\slideentry {4}{2}{2}{148/154}{Ra\IeC {\'\i }zes do Bitcoin}{0}}}
\@writefile{nav}{\headcommand {\beamer@framepages {148}{154}}}
\bibdata{talk}
\bibcite{3}{\hyperlink {beamerbib3}{Biryukov et~al., 2014}}
\bibcite{1}{\hyperlink {beamerbib1}{Hobson, 2013}}
\bibcite{2}{\hyperlink {beamerbib2}{Nakamoto, 2015}}
\bibstyle{apalike}
\@writefile{toc}{\beamer@sectionintoc {5}{Fim}{155}{0}{5}}
\@writefile{nav}{\headcommand {\sectionentry {5}{Fim}{155}{Fim}{0}}}
\@writefile{nav}{\headcommand {\beamer@sectionpages {131}{154}}}
\@writefile{nav}{\headcommand {\beamer@subsectionpages {145}{154}}}
\@writefile{nav}{\headcommand {\slideentry {5}{0}{1}{155/155}{}{0}}}
\@writefile{nav}{\headcommand {\beamer@framepages {155}{155}}}
\@writefile{nav}{\headcommand {\slideentry {5}{0}{2}{156/156}{}{0}}}
\@writefile{nav}{\headcommand {\beamer@framepages {156}{156}}}
\@writefile{nav}{\headcommand {\beamer@partpages {1}{156}}}
\@writefile{nav}{\headcommand {\beamer@subsectionpages {155}{156}}}
\@writefile{nav}{\headcommand {\beamer@sectionpages {155}{156}}}
\@writefile{nav}{\headcommand {\beamer@documentpages {156}}}
\@writefile{nav}{\headcommand {\def \inserttotalframenumber {42}}}
