\relax 
\providecommand\hyper@newdestlabel[2]{}
\providecommand\HyperFirstAtBeginDocument{\AtBeginDocument}
\HyperFirstAtBeginDocument{\ifx\hyper@anchor\@undefined
\global\let\oldcontentsline\contentsline
\gdef\contentsline#1#2#3#4{\oldcontentsline{#1}{#2}{#3}}
\global\let\oldnewlabel\newlabel
\gdef\newlabel#1#2{\newlabelxx{#1}#2}
\gdef\newlabelxx#1#2#3#4#5#6{\oldnewlabel{#1}{{#2}{#3}}}
\AtEndDocument{\ifx\hyper@anchor\@undefined
\let\contentsline\oldcontentsline
\let\newlabel\oldnewlabel
\fi}
\fi}
\global\let\hyper@last\relax 
\gdef\HyperFirstAtBeginDocument#1{#1}
\providecommand\HyField@AuxAddToFields[1]{}
\providecommand\HyField@AuxAddToCoFields[2]{}
\catcode `"\active 
\babel@aux{brazilian}{}
\@writefile{nav}{\headcommand {\slideentry {0}{0}{1}{1/1}{}{0}}}
\@writefile{nav}{\headcommand {\beamer@framepages {1}{1}}}
\citation{1}
\@writefile{nav}{\headcommand {\slideentry {0}{0}{2}{2/2}{}{0}}}
\@writefile{nav}{\headcommand {\beamer@framepages {2}{2}}}
\@writefile{nav}{\headcommand {\slideentry {0}{0}{3}{3/11}{}{0}}}
\@writefile{nav}{\headcommand {\beamer@framepages {3}{11}}}
\@writefile{nav}{\headcommand {\slideentry {0}{0}{4}{12/17}{}{0}}}
\@writefile{nav}{\headcommand {\beamer@framepages {12}{17}}}
\@writefile{nav}{\headcommand {\slideentry {0}{0}{5}{18/21}{}{0}}}
\@writefile{nav}{\headcommand {\beamer@framepages {18}{21}}}
\citation{2}
\@writefile{nav}{\headcommand {\slideentry {0}{0}{6}{22/22}{}{0}}}
\@writefile{nav}{\headcommand {\beamer@framepages {22}{22}}}
\@writefile{nav}{\headcommand {\slideentry {0}{0}{7}{23/24}{}{0}}}
\@writefile{nav}{\headcommand {\beamer@framepages {23}{24}}}
\@writefile{nav}{\headcommand {\slideentry {0}{0}{8}{25/26}{}{0}}}
\@writefile{nav}{\headcommand {\beamer@framepages {25}{26}}}
\@writefile{nav}{\headcommand {\slideentry {0}{0}{9}{27/28}{}{0}}}
\@writefile{nav}{\headcommand {\beamer@framepages {27}{28}}}
\@writefile{nav}{\headcommand {\slideentry {0}{0}{10}{29/30}{}{0}}}
\@writefile{nav}{\headcommand {\beamer@framepages {29}{30}}}
\@writefile{nav}{\headcommand {\slideentry {0}{0}{11}{31/32}{}{0}}}
\@writefile{nav}{\headcommand {\beamer@framepages {31}{32}}}
\@writefile{nav}{\headcommand {\slideentry {0}{0}{12}{33/34}{}{0}}}
\@writefile{nav}{\headcommand {\beamer@framepages {33}{34}}}
\@writefile{nav}{\headcommand {\slideentry {0}{0}{13}{35/38}{}{0}}}
\@writefile{nav}{\headcommand {\beamer@framepages {35}{38}}}
\@writefile{nav}{\headcommand {\slideentry {0}{0}{14}{39/46}{}{0}}}
\@writefile{nav}{\headcommand {\beamer@framepages {39}{46}}}
\citation{3}
\@writefile{nav}{\headcommand {\slideentry {0}{0}{15}{47/47}{}{0}}}
\@writefile{nav}{\headcommand {\beamer@framepages {47}{47}}}
\@writefile{nav}{\headcommand {\slideentry {0}{0}{16}{48/53}{}{0}}}
\@writefile{nav}{\headcommand {\beamer@framepages {48}{53}}}
\@writefile{nav}{\headcommand {\slideentry {0}{0}{17}{54/59}{}{0}}}
\@writefile{nav}{\headcommand {\beamer@framepages {54}{59}}}
\@writefile{nav}{\headcommand {\slideentry {0}{0}{18}{60/63}{}{0}}}
\@writefile{nav}{\headcommand {\beamer@framepages {60}{63}}}
\citation{4}
\@writefile{nav}{\headcommand {\slideentry {0}{0}{19}{64/64}{}{0}}}
\@writefile{nav}{\headcommand {\beamer@framepages {64}{64}}}
\citation{5}
\@writefile{nav}{\headcommand {\slideentry {0}{0}{20}{65/65}{}{0}}}
\@writefile{nav}{\headcommand {\beamer@framepages {65}{65}}}
\citation{6}
\@writefile{nav}{\headcommand {\slideentry {0}{0}{21}{66/66}{}{0}}}
\@writefile{nav}{\headcommand {\beamer@framepages {66}{66}}}
\citation{7}
\@writefile{nav}{\headcommand {\slideentry {0}{0}{22}{67/67}{}{0}}}
\@writefile{nav}{\headcommand {\beamer@framepages {67}{67}}}
\@writefile{nav}{\headcommand {\slideentry {0}{0}{23}{68/72}{}{0}}}
\@writefile{nav}{\headcommand {\beamer@framepages {68}{72}}}
\@writefile{nav}{\headcommand {\slideentry {0}{0}{24}{73/80}{}{0}}}
\@writefile{nav}{\headcommand {\beamer@framepages {73}{80}}}
\@writefile{nav}{\headcommand {\slideentry {0}{0}{25}{81/90}{}{0}}}
\@writefile{nav}{\headcommand {\beamer@framepages {81}{90}}}
\@writefile{nav}{\headcommand {\slideentry {0}{0}{26}{91/100}{}{0}}}
\@writefile{nav}{\headcommand {\beamer@framepages {91}{100}}}
\@writefile{nav}{\headcommand {\slideentry {0}{0}{27}{101/106}{}{0}}}
\@writefile{nav}{\headcommand {\beamer@framepages {101}{106}}}
\@writefile{nav}{\headcommand {\slideentry {0}{0}{28}{107/116}{}{0}}}
\@writefile{nav}{\headcommand {\beamer@framepages {107}{116}}}
\citation{5}
\@writefile{nav}{\headcommand {\slideentry {0}{0}{29}{117/117}{}{0}}}
\@writefile{nav}{\headcommand {\beamer@framepages {117}{117}}}
\citation{4}
\@writefile{nav}{\headcommand {\slideentry {0}{0}{30}{118/118}{}{0}}}
\@writefile{nav}{\headcommand {\beamer@framepages {118}{118}}}
\citation{3}
\citation{3}
\@writefile{nav}{\headcommand {\slideentry {0}{0}{31}{119/119}{}{0}}}
\@writefile{nav}{\headcommand {\beamer@framepages {119}{119}}}
\@writefile{nav}{\headcommand {\slideentry {0}{0}{32}{120/124}{}{0}}}
\@writefile{nav}{\headcommand {\beamer@framepages {120}{124}}}
\citation{2}
\@writefile{nav}{\headcommand {\slideentry {0}{0}{33}{125/125}{}{0}}}
\@writefile{nav}{\headcommand {\beamer@framepages {125}{125}}}
\citation{1}
\@writefile{nav}{\headcommand {\slideentry {0}{0}{34}{126/126}{}{0}}}
\@writefile{nav}{\headcommand {\beamer@framepages {126}{126}}}
\citation{2}
\@writefile{nav}{\headcommand {\slideentry {0}{0}{35}{127/127}{}{0}}}
\@writefile{nav}{\headcommand {\beamer@framepages {127}{127}}}
\citation{1}
\@writefile{nav}{\headcommand {\slideentry {0}{0}{36}{128/128}{}{0}}}
\@writefile{nav}{\headcommand {\beamer@framepages {128}{128}}}
\citation{2}
\citation{2}
\@writefile{nav}{\headcommand {\slideentry {0}{0}{37}{129/129}{}{0}}}
\@writefile{nav}{\headcommand {\beamer@framepages {129}{129}}}
\@writefile{lol}{\contentsline {lstlisting}{static/code/code}}
\@writefile{nav}{\headcommand {\slideentry {0}{0}{38}{130/131}{}{0}}}
\@writefile{nav}{\headcommand {\beamer@framepages {130}{131}}}
\@writefile{nav}{\headcommand {\slideentry {0}{0}{39}{132/136}{}{0}}}
\@writefile{nav}{\headcommand {\beamer@framepages {132}{136}}}
\bibdata{talk}
\bibcite{2}{\hyperlink {beamerbib2}{GORDON, 2015}}
\bibcite{7}{\hyperlink {beamerbib7}{Guide, 2014}}
\bibcite{1}{\hyperlink {beamerbib1}{HARRIS, 2013}}
\bibcite{4}{\hyperlink {beamerbib4}{KUROSE, 2013}}
\bibcite{6}{\hyperlink {beamerbib6}{MCCLURE, 2013}}
\bibcite{3}{\hyperlink {beamerbib3}{STALLINGS and LAWRIW, 2013}}
\bibcite{5}{\hyperlink {beamerbib5}{WEIDMAN, 2014}}
\bibstyle{apalike}
\@writefile{nav}{\headcommand {\slideentry {0}{0}{40}{137/137}{}{0}}}
\@writefile{nav}{\headcommand {\beamer@framepages {137}{137}}}
\@writefile{nav}{\headcommand {\slideentry {0}{0}{40}{137/138}{}{0}}}
\@writefile{nav}{\headcommand {\beamer@framepages {137}{138}}}
\@writefile{nav}{\headcommand {\slideentry {0}{0}{41}{139/139}{}{0}}}
\@writefile{nav}{\headcommand {\beamer@framepages {139}{139}}}
\@writefile{nav}{\headcommand {\beamer@partpages {1}{139}}}
\@writefile{nav}{\headcommand {\beamer@subsectionpages {1}{139}}}
\@writefile{nav}{\headcommand {\beamer@sectionpages {1}{139}}}
\@writefile{nav}{\headcommand {\beamer@documentpages {139}}}
\@writefile{nav}{\headcommand {\gdef \inserttotalframenumber {42}}}
