\BOOKMARK [2][]{Outline0.1}{About Me}{}% 1
\BOOKMARK [2][]{Outline0.2}{Guile}{}% 2
\BOOKMARK [3][]{Outline0.2.1.4}{About}{Outline0.2}% 3
\BOOKMARK [3][]{Outline0.2.2.8}{Features}{Outline0.2}% 4
\BOOKMARK [3][]{Outline0.2.3.14}{Programming Languages Supported}{Outline0.2}% 5
\BOOKMARK [3][]{Outline0.2.4.21}{Projects}{Outline0.2}% 6
\BOOKMARK [3][]{Outline0.2.5.27}{Help}{Outline0.2}% 7
\BOOKMARK [3][]{Outline0.2.6.31}{Code Live}{Outline0.2}% 8
\BOOKMARK [2][]{Outline0.3}{Thanks}{}% 9
