\relax 
\providecommand\hyper@newdestlabel[2]{}
\providecommand\HyperFirstAtBeginDocument{\AtBeginDocument}
\HyperFirstAtBeginDocument{\ifx\hyper@anchor\@undefined
\global\let\oldcontentsline\contentsline
\gdef\contentsline#1#2#3#4{\oldcontentsline{#1}{#2}{#3}}
\global\let\oldnewlabel\newlabel
\gdef\newlabel#1#2{\newlabelxx{#1}#2}
\gdef\newlabelxx#1#2#3#4#5#6{\oldnewlabel{#1}{{#2}{#3}}}
\AtEndDocument{\ifx\hyper@anchor\@undefined
\let\contentsline\oldcontentsline
\let\newlabel\oldnewlabel
\fi}
\fi}
\global\let\hyper@last\relax 
\gdef\HyperFirstAtBeginDocument#1{#1}
\providecommand\HyField@AuxAddToFields[1]{}
\providecommand\HyField@AuxAddToCoFields[2]{}
\catcode `"\active 
\@writefile{toc}{\beamer@endinputifotherversion {3.36pt}}
\@writefile{nav}{\beamer@endinputifotherversion {3.36pt}}
\select@language{brazilian}
\@writefile{toc}{\select@language{brazilian}}
\@writefile{lof}{\select@language{brazilian}}
\@writefile{lot}{\select@language{brazilian}}
\@writefile{nav}{\headcommand {\slideentry {0}{0}{1}{1/1}{}{0}}}
\@writefile{nav}{\headcommand {\beamer@framepages {1}{1}}}
\@writefile{nav}{\headcommand {\slideentry {0}{0}{2}{2/2}{}{0}}}
\@writefile{nav}{\headcommand {\beamer@framepages {2}{2}}}
\@writefile{toc}{\beamer@sectionintoc {1}{About Me}{3}{0}{1}}
\@writefile{nav}{\headcommand {\sectionentry {1}{About Me}{3}{About Me}{0}}}
\@writefile{nav}{\headcommand {\beamer@sectionpages {1}{2}}}
\@writefile{nav}{\headcommand {\beamer@subsectionpages {1}{2}}}
\@writefile{nav}{\headcommand {\slideentry {1}{0}{1}{3/3}{}{0}}}
\@writefile{nav}{\headcommand {\beamer@framepages {3}{3}}}
\@writefile{toc}{\beamer@sectionintoc {2}{Guile}{4}{0}{2}}
\@writefile{nav}{\headcommand {\sectionentry {2}{Guile}{4}{Guile}{0}}}
\@writefile{nav}{\headcommand {\beamer@sectionpages {3}{3}}}
\@writefile{nav}{\headcommand {\beamer@subsectionpages {3}{3}}}
\@writefile{toc}{\beamer@subsectionintoc {2}{1}{About}{4}{0}{2}}
\@writefile{nav}{\headcommand {\beamer@subsectionentry {0}{2}{1}{4}{About}}\headcommand {\beamer@subsectionpages {4}{3}}}
\@writefile{nav}{\headcommand {\slideentry {2}{1}{1}{4/5}{About}{0}}}
\@writefile{nav}{\headcommand {\beamer@framepages {4}{5}}}
\citation{1}
\@writefile{nav}{\headcommand {\slideentry {2}{1}{2}{6/7}{About}{0}}}
\@writefile{nav}{\headcommand {\beamer@framepages {6}{7}}}
\@writefile{toc}{\beamer@subsectionintoc {2}{2}{Features}{8}{0}{2}}
\@writefile{nav}{\headcommand {\beamer@subsectionentry {0}{2}{2}{8}{Features}}\headcommand {\beamer@subsectionpages {4}{7}}}
\@writefile{nav}{\headcommand {\slideentry {2}{2}{1}{8/13}{Features}{0}}}
\@writefile{nav}{\headcommand {\beamer@framepages {8}{13}}}
\@writefile{toc}{\beamer@subsectionintoc {2}{3}{Programming Languages Supported}{14}{0}{2}}
\@writefile{nav}{\headcommand {\beamer@subsectionentry {0}{2}{3}{14}{Programming Languages Supported}}\headcommand {\beamer@subsectionpages {8}{13}}}
\@writefile{nav}{\headcommand {\slideentry {2}{3}{1}{14/20}{Programming Languages Supported}{0}}}
\@writefile{nav}{\headcommand {\beamer@framepages {14}{20}}}
\@writefile{toc}{\beamer@subsectionintoc {2}{4}{Projects}{21}{0}{2}}
\@writefile{nav}{\headcommand {\beamer@subsectionentry {0}{2}{4}{21}{Projects}}\headcommand {\beamer@subsectionpages {14}{20}}}
\@writefile{nav}{\headcommand {\slideentry {2}{4}{1}{21/26}{Projects}{0}}}
\@writefile{nav}{\headcommand {\beamer@framepages {21}{26}}}
\@writefile{toc}{\beamer@subsectionintoc {2}{5}{Help}{27}{0}{2}}
\@writefile{nav}{\headcommand {\beamer@subsectionentry {0}{2}{5}{27}{Help}}\headcommand {\beamer@subsectionpages {21}{26}}}
\@writefile{nav}{\headcommand {\slideentry {2}{5}{1}{27/30}{Help}{0}}}
\@writefile{nav}{\headcommand {\beamer@framepages {27}{30}}}
\@writefile{toc}{\beamer@subsectionintoc {2}{6}{Code Live}{31}{0}{2}}
\@writefile{nav}{\headcommand {\beamer@subsectionentry {0}{2}{6}{31}{Code Live}}\headcommand {\beamer@subsectionpages {27}{30}}}
\@writefile{lol}{\contentsline {lstlisting}{code/sfd.scm}}
\@writefile{nav}{\headcommand {\slideentry {2}{6}{1}{31/31}{Code Live}{0}}}
\@writefile{nav}{\headcommand {\beamer@framepages {31}{31}}}
\bibcite{1}{\hyperlink {beamerbib1}{FSF 2015}}
\@writefile{toc}{\beamer@sectionintoc {3}{Thanks}{32}{0}{3}}
\@writefile{nav}{\headcommand {\sectionentry {3}{Thanks}{32}{Thanks}{0}}}
\@writefile{nav}{\headcommand {\beamer@sectionpages {4}{31}}}
\@writefile{nav}{\headcommand {\beamer@subsectionpages {31}{31}}}
\@writefile{nav}{\headcommand {\slideentry {3}{0}{1}{32/32}{}{0}}}
\@writefile{nav}{\headcommand {\beamer@framepages {32}{32}}}
\@writefile{nav}{\headcommand {\slideentry {3}{0}{2}{33/33}{}{0}}}
\@writefile{nav}{\headcommand {\beamer@framepages {33}{33}}}
\@writefile{nav}{\headcommand {\beamer@partpages {1}{33}}}
\@writefile{nav}{\headcommand {\beamer@subsectionpages {32}{33}}}
\@writefile{nav}{\headcommand {\beamer@sectionpages {32}{33}}}
\@writefile{nav}{\headcommand {\beamer@documentpages {33}}}
\@writefile{nav}{\headcommand {\def \inserttotalframenumber {12}}}
