\relax 
\providecommand\hyper@newdestlabel[2]{}
\providecommand\HyperFirstAtBeginDocument{\AtBeginDocument}
\HyperFirstAtBeginDocument{\ifx\hyper@anchor\@undefined
\global\let\oldcontentsline\contentsline
\gdef\contentsline#1#2#3#4{\oldcontentsline{#1}{#2}{#3}}
\global\let\oldnewlabel\newlabel
\gdef\newlabel#1#2{\newlabelxx{#1}#2}
\gdef\newlabelxx#1#2#3#4#5#6{\oldnewlabel{#1}{{#2}{#3}}}
\AtEndDocument{\ifx\hyper@anchor\@undefined
\let\contentsline\oldcontentsline
\let\newlabel\oldnewlabel
\fi}
\fi}
\global\let\hyper@last\relax 
\gdef\HyperFirstAtBeginDocument#1{#1}
\providecommand\HyField@AuxAddToFields[1]{}
\providecommand\HyField@AuxAddToCoFields[2]{}
\catcode `"\active 
\@writefile{toc}{\beamer@endinputifotherversion {3.36pt}}
\@writefile{nav}{\beamer@endinputifotherversion {3.36pt}}
\select@language{brazilian}
\@writefile{toc}{\select@language{brazilian}}
\@writefile{lof}{\select@language{brazilian}}
\@writefile{lot}{\select@language{brazilian}}
\@writefile{nav}{\headcommand {\slideentry {0}{0}{1}{1/1}{}{0}}}
\@writefile{nav}{\headcommand {\beamer@framepages {1}{1}}}
\@writefile{nav}{\headcommand {\slideentry {0}{0}{2}{2/6}{}{0}}}
\@writefile{nav}{\headcommand {\beamer@framepages {2}{6}}}
\@writefile{nav}{\headcommand {\slideentry {0}{0}{3}{7/15}{}{0}}}
\@writefile{nav}{\headcommand {\beamer@framepages {7}{15}}}
\@writefile{nav}{\headcommand {\slideentry {0}{0}{4}{16/18}{}{0}}}
\@writefile{nav}{\headcommand {\beamer@framepages {16}{18}}}
\@writefile{nav}{\headcommand {\slideentry {0}{0}{5}{19/26}{}{0}}}
\@writefile{nav}{\headcommand {\beamer@framepages {19}{26}}}
\@writefile{nav}{\headcommand {\slideentry {0}{0}{6}{27/29}{}{0}}}
\@writefile{nav}{\headcommand {\beamer@framepages {27}{29}}}
\@writefile{nav}{\headcommand {\slideentry {0}{0}{7}{30/35}{}{0}}}
\@writefile{nav}{\headcommand {\beamer@framepages {30}{35}}}
\@writefile{nav}{\headcommand {\slideentry {0}{0}{8}{36/42}{}{0}}}
\@writefile{nav}{\headcommand {\beamer@framepages {36}{42}}}
\@writefile{nav}{\headcommand {\slideentry {0}{0}{9}{43/44}{}{0}}}
\@writefile{nav}{\headcommand {\beamer@framepages {43}{44}}}
\@writefile{nav}{\headcommand {\slideentry {0}{0}{10}{45/46}{}{0}}}
\@writefile{nav}{\headcommand {\beamer@framepages {45}{46}}}
\bibdata{talk}
\bibcite{1}{\hyperlink {beamerbib1}{Rob and Coronel, 2011}}
\bibstyle{apalike}
\@writefile{nav}{\headcommand {\slideentry {0}{0}{11}{47/47}{}{0}}}
\@writefile{nav}{\headcommand {\beamer@framepages {47}{47}}}
\@writefile{nav}{\headcommand {\slideentry {0}{0}{12}{48/48}{}{0}}}
\@writefile{nav}{\headcommand {\beamer@framepages {48}{48}}}
\@writefile{nav}{\headcommand {\beamer@partpages {1}{48}}}
\@writefile{nav}{\headcommand {\beamer@subsectionpages {1}{48}}}
\@writefile{nav}{\headcommand {\beamer@sectionpages {1}{48}}}
\@writefile{nav}{\headcommand {\beamer@documentpages {48}}}
\@writefile{nav}{\headcommand {\def \inserttotalframenumber {12}}}
