\relax 
\providecommand\hyper@newdestlabel[2]{}
\providecommand\HyperFirstAtBeginDocument{\AtBeginDocument}
\HyperFirstAtBeginDocument{\ifx\hyper@anchor\@undefined
\global\let\oldcontentsline\contentsline
\gdef\contentsline#1#2#3#4{\oldcontentsline{#1}{#2}{#3}}
\global\let\oldnewlabel\newlabel
\gdef\newlabel#1#2{\newlabelxx{#1}#2}
\gdef\newlabelxx#1#2#3#4#5#6{\oldnewlabel{#1}{{#2}{#3}}}
\AtEndDocument{\ifx\hyper@anchor\@undefined
\let\contentsline\oldcontentsline
\let\newlabel\oldnewlabel
\fi}
\fi}
\global\let\hyper@last\relax 
\gdef\HyperFirstAtBeginDocument#1{#1}
\providecommand\HyField@AuxAddToFields[1]{}
\providecommand\HyField@AuxAddToCoFields[2]{}
\catcode `"\active 
\babel@aux{brazilian}{}
\@writefile{nav}{\headcommand {\slideentry {0}{0}{1}{1/1}{}{0}}}
\@writefile{nav}{\headcommand {\beamer@framepages {1}{1}}}
\@writefile{nav}{\headcommand {\slideentry {0}{0}{2}{2/7}{}{0}}}
\@writefile{nav}{\headcommand {\beamer@framepages {2}{7}}}
\@writefile{nav}{\headcommand {\slideentry {0}{0}{3}{8/11}{}{0}}}
\@writefile{nav}{\headcommand {\beamer@framepages {8}{11}}}
\@writefile{nav}{\headcommand {\slideentry {0}{0}{4}{12/15}{}{0}}}
\@writefile{nav}{\headcommand {\beamer@framepages {12}{15}}}
\@writefile{nav}{\headcommand {\slideentry {0}{0}{5}{16/20}{}{0}}}
\@writefile{nav}{\headcommand {\beamer@framepages {16}{20}}}
\@writefile{nav}{\headcommand {\slideentry {0}{0}{6}{21/24}{}{0}}}
\@writefile{nav}{\headcommand {\beamer@framepages {21}{24}}}
\@writefile{nav}{\headcommand {\slideentry {0}{0}{7}{25/32}{}{0}}}
\@writefile{nav}{\headcommand {\beamer@framepages {25}{32}}}
\@writefile{nav}{\headcommand {\slideentry {0}{0}{8}{33/42}{}{0}}}
\@writefile{nav}{\headcommand {\beamer@framepages {33}{42}}}
\@writefile{lol}{\contentsline {lstlisting}{static/code/code}}
\@writefile{lol}{\contentsline {lstlisting}{static/code/code}}
\@writefile{lol}{\contentsline {lstlisting}{static/code/code}}
\@writefile{lol}{\contentsline {lstlisting}{static/code/code}}
\@writefile{lol}{\contentsline {lstlisting}{static/code/code}}
\@writefile{lol}{\contentsline {lstlisting}{static/code/code}}
\@writefile{lol}{\contentsline {lstlisting}{static/code/code}}
\@writefile{lol}{\contentsline {lstlisting}{static/code/code}}
\@writefile{lol}{\contentsline {lstlisting}{static/code/code}}
\@writefile{lol}{\contentsline {lstlisting}{static/code/code}}
\@writefile{nav}{\headcommand {\slideentry {0}{0}{9}{43/47}{}{0}}}
\@writefile{nav}{\headcommand {\beamer@framepages {43}{47}}}
\@writefile{nav}{\headcommand {\slideentry {0}{0}{10}{48/52}{}{0}}}
\@writefile{nav}{\headcommand {\beamer@framepages {48}{52}}}
\bibdata{talk}
\bibcite{2}{\hyperlink {beamerbib2}{GORDON, 2015}}
\bibcite{7}{\hyperlink {beamerbib7}{Guide, 2014}}
\bibcite{1}{\hyperlink {beamerbib1}{HARRIS, 2013}}
\bibcite{4}{\hyperlink {beamerbib4}{KUROSE, 2013}}
\bibcite{6}{\hyperlink {beamerbib6}{MCCLURE, 2013}}
\bibcite{3}{\hyperlink {beamerbib3}{STALLINGS and LAWRIW, 2013}}
\bibcite{5}{\hyperlink {beamerbib5}{WEIDMAN, 2014}}
\bibstyle{apalike}
\@writefile{nav}{\headcommand {\slideentry {0}{0}{11}{53/53}{}{0}}}
\@writefile{nav}{\headcommand {\beamer@framepages {53}{53}}}
\@writefile{nav}{\headcommand {\slideentry {0}{0}{11}{53/54}{}{0}}}
\@writefile{nav}{\headcommand {\beamer@framepages {53}{54}}}
\@writefile{nav}{\headcommand {\slideentry {0}{0}{12}{55/55}{}{0}}}
\@writefile{nav}{\headcommand {\beamer@framepages {55}{55}}}
\@writefile{nav}{\headcommand {\beamer@partpages {1}{55}}}
\@writefile{nav}{\headcommand {\beamer@subsectionpages {1}{55}}}
\@writefile{nav}{\headcommand {\beamer@sectionpages {1}{55}}}
\@writefile{nav}{\headcommand {\beamer@documentpages {55}}}
\@writefile{nav}{\headcommand {\gdef \inserttotalframenumber {13}}}
