\relax 
\providecommand\hyper@newdestlabel[2]{}
\providecommand\HyperFirstAtBeginDocument{\AtBeginDocument}
\HyperFirstAtBeginDocument{\ifx\hyper@anchor\@undefined
\global\let\oldcontentsline\contentsline
\gdef\contentsline#1#2#3#4{\oldcontentsline{#1}{#2}{#3}}
\global\let\oldnewlabel\newlabel
\gdef\newlabel#1#2{\newlabelxx{#1}#2}
\gdef\newlabelxx#1#2#3#4#5#6{\oldnewlabel{#1}{{#2}{#3}}}
\AtEndDocument{\ifx\hyper@anchor\@undefined
\let\contentsline\oldcontentsline
\let\newlabel\oldnewlabel
\fi}
\fi}
\global\let\hyper@last\relax 
\gdef\HyperFirstAtBeginDocument#1{#1}
\providecommand\HyField@AuxAddToFields[1]{}
\providecommand\HyField@AuxAddToCoFields[2]{}
\@writefile{toc}{\beamer@endinputifotherversion {3.36pt}}
\@writefile{nav}{\beamer@endinputifotherversion {3.36pt}}
\@writefile{nav}{\headcommand {\slideentry {0}{0}{1}{1/1}{}{0}}}
\@writefile{nav}{\headcommand {\beamer@framepages {1}{1}}}
\@writefile{nav}{\headcommand {\slideentry {0}{0}{2}{2/2}{}{0}}}
\@writefile{nav}{\headcommand {\beamer@framepages {2}{2}}}
\@writefile{nav}{\headcommand {\slideentry {0}{0}{2}{2/3}{}{0}}}
\@writefile{nav}{\headcommand {\beamer@framepages {2}{3}}}
\@writefile{toc}{\beamer@sectionintoc {1}{Me}{4}{0}{1}}
\@writefile{nav}{\headcommand {\sectionentry {1}{Me}{4}{Me}{0}}}
\@writefile{nav}{\headcommand {\beamer@sectionpages {1}{3}}}
\@writefile{nav}{\headcommand {\beamer@subsectionpages {1}{3}}}
\@writefile{toc}{\beamer@subsectionintoc {1}{1}{Me}{4}{0}{1}}
\@writefile{nav}{\headcommand {\beamer@subsectionentry {0}{1}{1}{4}{Me}}\headcommand {\beamer@subsectionpages {4}{3}}}
\@writefile{nav}{\headcommand {\slideentry {1}{1}{1}{4/13}{Me}{0}}}
\@writefile{nav}{\headcommand {\beamer@framepages {4}{13}}}
\citation{1}
\@writefile{toc}{\beamer@sectionintoc {2}{Criptocurrency}{14}{0}{2}}
\@writefile{nav}{\headcommand {\sectionentry {2}{Criptocurrency}{14}{Criptocurrency}{0}}}
\@writefile{nav}{\headcommand {\beamer@sectionpages {4}{13}}}
\@writefile{nav}{\headcommand {\beamer@subsectionpages {4}{13}}}
\@writefile{toc}{\beamer@subsectionintoc {2}{1}{Cryptocurrency}{14}{0}{2}}
\@writefile{nav}{\headcommand {\beamer@subsectionentry {0}{2}{1}{14}{Cryptocurrency}}\headcommand {\beamer@subsectionpages {14}{13}}}
\citation{1}
\@writefile{nav}{\headcommand {\slideentry {2}{1}{1}{14/15}{Cryptocurrency}{0}}}
\@writefile{nav}{\headcommand {\beamer@framepages {14}{15}}}
\@writefile{toc}{\beamer@subsectionintoc {2}{2}{Features}{16}{0}{2}}
\@writefile{nav}{\headcommand {\beamer@subsectionentry {0}{2}{2}{16}{Features}}\headcommand {\beamer@subsectionpages {14}{15}}}
\@writefile{nav}{\headcommand {\slideentry {2}{2}{1}{16/20}{Features}{0}}}
\@writefile{nav}{\headcommand {\beamer@framepages {16}{20}}}
\citation{2}
\citation{3}
\citation{4}
\citation{5}
\@writefile{toc}{\beamer@subsectionintoc {2}{3}{History}{21}{0}{2}}
\@writefile{nav}{\headcommand {\beamer@subsectionentry {0}{2}{3}{21}{History}}\headcommand {\beamer@subsectionpages {16}{20}}}
\citation{2}
\citation{3}
\citation{4}
\citation{5}
\citation{2}
\citation{3}
\citation{4}
\citation{5}
\citation{2}
\citation{3}
\citation{4}
\citation{5}
\citation{2}
\citation{3}
\citation{4}
\citation{5}
\@writefile{nav}{\headcommand {\slideentry {2}{3}{1}{21/25}{History}{0}}}
\@writefile{nav}{\headcommand {\beamer@framepages {21}{25}}}
\@writefile{toc}{\beamer@subsectionintoc {2}{4}{Legality}{26}{0}{2}}
\@writefile{nav}{\headcommand {\beamer@subsectionentry {0}{2}{4}{26}{Legality}}\headcommand {\beamer@subsectionpages {21}{25}}}
\@writefile{nav}{\headcommand {\slideentry {2}{4}{1}{26/31}{Legality}{0}}}
\@writefile{nav}{\headcommand {\beamer@framepages {26}{31}}}
\citation{1}
\@writefile{toc}{\beamer@sectionintoc {3}{Bitcoin}{32}{0}{3}}
\@writefile{nav}{\headcommand {\sectionentry {3}{Bitcoin}{32}{Bitcoin}{0}}}
\@writefile{nav}{\headcommand {\beamer@sectionpages {14}{31}}}
\@writefile{nav}{\headcommand {\beamer@subsectionpages {26}{31}}}
\@writefile{toc}{\beamer@subsectionintoc {3}{1}{Bitcoin}{32}{0}{3}}
\@writefile{nav}{\headcommand {\beamer@subsectionentry {0}{3}{1}{32}{Bitcoin}}\headcommand {\beamer@subsectionpages {32}{31}}}
\citation{1}
\@writefile{nav}{\headcommand {\slideentry {3}{1}{1}{32/33}{Bitcoin}{0}}}
\@writefile{nav}{\headcommand {\beamer@framepages {32}{33}}}
\@writefile{toc}{\beamer@subsectionintoc {3}{2}{Bitcoin Developers}{34}{0}{3}}
\@writefile{nav}{\headcommand {\beamer@subsectionentry {0}{3}{2}{34}{Bitcoin Developers}}\headcommand {\beamer@subsectionpages {32}{33}}}
\citation{6}
\@writefile{nav}{\headcommand {\slideentry {3}{2}{1}{34/35}{Bitcoin Developers}{0}}}
\@writefile{nav}{\headcommand {\beamer@framepages {34}{35}}}
\@writefile{toc}{\beamer@subsectionintoc {3}{3}{Bitcoin Facts}{36}{0}{3}}
\@writefile{nav}{\headcommand {\beamer@subsectionentry {0}{3}{3}{36}{Bitcoin Facts}}\headcommand {\beamer@subsectionpages {34}{35}}}
\@writefile{nav}{\headcommand {\slideentry {3}{3}{1}{36/48}{Bitcoin Facts}{0}}}
\@writefile{nav}{\headcommand {\beamer@framepages {36}{48}}}
\@writefile{toc}{\beamer@subsectionintoc {3}{4}{Bitcoin for All}{49}{0}{3}}
\@writefile{nav}{\headcommand {\beamer@subsectionentry {0}{3}{4}{49}{Bitcoin for All}}\headcommand {\beamer@subsectionpages {36}{48}}}
\@writefile{nav}{\headcommand {\slideentry {3}{4}{1}{49/63}{Bitcoin for All}{0}}}
\@writefile{nav}{\headcommand {\beamer@framepages {49}{63}}}
\@writefile{toc}{\beamer@subsectionintoc {3}{5}{Amount of Bitcoin Clients}{64}{0}{3}}
\@writefile{nav}{\headcommand {\beamer@subsectionentry {0}{3}{5}{64}{Amount of Bitcoin Clients}}\headcommand {\beamer@subsectionpages {49}{63}}}
\citation{6}
\@writefile{nav}{\headcommand {\slideentry {3}{5}{1}{64/65}{Amount of Bitcoin Clients}{0}}}
\@writefile{nav}{\headcommand {\beamer@framepages {64}{65}}}
\@writefile{toc}{\beamer@subsectionintoc {3}{6}{Amount of Bitcoin Transactions}{66}{0}{3}}
\@writefile{nav}{\headcommand {\beamer@subsectionentry {0}{3}{6}{66}{Amount of Bitcoin Transactions}}\headcommand {\beamer@subsectionpages {64}{65}}}
\citation{7}
\@writefile{nav}{\headcommand {\slideentry {3}{6}{1}{66/67}{Amount of Bitcoin Transactions}{0}}}
\@writefile{nav}{\headcommand {\beamer@framepages {66}{67}}}
\@writefile{toc}{\beamer@subsectionintoc {3}{7}{Bitcoin System}{68}{0}{3}}
\@writefile{nav}{\headcommand {\beamer@subsectionentry {0}{3}{7}{68}{Bitcoin System}}\headcommand {\beamer@subsectionpages {66}{67}}}
\citation{9}
\@writefile{nav}{\headcommand {\slideentry {3}{7}{1}{68/69}{Bitcoin System}{0}}}
\@writefile{nav}{\headcommand {\beamer@framepages {68}{69}}}
\@writefile{toc}{\beamer@sectionintoc {4}{Bitcoin Elements}{70}{0}{4}}
\@writefile{nav}{\headcommand {\sectionentry {4}{Bitcoin Elements}{70}{Bitcoin Elements}{0}}}
\@writefile{nav}{\headcommand {\beamer@sectionpages {32}{69}}}
\@writefile{nav}{\headcommand {\beamer@subsectionpages {68}{69}}}
\@writefile{toc}{\beamer@subsectionintoc {4}{1}{Wallet}{70}{0}{4}}
\@writefile{nav}{\headcommand {\beamer@subsectionentry {0}{4}{1}{70}{Wallet}}\headcommand {\beamer@subsectionpages {70}{69}}}
\@writefile{nav}{\headcommand {\slideentry {4}{1}{1}{70/78}{Wallet}{0}}}
\@writefile{nav}{\headcommand {\beamer@framepages {70}{78}}}
\@writefile{toc}{\beamer@subsectionintoc {4}{2}{Miner}{79}{0}{4}}
\@writefile{nav}{\headcommand {\beamer@subsectionentry {0}{4}{2}{79}{Miner}}\headcommand {\beamer@subsectionpages {70}{78}}}
\@writefile{nav}{\headcommand {\slideentry {4}{2}{1}{79/86}{Miner}{0}}}
\@writefile{nav}{\headcommand {\beamer@framepages {79}{86}}}
\@writefile{toc}{\beamer@subsectionintoc {4}{3}{Blockchain}{87}{0}{4}}
\@writefile{nav}{\headcommand {\beamer@subsectionentry {0}{4}{3}{87}{Blockchain}}\headcommand {\beamer@subsectionpages {79}{86}}}
\citation{8}
\@writefile{nav}{\headcommand {\slideentry {4}{3}{1}{87/88}{Blockchain}{0}}}
\@writefile{nav}{\headcommand {\beamer@framepages {87}{88}}}
\citation{10}
\citation{11}
\citation{10}
\citation{11}
\@writefile{toc}{\beamer@sectionintoc {5}{Cracking}{89}{0}{5}}
\@writefile{nav}{\headcommand {\sectionentry {5}{Cracking}{89}{Cracking}{0}}}
\@writefile{nav}{\headcommand {\beamer@sectionpages {70}{88}}}
\@writefile{nav}{\headcommand {\beamer@subsectionpages {87}{88}}}
\@writefile{toc}{\beamer@subsectionintoc {5}{1}{Cracking}{89}{0}{5}}
\@writefile{nav}{\headcommand {\beamer@subsectionentry {0}{5}{1}{89}{Cracking}}\headcommand {\beamer@subsectionpages {89}{88}}}
\citation{10}
\citation{11}
\citation{10}
\citation{11}
\citation{10}
\citation{11}
\citation{10}
\citation{11}
\citation{10}
\citation{11}
\citation{10}
\citation{11}
\citation{10}
\citation{11}
\citation{10}
\citation{11}
\@writefile{nav}{\headcommand {\slideentry {5}{1}{1}{89/93}{Cracking}{0}}}
\@writefile{nav}{\headcommand {\beamer@framepages {89}{93}}}
\@writefile{toc}{\beamer@sectionintoc {6}{Hacking}{94}{0}{6}}
\@writefile{nav}{\headcommand {\sectionentry {6}{Hacking}{94}{Hacking}{0}}}
\@writefile{nav}{\headcommand {\beamer@sectionpages {89}{93}}}
\@writefile{nav}{\headcommand {\beamer@subsectionpages {89}{93}}}
\@writefile{toc}{\beamer@subsectionintoc {6}{1}{Hacking}{94}{0}{6}}
\@writefile{nav}{\headcommand {\beamer@subsectionentry {0}{6}{1}{94}{Hacking}}\headcommand {\beamer@subsectionpages {94}{93}}}
\@writefile{nav}{\headcommand {\slideentry {6}{1}{1}{94/101}{Hacking}{0}}}
\@writefile{nav}{\headcommand {\beamer@framepages {94}{101}}}
\bibdata{talk}
\bibcite{11}{\hyperlink {beamerbib11}{Biryukov et\nobreakspace  {}al., 2014}}
\bibcite{10}{\hyperlink {beamerbib10}{Bradbury, 2015}}
\bibcite{5}{\hyperlink {beamerbib5}{CoinMarketCap, 2016}}
\bibcite{2}{\hyperlink {beamerbib2}{Dai, 2016}}
\bibcite{4}{\hyperlink {beamerbib4}{Evans-Pughe et\nobreakspace  {}al., 2014}}
\bibcite{1}{\hyperlink {beamerbib1}{Nakamoto, 2016a}}
\bibcite{8}{\hyperlink {beamerbib8}{Nakamoto, 2016b}}
\bibcite{3}{\hyperlink {beamerbib3}{Peck, 2016}}
\bibcite{6}{\hyperlink {beamerbib6}{Smith, 2016a}}
\bibcite{7}{\hyperlink {beamerbib7}{Smith, 2016b}}
\bibcite{9}{\hyperlink {beamerbib9}{Times, 2016}}
\bibstyle{apalike}
\@writefile{toc}{\beamer@sectionintoc {7}{References}{102}{0}{7}}
\@writefile{nav}{\headcommand {\sectionentry {7}{References}{102}{References}{0}}}
\@writefile{nav}{\headcommand {\beamer@sectionpages {94}{101}}}
\@writefile{nav}{\headcommand {\beamer@subsectionpages {94}{101}}}
\@writefile{toc}{\beamer@subsectionintoc {7}{1}{References}{102}{0}{7}}
\@writefile{nav}{\headcommand {\beamer@subsectionentry {0}{7}{1}{102}{References}}\headcommand {\beamer@subsectionpages {102}{101}}}
\@writefile{nav}{\headcommand {\slideentry {7}{1}{1}{102/102}{References}{0}}}
\@writefile{nav}{\headcommand {\beamer@framepages {102}{102}}}
\@writefile{nav}{\headcommand {\slideentry {7}{1}{1}{102/103}{References}{0}}}
\@writefile{nav}{\headcommand {\beamer@framepages {102}{103}}}
\@writefile{nav}{\headcommand {\slideentry {7}{1}{1}{102/104}{References}{0}}}
\@writefile{nav}{\headcommand {\beamer@framepages {102}{104}}}
\@writefile{nav}{\headcommand {\slideentry {7}{1}{1}{102/105}{References}{0}}}
\@writefile{nav}{\headcommand {\beamer@framepages {102}{105}}}
\@writefile{toc}{\beamer@sectionintoc {8}{End}{106}{0}{8}}
\@writefile{nav}{\headcommand {\sectionentry {8}{End}{106}{End}{0}}}
\@writefile{nav}{\headcommand {\beamer@sectionpages {102}{105}}}
\@writefile{nav}{\headcommand {\beamer@subsectionpages {102}{105}}}
\@writefile{toc}{\beamer@subsectionintoc {8}{1}{End}{106}{0}{8}}
\@writefile{nav}{\headcommand {\beamer@subsectionentry {0}{8}{1}{106}{End}}\headcommand {\beamer@subsectionpages {106}{105}}}
\@writefile{nav}{\headcommand {\slideentry {8}{1}{1}{106/106}{End}{0}}}
\@writefile{nav}{\headcommand {\beamer@framepages {106}{106}}}
\@writefile{nav}{\headcommand {\beamer@partpages {1}{106}}}
\@writefile{nav}{\headcommand {\beamer@subsectionpages {106}{106}}}
\@writefile{nav}{\headcommand {\beamer@sectionpages {106}{106}}}
\@writefile{nav}{\headcommand {\beamer@documentpages {106}}}
\@writefile{nav}{\headcommand {\def \inserttotalframenumber {25}}}
