\relax 
\providecommand\hyper@newdestlabel[2]{}
\providecommand\HyperFirstAtBeginDocument{\AtBeginDocument}
\HyperFirstAtBeginDocument{\ifx\hyper@anchor\@undefined
\global\let\oldcontentsline\contentsline
\gdef\contentsline#1#2#3#4{\oldcontentsline{#1}{#2}{#3}}
\global\let\oldnewlabel\newlabel
\gdef\newlabel#1#2{\newlabelxx{#1}#2}
\gdef\newlabelxx#1#2#3#4#5#6{\oldnewlabel{#1}{{#2}{#3}}}
\AtEndDocument{\ifx\hyper@anchor\@undefined
\let\contentsline\oldcontentsline
\let\newlabel\oldnewlabel
\fi}
\fi}
\global\let\hyper@last\relax 
\gdef\HyperFirstAtBeginDocument#1{#1}
\providecommand\HyField@AuxAddToFields[1]{}
\providecommand\HyField@AuxAddToCoFields[2]{}
\catcode `"\active 
\@writefile{toc}{\beamer@endinputifotherversion {3.36pt}}
\@writefile{nav}{\beamer@endinputifotherversion {3.36pt}}
\select@language{brazilian}
\@writefile{toc}{\select@language{brazilian}}
\@writefile{lof}{\select@language{brazilian}}
\@writefile{lot}{\select@language{brazilian}}
\@writefile{nav}{\headcommand {\slideentry {0}{0}{1}{1/1}{}{0}}}
\@writefile{nav}{\headcommand {\beamer@framepages {1}{1}}}
\@writefile{nav}{\headcommand {\slideentry {0}{0}{2}{2/2}{}{0}}}
\@writefile{nav}{\headcommand {\beamer@framepages {2}{2}}}
\@writefile{nav}{\headcommand {\slideentry {0}{0}{2}{2/3}{}{0}}}
\@writefile{nav}{\headcommand {\beamer@framepages {2}{3}}}
\@writefile{toc}{\beamer@sectionintoc {1}{Sobre Mim}{4}{0}{1}}
\@writefile{nav}{\headcommand {\sectionentry {1}{Sobre Mim}{4}{Sobre Mim}{0}}}
\@writefile{nav}{\headcommand {\beamer@sectionpages {1}{3}}}
\@writefile{nav}{\headcommand {\beamer@subsectionpages {1}{3}}}
\@writefile{nav}{\headcommand {\slideentry {1}{0}{1}{4/16}{}{0}}}
\@writefile{nav}{\headcommand {\beamer@framepages {4}{16}}}
\citation{1}
\@writefile{toc}{\beamer@sectionintoc {2}{Criptografia}{17}{0}{2}}
\@writefile{nav}{\headcommand {\sectionentry {2}{Criptografia}{17}{Criptografia}{0}}}
\@writefile{nav}{\headcommand {\beamer@sectionpages {4}{16}}}
\@writefile{nav}{\headcommand {\beamer@subsectionpages {4}{16}}}
\@writefile{toc}{\beamer@subsectionintoc {2}{1}{Criptografia}{17}{0}{2}}
\@writefile{nav}{\headcommand {\beamer@subsectionentry {0}{2}{1}{17}{Criptografia}}\headcommand {\beamer@subsectionpages {17}{16}}}
\citation{1}
\@writefile{nav}{\headcommand {\slideentry {2}{1}{1}{17/18}{Criptografia}{0}}}
\@writefile{nav}{\headcommand {\beamer@framepages {17}{18}}}
\@writefile{toc}{\beamer@subsectionintoc {2}{2}{Comunica\IeC {\c c}\IeC {\~a}o}{19}{0}{2}}
\@writefile{nav}{\headcommand {\beamer@subsectionentry {0}{2}{2}{19}{Comunica\IeC {\c c}\IeC {\~a}o}}\headcommand {\beamer@subsectionpages {17}{18}}}
\citation{4}
\@writefile{nav}{\headcommand {\slideentry {2}{2}{1}{19/20}{Comunica\IeC {\c c}\IeC {\~a}o}{0}}}
\@writefile{nav}{\headcommand {\beamer@framepages {19}{20}}}
\citation{4}
\@writefile{nav}{\headcommand {\slideentry {2}{2}{2}{21/22}{Comunica\IeC {\c c}\IeC {\~a}o}{0}}}
\@writefile{nav}{\headcommand {\beamer@framepages {21}{22}}}
\@writefile{toc}{\beamer@subsectionintoc {2}{3}{Terminologia}{23}{0}{2}}
\@writefile{nav}{\headcommand {\beamer@subsectionentry {0}{2}{3}{23}{Terminologia}}\headcommand {\beamer@subsectionpages {19}{22}}}
\@writefile{nav}{\headcommand {\slideentry {2}{3}{1}{23/24}{Terminologia}{0}}}
\@writefile{nav}{\headcommand {\beamer@framepages {23}{24}}}
\@writefile{toc}{\beamer@subsectionintoc {2}{4}{Termos}{25}{0}{2}}
\@writefile{nav}{\headcommand {\beamer@subsectionentry {0}{2}{4}{25}{Termos}}\headcommand {\beamer@subsectionpages {23}{24}}}
\@writefile{nav}{\headcommand {\slideentry {2}{4}{1}{25/34}{Termos}{0}}}
\@writefile{nav}{\headcommand {\beamer@framepages {25}{34}}}
\@writefile{toc}{\beamer@subsectionintoc {2}{5}{Tipos de Criptografia}{35}{0}{2}}
\@writefile{nav}{\headcommand {\beamer@subsectionentry {0}{2}{5}{35}{Tipos de Criptografia}}\headcommand {\beamer@subsectionpages {25}{34}}}
\@writefile{nav}{\headcommand {\slideentry {2}{5}{1}{35/38}{Tipos de Criptografia}{0}}}
\@writefile{nav}{\headcommand {\beamer@framepages {35}{38}}}
\citation{2}
\@writefile{nav}{\headcommand {\slideentry {2}{5}{2}{39/40}{Tipos de Criptografia}{0}}}
\@writefile{nav}{\headcommand {\beamer@framepages {39}{40}}}
\citation{2}
\@writefile{nav}{\headcommand {\slideentry {2}{5}{3}{41/42}{Tipos de Criptografia}{0}}}
\@writefile{nav}{\headcommand {\beamer@framepages {41}{42}}}
\@writefile{toc}{\beamer@subsectionintoc {2}{6}{Hash}{43}{0}{2}}
\@writefile{nav}{\headcommand {\beamer@subsectionentry {0}{2}{6}{43}{Hash}}\headcommand {\beamer@subsectionpages {35}{42}}}
\@writefile{nav}{\headcommand {\slideentry {2}{6}{1}{43/49}{Hash}{0}}}
\@writefile{nav}{\headcommand {\beamer@framepages {43}{49}}}
\@writefile{toc}{\beamer@subsectionintoc {2}{7}{Assinatura Digital}{50}{0}{2}}
\@writefile{nav}{\headcommand {\beamer@subsectionentry {0}{2}{7}{50}{Assinatura Digital}}\headcommand {\beamer@subsectionpages {43}{49}}}
\@writefile{nav}{\headcommand {\slideentry {2}{7}{1}{50/55}{Assinatura Digital}{0}}}
\@writefile{nav}{\headcommand {\beamer@framepages {50}{55}}}
\@writefile{toc}{\beamer@subsectionintoc {2}{8}{Certificado Digital}{56}{0}{2}}
\@writefile{nav}{\headcommand {\beamer@subsectionentry {0}{2}{8}{56}{Certificado Digital}}\headcommand {\beamer@subsectionpages {50}{55}}}
\@writefile{nav}{\headcommand {\slideentry {2}{8}{1}{56/64}{Certificado Digital}{0}}}
\@writefile{nav}{\headcommand {\beamer@framepages {56}{64}}}
\@writefile{toc}{\beamer@sectionintoc {3}{Privacidade}{65}{0}{3}}
\@writefile{nav}{\headcommand {\sectionentry {3}{Privacidade}{65}{Privacidade}{0}}}
\@writefile{nav}{\headcommand {\beamer@sectionpages {17}{64}}}
\@writefile{nav}{\headcommand {\beamer@subsectionpages {56}{64}}}
\@writefile{toc}{\beamer@subsectionintoc {3}{1}{Vigil\IeC {\^a}ncia em Massa}{65}{0}{3}}
\@writefile{nav}{\headcommand {\beamer@subsectionentry {0}{3}{1}{65}{Vigil\IeC {\^a}ncia em Massa}}\headcommand {\beamer@subsectionpages {65}{64}}}
\citation{4}
\@writefile{nav}{\headcommand {\slideentry {3}{1}{1}{65/66}{Vigil\IeC {\^a}ncia em Massa}{0}}}
\@writefile{nav}{\headcommand {\beamer@framepages {65}{66}}}
\@writefile{toc}{\beamer@sectionintoc {4}{Software Livre}{67}{0}{4}}
\@writefile{nav}{\headcommand {\sectionentry {4}{Software Livre}{67}{Software Livre}{0}}}
\@writefile{nav}{\headcommand {\beamer@sectionpages {65}{66}}}
\@writefile{nav}{\headcommand {\beamer@subsectionpages {65}{66}}}
\@writefile{toc}{\beamer@subsectionintoc {4}{1}{FSF}{67}{0}{4}}
\@writefile{nav}{\headcommand {\beamer@subsectionentry {0}{4}{1}{67}{FSF}}\headcommand {\beamer@subsectionpages {67}{66}}}
\citation{5}
\@writefile{nav}{\headcommand {\slideentry {4}{1}{1}{67/68}{FSF}{0}}}
\@writefile{nav}{\headcommand {\beamer@framepages {67}{68}}}
\citation{5}
\@writefile{toc}{\beamer@subsectionintoc {4}{2}{4 Liberdades}{69}{0}{4}}
\@writefile{nav}{\headcommand {\beamer@subsectionentry {0}{4}{2}{69}{4 Liberdades}}\headcommand {\beamer@subsectionpages {67}{68}}}
\citation{5}
\citation{5}
\citation{5}
\citation{5}
\@writefile{nav}{\headcommand {\slideentry {4}{2}{1}{69/73}{4 Liberdades}{0}}}
\@writefile{nav}{\headcommand {\beamer@framepages {69}{73}}}
\@writefile{toc}{\beamer@subsectionintoc {4}{3}{GNU}{74}{0}{4}}
\@writefile{nav}{\headcommand {\beamer@subsectionentry {0}{4}{3}{74}{GNU}}\headcommand {\beamer@subsectionpages {69}{73}}}
\citation{5}
\@writefile{nav}{\headcommand {\slideentry {4}{3}{1}{74/75}{GNU}{0}}}
\@writefile{nav}{\headcommand {\beamer@framepages {74}{75}}}
\@writefile{toc}{\beamer@sectionintoc {5}{Criptografia Livre}{76}{0}{5}}
\@writefile{nav}{\headcommand {\sectionentry {5}{Criptografia Livre}{76}{Criptografia Livre}{0}}}
\@writefile{nav}{\headcommand {\beamer@sectionpages {67}{75}}}
\@writefile{nav}{\headcommand {\beamer@subsectionpages {74}{75}}}
\@writefile{toc}{\beamer@subsectionintoc {5}{1}{Sofwares Livres Criptogr\IeC {\'a}ficos}{76}{0}{5}}
\@writefile{nav}{\headcommand {\beamer@subsectionentry {0}{5}{1}{76}{Sofwares Livres Criptogr\IeC {\'a}ficos}}\headcommand {\beamer@subsectionpages {76}{75}}}
\@writefile{nav}{\headcommand {\slideentry {5}{1}{1}{76/84}{Sofwares Livres Criptogr\IeC {\'a}ficos}{0}}}
\@writefile{nav}{\headcommand {\beamer@framepages {76}{84}}}
\@writefile{toc}{\beamer@subsectionintoc {5}{2}{GnuPG}{85}{0}{5}}
\@writefile{nav}{\headcommand {\beamer@subsectionentry {0}{5}{2}{85}{GnuPG}}\headcommand {\beamer@subsectionpages {76}{84}}}
\citation{3}
\@writefile{nav}{\headcommand {\slideentry {5}{2}{1}{85/86}{GnuPG}{0}}}
\@writefile{nav}{\headcommand {\beamer@framepages {85}{86}}}
\@writefile{toc}{\beamer@subsectionintoc {5}{3}{Caracter\IeC {\'\i }sticas do GnuPG}{87}{0}{5}}
\@writefile{nav}{\headcommand {\beamer@subsectionentry {0}{5}{3}{87}{Caracter\IeC {\'\i }sticas do GnuPG}}\headcommand {\beamer@subsectionpages {85}{86}}}
\@writefile{nav}{\headcommand {\slideentry {5}{3}{1}{87/94}{Caracter\IeC {\'\i }sticas do GnuPG}{0}}}
\@writefile{nav}{\headcommand {\beamer@framepages {87}{94}}}
\@writefile{toc}{\beamer@subsectionintoc {5}{4}{Usando GnuPG}{95}{0}{5}}
\@writefile{nav}{\headcommand {\beamer@subsectionentry {0}{5}{4}{95}{Usando GnuPG}}\headcommand {\beamer@subsectionpages {87}{94}}}
\@writefile{lol}{\contentsline {lstlisting}{code/init.sh}}
\@writefile{nav}{\headcommand {\slideentry {5}{4}{1}{95/95}{Usando GnuPG}{0}}}
\@writefile{nav}{\headcommand {\beamer@framepages {95}{95}}}
\@writefile{nav}{\headcommand {\slideentry {5}{4}{1}{95/96}{Usando GnuPG}{0}}}
\@writefile{nav}{\headcommand {\beamer@framepages {95}{96}}}
\@writefile{toc}{\beamer@subsectionintoc {5}{5}{Criptografar Arquivo com GnuPG}{97}{0}{5}}
\@writefile{nav}{\headcommand {\beamer@subsectionentry {0}{5}{5}{97}{Criptografar Arquivo com GnuPG}}\headcommand {\beamer@subsectionpages {95}{96}}}
\@writefile{lol}{\contentsline {lstlisting}{code/file.sh}}
\@writefile{nav}{\headcommand {\slideentry {5}{5}{1}{97/97}{Criptografar Arquivo com GnuPG}{0}}}
\@writefile{nav}{\headcommand {\beamer@framepages {97}{97}}}
\@writefile{toc}{\beamer@subsectionintoc {5}{6}{Manipular Hash com GnuPG}{98}{0}{5}}
\@writefile{nav}{\headcommand {\beamer@subsectionentry {0}{5}{6}{98}{Manipular Hash com GnuPG}}\headcommand {\beamer@subsectionpages {97}{97}}}
\@writefile{lol}{\contentsline {lstlisting}{code/hash.sh}}
\@writefile{nav}{\headcommand {\slideentry {5}{6}{1}{98/98}{Manipular Hash com GnuPG}{0}}}
\@writefile{nav}{\headcommand {\beamer@framepages {98}{98}}}
\@writefile{toc}{\beamer@subsectionintoc {5}{7}{Criptografar Email com GnuPG}{99}{0}{5}}
\@writefile{nav}{\headcommand {\beamer@subsectionentry {0}{5}{7}{99}{Criptografar Email com GnuPG}}\headcommand {\beamer@subsectionpages {98}{98}}}
\@writefile{lol}{\contentsline {lstlisting}{code/email.sh}}
\@writefile{nav}{\headcommand {\slideentry {5}{7}{1}{99/99}{Criptografar Email com GnuPG}{0}}}
\@writefile{nav}{\headcommand {\beamer@framepages {99}{99}}}
\@writefile{toc}{\beamer@sectionintoc {6}{Dicas}{100}{0}{6}}
\@writefile{nav}{\headcommand {\sectionentry {6}{Dicas}{100}{Dicas}{0}}}
\@writefile{nav}{\headcommand {\beamer@sectionpages {76}{99}}}
\@writefile{nav}{\headcommand {\beamer@subsectionpages {99}{99}}}
\@writefile{nav}{\headcommand {\slideentry {6}{0}{1}{100/106}{}{0}}}
\@writefile{nav}{\headcommand {\beamer@framepages {100}{106}}}
\bibstyle{alpha}
\bibcite{1}{\hyperlink {beamerbib1}{CERT 2015}}
\bibcite{2}{\hyperlink {beamerbib2}{Sobral 2015}}
\bibcite{3}{\hyperlink {beamerbib3}{Kosh 2015}}
\bibcite{4}{\hyperlink {beamerbib4}{FSF 2015}}
\bibcite{5}{\hyperlink {beamerbib5}{FSF 2015}}
\@writefile{toc}{\beamer@sectionintoc {7}{Refer\IeC {\^e}ncias}{107}{0}{7}}
\@writefile{nav}{\headcommand {\sectionentry {7}{Refer\IeC {\^e}ncias}{107}{Refer\IeC {\^e}ncias}{0}}}
\@writefile{nav}{\headcommand {\beamer@sectionpages {100}{106}}}
\@writefile{nav}{\headcommand {\beamer@subsectionpages {100}{106}}}
\@writefile{nav}{\headcommand {\slideentry {7}{0}{1}{107/107}{}{0}}}
\@writefile{nav}{\headcommand {\beamer@framepages {107}{107}}}
\@writefile{toc}{\beamer@sectionintoc {8}{Fim}{108}{0}{8}}
\@writefile{nav}{\headcommand {\sectionentry {8}{Fim}{108}{Fim}{0}}}
\@writefile{nav}{\headcommand {\beamer@sectionpages {107}{107}}}
\@writefile{nav}{\headcommand {\beamer@subsectionpages {107}{107}}}
\@writefile{nav}{\headcommand {\slideentry {8}{0}{1}{108/108}{}{0}}}
\@writefile{nav}{\headcommand {\beamer@framepages {108}{108}}}
\@writefile{nav}{\headcommand {\beamer@partpages {1}{108}}}
\@writefile{nav}{\headcommand {\beamer@subsectionpages {108}{108}}}
\@writefile{nav}{\headcommand {\beamer@sectionpages {108}{108}}}
\@writefile{nav}{\headcommand {\beamer@documentpages {108}}}
\@writefile{nav}{\headcommand {\def \inserttotalframenumber {30}}}
