\relax 
\providecommand\hyper@newdestlabel[2]{}
\providecommand\HyperFirstAtBeginDocument{\AtBeginDocument}
\HyperFirstAtBeginDocument{\ifx\hyper@anchor\@undefined
\global\let\oldcontentsline\contentsline
\gdef\contentsline#1#2#3#4{\oldcontentsline{#1}{#2}{#3}}
\global\let\oldnewlabel\newlabel
\gdef\newlabel#1#2{\newlabelxx{#1}#2}
\gdef\newlabelxx#1#2#3#4#5#6{\oldnewlabel{#1}{{#2}{#3}}}
\AtEndDocument{\ifx\hyper@anchor\@undefined
\let\contentsline\oldcontentsline
\let\newlabel\oldnewlabel
\fi}
\fi}
\global\let\hyper@last\relax 
\gdef\HyperFirstAtBeginDocument#1{#1}
\providecommand\HyField@AuxAddToFields[1]{}
\providecommand\HyField@AuxAddToCoFields[2]{}
\catcode `"\active 
\@writefile{toc}{\beamer@endinputifotherversion {3.36pt}}
\@writefile{nav}{\beamer@endinputifotherversion {3.36pt}}
\select@language{brazilian}
\@writefile{toc}{\select@language{brazilian}}
\@writefile{lof}{\select@language{brazilian}}
\@writefile{lot}{\select@language{brazilian}}
\@writefile{nav}{\headcommand {\slideentry {0}{0}{1}{1/1}{}{0}}}
\@writefile{nav}{\headcommand {\beamer@framepages {1}{1}}}
\@writefile{nav}{\headcommand {\slideentry {0}{0}{2}{2/5}{}{0}}}
\@writefile{nav}{\headcommand {\beamer@framepages {2}{5}}}
\@writefile{nav}{\headcommand {\slideentry {0}{0}{3}{6/11}{}{0}}}
\@writefile{nav}{\headcommand {\beamer@framepages {6}{11}}}
\@writefile{nav}{\headcommand {\slideentry {0}{0}{4}{12/17}{}{0}}}
\@writefile{nav}{\headcommand {\beamer@framepages {12}{17}}}
\@writefile{nav}{\headcommand {\slideentry {0}{0}{5}{18/22}{}{0}}}
\@writefile{nav}{\headcommand {\beamer@framepages {18}{22}}}
\@writefile{nav}{\headcommand {\slideentry {0}{0}{6}{23/27}{}{0}}}
\@writefile{nav}{\headcommand {\beamer@framepages {23}{27}}}
\@writefile{nav}{\headcommand {\slideentry {0}{0}{7}{28/32}{}{0}}}
\@writefile{nav}{\headcommand {\beamer@framepages {28}{32}}}
\@writefile{nav}{\headcommand {\slideentry {0}{0}{8}{33/38}{}{0}}}
\@writefile{nav}{\headcommand {\beamer@framepages {33}{38}}}
\@writefile{nav}{\headcommand {\slideentry {0}{0}{9}{39/41}{}{0}}}
\@writefile{nav}{\headcommand {\beamer@framepages {39}{41}}}
\@writefile{nav}{\headcommand {\slideentry {0}{0}{10}{42/53}{}{0}}}
\@writefile{nav}{\headcommand {\beamer@framepages {42}{53}}}
\@writefile{nav}{\headcommand {\slideentry {0}{0}{11}{54/60}{}{0}}}
\@writefile{nav}{\headcommand {\beamer@framepages {54}{60}}}
\@writefile{nav}{\headcommand {\slideentry {0}{0}{12}{61/65}{}{0}}}
\@writefile{nav}{\headcommand {\beamer@framepages {61}{65}}}
\@writefile{nav}{\headcommand {\slideentry {0}{0}{13}{66/70}{}{0}}}
\@writefile{nav}{\headcommand {\beamer@framepages {66}{70}}}
\@writefile{nav}{\headcommand {\slideentry {0}{0}{14}{71/75}{}{0}}}
\@writefile{nav}{\headcommand {\beamer@framepages {71}{75}}}
\bibdata{talk}
\bibcite{1}{\hyperlink {beamerbib1}{Stallings, 2010}}
\bibstyle{apalike}
\@writefile{nav}{\headcommand {\slideentry {0}{0}{15}{76/76}{}{0}}}
\@writefile{nav}{\headcommand {\beamer@framepages {76}{76}}}
\@writefile{nav}{\headcommand {\slideentry {0}{0}{16}{77/77}{}{0}}}
\@writefile{nav}{\headcommand {\beamer@framepages {77}{77}}}
\@writefile{nav}{\headcommand {\beamer@partpages {1}{77}}}
\@writefile{nav}{\headcommand {\beamer@subsectionpages {1}{77}}}
\@writefile{nav}{\headcommand {\beamer@sectionpages {1}{77}}}
\@writefile{nav}{\headcommand {\beamer@documentpages {77}}}
\@writefile{nav}{\headcommand {\def \inserttotalframenumber {16}}}
