\beamer@endinputifotherversion {3.36pt}
\headcommand {\slideentry {0}{0}{1}{1/1}{}{0}}
\headcommand {\beamer@framepages {1}{1}}
\headcommand {\slideentry {0}{0}{2}{2/5}{}{0}}
\headcommand {\beamer@framepages {2}{5}}
\headcommand {\slideentry {0}{0}{3}{6/11}{}{0}}
\headcommand {\beamer@framepages {6}{11}}
\headcommand {\slideentry {0}{0}{4}{12/17}{}{0}}
\headcommand {\beamer@framepages {12}{17}}
\headcommand {\slideentry {0}{0}{5}{18/22}{}{0}}
\headcommand {\beamer@framepages {18}{22}}
\headcommand {\slideentry {0}{0}{6}{23/27}{}{0}}
\headcommand {\beamer@framepages {23}{27}}
\headcommand {\slideentry {0}{0}{7}{28/32}{}{0}}
\headcommand {\beamer@framepages {28}{32}}
\headcommand {\slideentry {0}{0}{8}{33/38}{}{0}}
\headcommand {\beamer@framepages {33}{38}}
\headcommand {\slideentry {0}{0}{9}{39/41}{}{0}}
\headcommand {\beamer@framepages {39}{41}}
\headcommand {\slideentry {0}{0}{10}{42/53}{}{0}}
\headcommand {\beamer@framepages {42}{53}}
\headcommand {\slideentry {0}{0}{11}{54/60}{}{0}}
\headcommand {\beamer@framepages {54}{60}}
\headcommand {\slideentry {0}{0}{12}{61/65}{}{0}}
\headcommand {\beamer@framepages {61}{65}}
\headcommand {\slideentry {0}{0}{13}{66/70}{}{0}}
\headcommand {\beamer@framepages {66}{70}}
\headcommand {\slideentry {0}{0}{14}{71/75}{}{0}}
\headcommand {\beamer@framepages {71}{75}}
\headcommand {\slideentry {0}{0}{15}{76/76}{}{0}}
\headcommand {\beamer@framepages {76}{76}}
\headcommand {\slideentry {0}{0}{16}{77/77}{}{0}}
\headcommand {\beamer@framepages {77}{77}}
\headcommand {\beamer@partpages {1}{77}}
\headcommand {\beamer@subsectionpages {1}{77}}
\headcommand {\beamer@sectionpages {1}{77}}
\headcommand {\beamer@documentpages {77}}
\headcommand {\def \inserttotalframenumber {16}}
