\begin{thebibliography}{}

\bibitem[Barki, 2011]{1}
Barki, C. (2011).
\newblock {\em Land of Lisp: Learn to Program in Lisp, One Game at Time!}
\newblock Conrad Barki, M. D.

\bibitem[Seibel, 2011]{2}
Seibel, P. (2011).
\newblock {\em Pratical Common Lisp (Expert's Voice in Programming Languages)}.
\newblock Apress.

\end{thebibliography}
