This is BibTeX, Version 0.99d (TeX Live 2017/Debian)
Capacity: max_strings=100000, hash_size=100000, hash_prime=85009
The top-level auxiliary file: talk.aux
The style file: apalike.bst
Database file #1: talk.bib
You've used 4 entries,
            1935 wiz_defined-function locations,
            485 strings with 3867 characters,
and the built_in function-call counts, 1128 in all, are:
= -- 105
> -- 34
< -- 4
+ -- 10
- -- 10
* -- 72
:= -- 215
add.period$ -- 12
call.type$ -- 4
change.case$ -- 22
chr.to.int$ -- 4
cite$ -- 4
duplicate$ -- 52
empty$ -- 85
format.name$ -- 16
if$ -- 216
int.to.chr$ -- 1
int.to.str$ -- 0
missing$ -- 6
newline$ -- 23
num.names$ -- 12
pop$ -- 28
preamble$ -- 1
purify$ -- 25
quote$ -- 0
skip$ -- 40
stack$ -- 0
substring$ -- 48
swap$ -- 3
text.length$ -- 0
text.prefix$ -- 0
top$ -- 0
type$ -- 18
warning$ -- 0
while$ -- 8
width$ -- 0
write$ -- 50
