\beamer@endinputifotherversion {3.36pt}
\select@language {brazilian}
\beamer@sectionintoc {1}{Teoria das Linguagens Formais}{3}{0}{1}
\beamer@subsectionintoc {1}{1}{Introdu\IeC {\c c}\IeC {\~a}o}{3}{0}{1}
\beamer@subsectionintoc {1}{2}{Alfabeto}{7}{0}{1}
\beamer@subsectionintoc {1}{3}{Palavra}{12}{0}{1}
\beamer@subsectionintoc {1}{4}{Linguagem Formal}{18}{0}{1}
\beamer@subsectionintoc {1}{5}{Linguagem de Programa\IeC {\c c}\IeC {\~a}o}{21}{0}{1}
\beamer@subsectionintoc {1}{6}{Gram\IeC {\'a}tica}{23}{0}{1}
\beamer@subsectionintoc {1}{7}{GCC}{39}{0}{1}
\beamer@subsectionintoc {1}{8}{Exemplo}{56}{0}{1}
\beamer@subsectionintoc {1}{9}{Teste}{57}{0}{1}
\beamer@subsectionintoc {1}{10}{Exerc\IeC {\'\i }cio}{58}{0}{1}
\beamer@sectionintoc {2}{Refer\IeC {\^e}ncias}{61}{0}{2}
\beamer@sectionintoc {3}{Fim}{62}{0}{3}
