\relax 
\providecommand\hyper@newdestlabel[2]{}
\providecommand\HyperFirstAtBeginDocument{\AtBeginDocument}
\HyperFirstAtBeginDocument{\ifx\hyper@anchor\@undefined
\global\let\oldcontentsline\contentsline
\gdef\contentsline#1#2#3#4{\oldcontentsline{#1}{#2}{#3}}
\global\let\oldnewlabel\newlabel
\gdef\newlabel#1#2{\newlabelxx{#1}#2}
\gdef\newlabelxx#1#2#3#4#5#6{\oldnewlabel{#1}{{#2}{#3}}}
\AtEndDocument{\ifx\hyper@anchor\@undefined
\let\contentsline\oldcontentsline
\let\newlabel\oldnewlabel
\fi}
\fi}
\global\let\hyper@last\relax 
\gdef\HyperFirstAtBeginDocument#1{#1}
\providecommand\HyField@AuxAddToFields[1]{}
\providecommand\HyField@AuxAddToCoFields[2]{}
\catcode `"\active 
\@writefile{toc}{\beamer@endinputifotherversion {3.36pt}}
\@writefile{nav}{\beamer@endinputifotherversion {3.36pt}}
\select@language{brazilian}
\@writefile{toc}{\select@language{brazilian}}
\@writefile{lof}{\select@language{brazilian}}
\@writefile{lot}{\select@language{brazilian}}
\@writefile{nav}{\headcommand {\slideentry {0}{0}{1}{1/1}{}{0}}}
\@writefile{nav}{\headcommand {\beamer@framepages {1}{1}}}
\@writefile{nav}{\headcommand {\slideentry {0}{0}{2}{2/2}{}{0}}}
\@writefile{nav}{\headcommand {\beamer@framepages {2}{2}}}
\citation{1}
\@writefile{toc}{\beamer@sectionintoc {1}{Teoria das Linguagens Formais}{3}{0}{1}}
\@writefile{nav}{\headcommand {\sectionentry {1}{Teoria das Linguagens Formais}{3}{Teoria das Linguagens Formais}{0}}}
\@writefile{nav}{\headcommand {\beamer@sectionpages {1}{2}}}
\@writefile{nav}{\headcommand {\beamer@subsectionpages {1}{2}}}
\@writefile{toc}{\beamer@subsectionintoc {1}{1}{Introdu\IeC {\c c}\IeC {\~a}o}{3}{0}{1}}
\@writefile{nav}{\headcommand {\beamer@subsectionentry {0}{1}{1}{3}{Introdu\IeC {\c c}\IeC {\~a}o}}\headcommand {\beamer@subsectionpages {3}{2}}}
\citation{1}
\citation{1}
\citation{1}
\@writefile{nav}{\headcommand {\slideentry {1}{1}{1}{3/6}{Introdu\IeC {\c c}\IeC {\~a}o}{0}}}
\@writefile{nav}{\headcommand {\beamer@framepages {3}{6}}}
\citation{2}
\@writefile{toc}{\beamer@subsectionintoc {1}{2}{Alfabeto}{7}{0}{1}}
\@writefile{nav}{\headcommand {\beamer@subsectionentry {0}{1}{2}{7}{Alfabeto}}\headcommand {\beamer@subsectionpages {3}{6}}}
\citation{2}
\citation{2}
\citation{2}
\citation{2}
\@writefile{nav}{\headcommand {\slideentry {1}{2}{1}{7/11}{Alfabeto}{0}}}
\@writefile{nav}{\headcommand {\beamer@framepages {7}{11}}}
\citation{3}
\@writefile{toc}{\beamer@subsectionintoc {1}{3}{Palavra}{12}{0}{1}}
\@writefile{nav}{\headcommand {\beamer@subsectionentry {0}{1}{3}{12}{Palavra}}\headcommand {\beamer@subsectionpages {7}{11}}}
\citation{3}
\citation{3}
\citation{3}
\citation{3}
\citation{3}
\@writefile{nav}{\headcommand {\slideentry {1}{3}{1}{12/17}{Palavra}{0}}}
\@writefile{nav}{\headcommand {\beamer@framepages {12}{17}}}
\citation{4}
\@writefile{toc}{\beamer@subsectionintoc {1}{4}{Linguagem Formal}{18}{0}{1}}
\@writefile{nav}{\headcommand {\beamer@subsectionentry {0}{1}{4}{18}{Linguagem Formal}}\headcommand {\beamer@subsectionpages {12}{17}}}
\citation{4}
\citation{4}
\@writefile{nav}{\headcommand {\slideentry {1}{4}{1}{18/20}{Linguagem Formal}{0}}}
\@writefile{nav}{\headcommand {\beamer@framepages {18}{20}}}
\citation{5}
\@writefile{toc}{\beamer@subsectionintoc {1}{5}{Linguagem de Programa\IeC {\c c}\IeC {\~a}o}{21}{0}{1}}
\@writefile{nav}{\headcommand {\beamer@subsectionentry {0}{1}{5}{21}{Linguagem de Programa\IeC {\c c}\IeC {\~a}o}}\headcommand {\beamer@subsectionpages {18}{20}}}
\citation{5}
\@writefile{nav}{\headcommand {\slideentry {1}{5}{1}{21/22}{Linguagem de Programa\IeC {\c c}\IeC {\~a}o}{0}}}
\@writefile{nav}{\headcommand {\beamer@framepages {21}{22}}}
\citation{1}
\@writefile{toc}{\beamer@subsectionintoc {1}{6}{Gram\IeC {\'a}tica}{23}{0}{1}}
\@writefile{nav}{\headcommand {\beamer@subsectionentry {0}{1}{6}{23}{Gram\IeC {\'a}tica}}\headcommand {\beamer@subsectionpages {21}{22}}}
\citation{1}
\citation{1}
\citation{1}
\@writefile{nav}{\headcommand {\slideentry {1}{6}{1}{23/26}{Gram\IeC {\'a}tica}{0}}}
\@writefile{nav}{\headcommand {\beamer@framepages {23}{26}}}
\@writefile{nav}{\headcommand {\slideentry {1}{6}{2}{27/32}{Gram\IeC {\'a}tica}{0}}}
\@writefile{nav}{\headcommand {\beamer@framepages {27}{32}}}
\@writefile{nav}{\headcommand {\slideentry {1}{6}{3}{33/38}{Gram\IeC {\'a}tica}{0}}}
\@writefile{nav}{\headcommand {\beamer@framepages {33}{38}}}
\@writefile{toc}{\beamer@subsectionintoc {1}{7}{GCC}{39}{0}{1}}
\@writefile{nav}{\headcommand {\beamer@subsectionentry {0}{1}{7}{39}{GCC}}\headcommand {\beamer@subsectionpages {23}{38}}}
\@writefile{nav}{\headcommand {\slideentry {1}{7}{1}{39/44}{GCC}{0}}}
\@writefile{nav}{\headcommand {\beamer@framepages {39}{44}}}
\@writefile{nav}{\headcommand {\slideentry {1}{7}{2}{45/46}{GCC}{0}}}
\@writefile{nav}{\headcommand {\beamer@framepages {45}{46}}}
\@writefile{nav}{\headcommand {\slideentry {1}{7}{3}{47/51}{GCC}{0}}}
\@writefile{nav}{\headcommand {\beamer@framepages {47}{51}}}
\@writefile{nav}{\headcommand {\slideentry {1}{7}{4}{52/55}{GCC}{0}}}
\@writefile{nav}{\headcommand {\beamer@framepages {52}{55}}}
\@writefile{toc}{\beamer@subsectionintoc {1}{8}{Exemplo}{56}{0}{1}}
\@writefile{nav}{\headcommand {\beamer@subsectionentry {0}{1}{8}{56}{Exemplo}}\headcommand {\beamer@subsectionpages {39}{55}}}
\@writefile{toc}{\beamer@subsectionintoc {1}{9}{Teste}{57}{0}{1}}
\@writefile{nav}{\headcommand {\beamer@subsectionentry {0}{1}{9}{57}{Teste}}\headcommand {\beamer@subsectionpages {56}{56}}}
\@writefile{toc}{\beamer@subsectionintoc {1}{10}{Exerc\IeC {\'\i }cio}{58}{0}{1}}
\@writefile{nav}{\headcommand {\beamer@subsectionentry {0}{1}{10}{58}{Exerc\IeC {\'\i }cio}}\headcommand {\beamer@subsectionpages {57}{57}}}
\@writefile{nav}{\headcommand {\slideentry {1}{10}{1}{58/60}{Exerc\IeC {\'\i }cio}{0}}}
\@writefile{nav}{\headcommand {\beamer@framepages {58}{60}}}
\bibdata{talk}
\bibcite{1}{\hyperlink {beamerbib1}{AHO and Sethi, 2013}}
\bibcite{4}{\hyperlink {beamerbib4}{Louden, 2016}}
\bibcite{3}{\hyperlink {beamerbib3}{Prince and Toscani, 2015}}
\bibcite{2}{\hyperlink {beamerbib2}{Sebesta, 2014}}
\bibcite{5}{\hyperlink {beamerbib5}{Toscani, 2016}}
\bibstyle{apalike}
\@writefile{toc}{\beamer@sectionintoc {2}{Refer\IeC {\^e}ncias}{61}{0}{2}}
\@writefile{nav}{\headcommand {\sectionentry {2}{Refer\IeC {\^e}ncias}{61}{Refer\IeC {\^e}ncias}{0}}}
\@writefile{nav}{\headcommand {\beamer@sectionpages {3}{60}}}
\@writefile{nav}{\headcommand {\beamer@subsectionpages {58}{60}}}
\@writefile{nav}{\headcommand {\slideentry {2}{0}{1}{61/61}{}{0}}}
\@writefile{nav}{\headcommand {\beamer@framepages {61}{61}}}
\@writefile{toc}{\beamer@sectionintoc {3}{Fim}{62}{0}{3}}
\@writefile{nav}{\headcommand {\sectionentry {3}{Fim}{62}{Fim}{0}}}
\@writefile{nav}{\headcommand {\beamer@sectionpages {61}{61}}}
\@writefile{nav}{\headcommand {\beamer@subsectionpages {61}{61}}}
\@writefile{nav}{\headcommand {\slideentry {3}{0}{1}{62/62}{}{0}}}
\@writefile{nav}{\headcommand {\beamer@framepages {62}{62}}}
\@writefile{nav}{\headcommand {\beamer@partpages {1}{62}}}
\@writefile{nav}{\headcommand {\beamer@subsectionpages {62}{62}}}
\@writefile{nav}{\headcommand {\beamer@sectionpages {62}{62}}}
\@writefile{nav}{\headcommand {\beamer@documentpages {62}}}
\@writefile{nav}{\headcommand {\def \inserttotalframenumber {17}}}
