\relax 
\providecommand\hyper@newdestlabel[2]{}
\providecommand\HyperFirstAtBeginDocument{\AtBeginDocument}
\HyperFirstAtBeginDocument{\ifx\hyper@anchor\@undefined
\global\let\oldcontentsline\contentsline
\gdef\contentsline#1#2#3#4{\oldcontentsline{#1}{#2}{#3}}
\global\let\oldnewlabel\newlabel
\gdef\newlabel#1#2{\newlabelxx{#1}#2}
\gdef\newlabelxx#1#2#3#4#5#6{\oldnewlabel{#1}{{#2}{#3}}}
\AtEndDocument{\ifx\hyper@anchor\@undefined
\let\contentsline\oldcontentsline
\let\newlabel\oldnewlabel
\fi}
\fi}
\global\let\hyper@last\relax 
\gdef\HyperFirstAtBeginDocument#1{#1}
\providecommand\HyField@AuxAddToFields[1]{}
\providecommand\HyField@AuxAddToCoFields[2]{}
\catcode `"\active 
\@writefile{toc}{\beamer@endinputifotherversion {3.36pt}}
\@writefile{nav}{\beamer@endinputifotherversion {3.36pt}}
\select@language{brazilian}
\@writefile{toc}{\select@language{brazilian}}
\@writefile{lof}{\select@language{brazilian}}
\@writefile{lot}{\select@language{brazilian}}
\@writefile{nav}{\headcommand {\slideentry {0}{0}{1}{1/1}{}{0}}}
\@writefile{nav}{\headcommand {\beamer@framepages {1}{1}}}
\citation{1}
\citation{1}
\citation{1}
\@writefile{nav}{\headcommand {\slideentry {0}{0}{2}{2/4}{}{0}}}
\@writefile{nav}{\headcommand {\beamer@framepages {2}{4}}}
\citation{3}
\citation{3}
\citation{3}
\citation{3}
\citation{3}
\@writefile{nav}{\headcommand {\slideentry {0}{0}{3}{5/9}{}{0}}}
\@writefile{nav}{\headcommand {\beamer@framepages {5}{9}}}
\citation{3}
\citation{3}
\citation{3}
\citation{3}
\@writefile{nav}{\headcommand {\slideentry {0}{0}{4}{10/13}{}{0}}}
\@writefile{nav}{\headcommand {\beamer@framepages {10}{13}}}
\@writefile{nav}{\headcommand {\slideentry {0}{0}{5}{14/16}{}{0}}}
\@writefile{nav}{\headcommand {\beamer@framepages {14}{16}}}
\@writefile{nav}{\headcommand {\slideentry {0}{0}{6}{17/19}{}{0}}}
\@writefile{nav}{\headcommand {\beamer@framepages {17}{19}}}
\@writefile{nav}{\headcommand {\slideentry {0}{0}{7}{20/23}{}{0}}}
\@writefile{nav}{\headcommand {\beamer@framepages {20}{23}}}
\@writefile{nav}{\headcommand {\slideentry {0}{0}{8}{24/30}{}{0}}}
\@writefile{nav}{\headcommand {\beamer@framepages {24}{30}}}
\@writefile{nav}{\headcommand {\slideentry {0}{0}{9}{31/37}{}{0}}}
\@writefile{nav}{\headcommand {\beamer@framepages {31}{37}}}
\@writefile{nav}{\headcommand {\slideentry {0}{0}{10}{38/41}{}{0}}}
\@writefile{nav}{\headcommand {\beamer@framepages {38}{41}}}
\@writefile{nav}{\headcommand {\slideentry {0}{0}{11}{43/47}{}{0}}}
\@writefile{nav}{\headcommand {\beamer@framepages {43}{47}}}
\bibdata{talk}
\bibcite{1}{\hyperlink {beamerbib1}{Deitel and Deitel, 2010}}
\bibcite{3}{\hyperlink {beamerbib3}{Evaristo, 2015}}
\bibcite{2}{\hyperlink {beamerbib2}{Mizrahi, 2014}}
\bibstyle{apalike}
\@writefile{nav}{\headcommand {\slideentry {0}{0}{12}{48/48}{}{0}}}
\@writefile{nav}{\headcommand {\beamer@framepages {48}{48}}}
\@writefile{nav}{\headcommand {\slideentry {0}{0}{13}{49/49}{}{0}}}
\@writefile{nav}{\headcommand {\beamer@framepages {49}{49}}}
\@writefile{nav}{\headcommand {\beamer@partpages {1}{49}}}
\@writefile{nav}{\headcommand {\beamer@subsectionpages {1}{49}}}
\@writefile{nav}{\headcommand {\beamer@sectionpages {1}{49}}}
\@writefile{nav}{\headcommand {\beamer@documentpages {49}}}
\@writefile{nav}{\headcommand {\def \inserttotalframenumber {13}}}
