\beamer@endinputifotherversion {3.36pt}
\headcommand {\slideentry {0}{0}{1}{1/1}{}{0}}
\headcommand {\beamer@framepages {1}{1}}
\headcommand {\slideentry {0}{0}{2}{2/4}{}{0}}
\headcommand {\beamer@framepages {2}{4}}
\headcommand {\slideentry {0}{0}{3}{5/9}{}{0}}
\headcommand {\beamer@framepages {5}{9}}
\headcommand {\slideentry {0}{0}{4}{10/13}{}{0}}
\headcommand {\beamer@framepages {10}{13}}
\headcommand {\slideentry {0}{0}{5}{14/16}{}{0}}
\headcommand {\beamer@framepages {14}{16}}
\headcommand {\slideentry {0}{0}{6}{17/19}{}{0}}
\headcommand {\beamer@framepages {17}{19}}
\headcommand {\slideentry {0}{0}{7}{20/23}{}{0}}
\headcommand {\beamer@framepages {20}{23}}
\headcommand {\slideentry {0}{0}{8}{24/30}{}{0}}
\headcommand {\beamer@framepages {24}{30}}
\headcommand {\slideentry {0}{0}{9}{31/37}{}{0}}
\headcommand {\beamer@framepages {31}{37}}
\headcommand {\slideentry {0}{0}{10}{38/41}{}{0}}
\headcommand {\beamer@framepages {38}{41}}
\headcommand {\slideentry {0}{0}{11}{43/47}{}{0}}
\headcommand {\beamer@framepages {43}{47}}
\headcommand {\slideentry {0}{0}{12}{48/48}{}{0}}
\headcommand {\beamer@framepages {48}{48}}
\headcommand {\slideentry {0}{0}{13}{49/49}{}{0}}
\headcommand {\beamer@framepages {49}{49}}
\headcommand {\beamer@partpages {1}{49}}
\headcommand {\beamer@subsectionpages {1}{49}}
\headcommand {\beamer@sectionpages {1}{49}}
\headcommand {\beamer@documentpages {49}}
\headcommand {\def \inserttotalframenumber {13}}
