\begin{thebibliography}{}

\bibitem[Chassell, 2004]{2}
Chassell, R.~J. (2004).
\newblock {\em An Introduction to Programming in Emacs Lisp}.
\newblock GNUpress.

\bibitem[Stallman, 2017]{1}
Stallman, R.~M. (2017).
\newblock An introduction to programming in emacs lisp.
\newblock https://www.gnu.org/software/emacs/manual/eintr.html.

\end{thebibliography}
