\relax 
\providecommand\hyper@newdestlabel[2]{}
\providecommand\HyperFirstAtBeginDocument{\AtBeginDocument}
\HyperFirstAtBeginDocument{\ifx\hyper@anchor\@undefined
\global\let\oldcontentsline\contentsline
\gdef\contentsline#1#2#3#4{\oldcontentsline{#1}{#2}{#3}}
\global\let\oldnewlabel\newlabel
\gdef\newlabel#1#2{\newlabelxx{#1}#2}
\gdef\newlabelxx#1#2#3#4#5#6{\oldnewlabel{#1}{{#2}{#3}}}
\AtEndDocument{\ifx\hyper@anchor\@undefined
\let\contentsline\oldcontentsline
\let\newlabel\oldnewlabel
\fi}
\fi}
\global\let\hyper@last\relax 
\gdef\HyperFirstAtBeginDocument#1{#1}
\providecommand\HyField@AuxAddToFields[1]{}
\providecommand\HyField@AuxAddToCoFields[2]{}
\catcode `"\active 
\@writefile{toc}{\beamer@endinputifotherversion {3.36pt}}
\@writefile{nav}{\beamer@endinputifotherversion {3.36pt}}
\select@language{brazilian}
\@writefile{toc}{\select@language{brazilian}}
\@writefile{lof}{\select@language{brazilian}}
\@writefile{lot}{\select@language{brazilian}}
\@writefile{nav}{\headcommand {\slideentry {0}{0}{1}{1/1}{}{0}}}
\@writefile{nav}{\headcommand {\beamer@framepages {1}{1}}}
\citation{1}
\citation{1}
\citation{1}
\citation{1}
\citation{1}
\citation{1}
\@writefile{nav}{\headcommand {\slideentry {0}{0}{2}{2/7}{}{0}}}
\@writefile{nav}{\headcommand {\beamer@framepages {2}{7}}}
\citation{2}
\citation{2}
\citation{2}
\citation{2}
\@writefile{nav}{\headcommand {\slideentry {0}{0}{3}{8/11}{}{0}}}
\@writefile{nav}{\headcommand {\beamer@framepages {8}{11}}}
\citation{3}
\citation{3}
\citation{3}
\citation{3}
\@writefile{nav}{\headcommand {\slideentry {0}{0}{4}{12/15}{}{0}}}
\@writefile{nav}{\headcommand {\beamer@framepages {12}{15}}}
\@writefile{nav}{\headcommand {\slideentry {0}{0}{5}{16/17}{}{0}}}
\@writefile{nav}{\headcommand {\beamer@framepages {16}{17}}}
\@writefile{nav}{\headcommand {\slideentry {0}{0}{6}{18/22}{}{0}}}
\@writefile{nav}{\headcommand {\beamer@framepages {18}{22}}}
\@writefile{nav}{\headcommand {\slideentry {0}{0}{7}{23/28}{}{0}}}
\@writefile{nav}{\headcommand {\beamer@framepages {23}{28}}}
\@writefile{nav}{\headcommand {\slideentry {0}{0}{8}{29/31}{}{0}}}
\@writefile{nav}{\headcommand {\beamer@framepages {29}{31}}}
\@writefile{nav}{\headcommand {\slideentry {0}{0}{9}{32/34}{}{0}}}
\@writefile{nav}{\headcommand {\beamer@framepages {32}{34}}}
\@writefile{nav}{\headcommand {\slideentry {0}{0}{10}{35/38}{}{0}}}
\@writefile{nav}{\headcommand {\beamer@framepages {35}{38}}}
\@writefile{nav}{\headcommand {\slideentry {0}{0}{11}{39/40}{}{0}}}
\@writefile{nav}{\headcommand {\beamer@framepages {39}{40}}}
\@writefile{nav}{\headcommand {\slideentry {0}{0}{12}{41/42}{}{0}}}
\@writefile{nav}{\headcommand {\beamer@framepages {41}{42}}}
\@writefile{nav}{\headcommand {\slideentry {0}{0}{13}{43/50}{}{0}}}
\@writefile{nav}{\headcommand {\beamer@framepages {43}{50}}}
\@writefile{nav}{\headcommand {\slideentry {0}{0}{14}{51/52}{}{0}}}
\@writefile{nav}{\headcommand {\beamer@framepages {51}{52}}}
\@writefile{nav}{\headcommand {\slideentry {0}{0}{15}{53/54}{}{0}}}
\@writefile{nav}{\headcommand {\beamer@framepages {53}{54}}}
\@writefile{nav}{\headcommand {\slideentry {0}{0}{16}{55/56}{}{0}}}
\@writefile{nav}{\headcommand {\beamer@framepages {55}{56}}}
\@writefile{nav}{\headcommand {\slideentry {0}{0}{17}{57/59}{}{0}}}
\@writefile{nav}{\headcommand {\beamer@framepages {57}{59}}}
\@writefile{nav}{\headcommand {\slideentry {0}{0}{18}{60/62}{}{0}}}
\@writefile{nav}{\headcommand {\beamer@framepages {60}{62}}}
\@writefile{nav}{\headcommand {\slideentry {0}{0}{19}{63/64}{}{0}}}
\@writefile{nav}{\headcommand {\beamer@framepages {63}{64}}}
\@writefile{nav}{\headcommand {\slideentry {0}{0}{20}{65/66}{}{0}}}
\@writefile{nav}{\headcommand {\beamer@framepages {65}{66}}}
\@writefile{nav}{\headcommand {\slideentry {0}{0}{21}{67/68}{}{0}}}
\@writefile{nav}{\headcommand {\beamer@framepages {67}{68}}}
\@writefile{nav}{\headcommand {\slideentry {0}{0}{22}{69/70}{}{0}}}
\@writefile{nav}{\headcommand {\beamer@framepages {69}{70}}}
\@writefile{nav}{\headcommand {\slideentry {0}{0}{23}{71/72}{}{0}}}
\@writefile{nav}{\headcommand {\beamer@framepages {71}{72}}}
\@writefile{nav}{\headcommand {\slideentry {0}{0}{24}{73/74}{}{0}}}
\@writefile{nav}{\headcommand {\beamer@framepages {73}{74}}}
\@writefile{nav}{\headcommand {\slideentry {0}{0}{25}{75/77}{}{0}}}
\@writefile{nav}{\headcommand {\beamer@framepages {75}{77}}}
\@writefile{nav}{\headcommand {\slideentry {0}{0}{26}{78/79}{}{0}}}
\@writefile{nav}{\headcommand {\beamer@framepages {78}{79}}}
\@writefile{nav}{\headcommand {\slideentry {0}{0}{27}{80/81}{}{0}}}
\@writefile{nav}{\headcommand {\beamer@framepages {80}{81}}}
\@writefile{nav}{\headcommand {\slideentry {0}{0}{28}{82/83}{}{0}}}
\@writefile{nav}{\headcommand {\beamer@framepages {82}{83}}}
\bibdata{talk}
\bibcite{2}{\hyperlink {beamerbib2}{Bittencourt, 2014}}
\bibcite{1}{\hyperlink {beamerbib1}{George, 2014}}
\bibcite{4}{\hyperlink {beamerbib4}{Resende, 2015}}
\bibcite{5}{\hyperlink {beamerbib5}{Rich, 2016}}
\bibcite{3}{\hyperlink {beamerbib3}{Russel and Norvig, 2015}}
\bibstyle{apalike}
\@writefile{nav}{\headcommand {\slideentry {0}{0}{29}{84/84}{}{0}}}
\@writefile{nav}{\headcommand {\beamer@framepages {84}{84}}}
\@writefile{nav}{\headcommand {\slideentry {0}{0}{30}{85/85}{}{0}}}
\@writefile{nav}{\headcommand {\beamer@framepages {85}{85}}}
\@writefile{nav}{\headcommand {\beamer@partpages {1}{85}}}
\@writefile{nav}{\headcommand {\beamer@subsectionpages {1}{85}}}
\@writefile{nav}{\headcommand {\beamer@sectionpages {1}{85}}}
\@writefile{nav}{\headcommand {\beamer@documentpages {85}}}
\@writefile{nav}{\headcommand {\def \inserttotalframenumber {30}}}
