\headcommand {\slideentry {0}{0}{1}{1/1}{}{0}}
\headcommand {\beamer@framepages {1}{1}}
\headcommand {\slideentry {0}{0}{2}{2/11}{}{0}}
\headcommand {\beamer@framepages {2}{11}}
\headcommand {\slideentry {0}{0}{3}{12/13}{}{0}}
\headcommand {\beamer@framepages {12}{13}}
\headcommand {\slideentry {0}{0}{4}{14/16}{}{0}}
\headcommand {\beamer@framepages {14}{16}}
\headcommand {\slideentry {0}{0}{5}{17/23}{}{0}}
\headcommand {\beamer@framepages {17}{23}}
\headcommand {\slideentry {0}{0}{6}{24/26}{}{0}}
\headcommand {\beamer@framepages {24}{26}}
\headcommand {\slideentry {0}{0}{7}{27/29}{}{0}}
\headcommand {\beamer@framepages {27}{29}}
\headcommand {\slideentry {0}{0}{8}{30/31}{}{0}}
\headcommand {\beamer@framepages {30}{31}}
\headcommand {\slideentry {0}{0}{9}{32/34}{}{0}}
\headcommand {\beamer@framepages {32}{34}}
\headcommand {\slideentry {0}{0}{10}{35/35}{}{0}}
\headcommand {\beamer@framepages {35}{35}}
\headcommand {\slideentry {0}{0}{11}{36/36}{}{0}}
\headcommand {\beamer@framepages {36}{36}}
\headcommand {\beamer@partpages {1}{36}}
\headcommand {\beamer@subsectionpages {1}{36}}
\headcommand {\beamer@sectionpages {1}{36}}
\headcommand {\beamer@documentpages {36}}
\headcommand {\def \inserttotalframenumber {11}}
