\relax 
\providecommand\hyper@newdestlabel[2]{}
\providecommand\HyperFirstAtBeginDocument{\AtBeginDocument}
\HyperFirstAtBeginDocument{\ifx\hyper@anchor\@undefined
\global\let\oldcontentsline\contentsline
\gdef\contentsline#1#2#3#4{\oldcontentsline{#1}{#2}{#3}}
\global\let\oldnewlabel\newlabel
\gdef\newlabel#1#2{\newlabelxx{#1}#2}
\gdef\newlabelxx#1#2#3#4#5#6{\oldnewlabel{#1}{{#2}{#3}}}
\AtEndDocument{\ifx\hyper@anchor\@undefined
\let\contentsline\oldcontentsline
\let\newlabel\oldnewlabel
\fi}
\fi}
\global\let\hyper@last\relax 
\gdef\HyperFirstAtBeginDocument#1{#1}
\providecommand\HyField@AuxAddToFields[1]{}
\providecommand\HyField@AuxAddToCoFields[2]{}
\catcode `"\active 
\@writefile{toc}{\beamer@endinputifotherversion {3.36pt}}
\@writefile{nav}{\beamer@endinputifotherversion {3.36pt}}
\select@language{brazilian}
\@writefile{toc}{\select@language{brazilian}}
\@writefile{lof}{\select@language{brazilian}}
\@writefile{lot}{\select@language{brazilian}}
\@writefile{nav}{\headcommand {\slideentry {0}{0}{1}{1/1}{}{0}}}
\@writefile{nav}{\headcommand {\beamer@framepages {1}{1}}}
\@writefile{nav}{\headcommand {\slideentry {0}{0}{2}{2/11}{}{0}}}
\@writefile{nav}{\headcommand {\beamer@framepages {2}{11}}}
\citation{1}
\@writefile{nav}{\headcommand {\slideentry {0}{0}{3}{12/13}{}{0}}}
\@writefile{nav}{\headcommand {\beamer@framepages {12}{13}}}
\@writefile{nav}{\headcommand {\slideentry {0}{0}{4}{14/16}{}{0}}}
\@writefile{nav}{\headcommand {\beamer@framepages {14}{16}}}
\citation{2}
\@writefile{nav}{\headcommand {\slideentry {0}{0}{5}{17/18}{}{0}}}
\@writefile{nav}{\headcommand {\beamer@framepages {17}{18}}}
\citation{3}
\@writefile{nav}{\headcommand {\slideentry {0}{0}{6}{19/20}{}{0}}}
\@writefile{nav}{\headcommand {\beamer@framepages {19}{20}}}
\@writefile{nav}{\headcommand {\slideentry {0}{0}{7}{21/29}{}{0}}}
\@writefile{nav}{\headcommand {\beamer@framepages {21}{29}}}
\@writefile{nav}{\headcommand {\slideentry {0}{0}{8}{30/38}{}{0}}}
\@writefile{nav}{\headcommand {\beamer@framepages {30}{38}}}
\bibdata{talk}
\bibcite{2}{\hyperlink {beamerbib2}{EFF, 2017}}
\bibcite{3}{\hyperlink {beamerbib3}{FSF, 2017}}
\bibcite{1}{\hyperlink {beamerbib1}{Olson, 2013}}
\bibstyle{apalike}
\@writefile{nav}{\headcommand {\slideentry {0}{0}{9}{39/39}{}{0}}}
\@writefile{nav}{\headcommand {\beamer@framepages {39}{39}}}
\@writefile{nav}{\headcommand {\slideentry {0}{0}{10}{40/40}{}{0}}}
\@writefile{nav}{\headcommand {\beamer@framepages {40}{40}}}
\@writefile{nav}{\headcommand {\beamer@partpages {1}{40}}}
\@writefile{nav}{\headcommand {\beamer@subsectionpages {1}{40}}}
\@writefile{nav}{\headcommand {\beamer@sectionpages {1}{40}}}
\@writefile{nav}{\headcommand {\beamer@documentpages {40}}}
\@writefile{nav}{\headcommand {\def \inserttotalframenumber {10}}}
