\beamer@endinputifotherversion {3.36pt}
\select@language {brazilian}
\beamer@sectionintoc {1}{About Me}{3}{0}{1}
\beamer@sectionintoc {2}{GNU Octave}{4}{0}{2}
\beamer@subsectionintoc {2}{1}{About}{4}{0}{2}
\beamer@subsectionintoc {2}{2}{Features}{6}{0}{2}
\beamer@subsectionintoc {2}{3}{Code}{15}{0}{2}
\beamer@sectionintoc {3}{References}{21}{0}{3}
\beamer@sectionintoc {4}{End}{22}{0}{4}
