\relax 
\providecommand\hyper@newdestlabel[2]{}
\providecommand\HyperFirstAtBeginDocument{\AtBeginDocument}
\HyperFirstAtBeginDocument{\ifx\hyper@anchor\@undefined
\global\let\oldcontentsline\contentsline
\gdef\contentsline#1#2#3#4{\oldcontentsline{#1}{#2}{#3}}
\global\let\oldnewlabel\newlabel
\gdef\newlabel#1#2{\newlabelxx{#1}#2}
\gdef\newlabelxx#1#2#3#4#5#6{\oldnewlabel{#1}{{#2}{#3}}}
\AtEndDocument{\ifx\hyper@anchor\@undefined
\let\contentsline\oldcontentsline
\let\newlabel\oldnewlabel
\fi}
\fi}
\global\let\hyper@last\relax 
\gdef\HyperFirstAtBeginDocument#1{#1}
\providecommand\HyField@AuxAddToFields[1]{}
\providecommand\HyField@AuxAddToCoFields[2]{}
\catcode `"\active 
\@writefile{toc}{\beamer@endinputifotherversion {3.36pt}}
\@writefile{nav}{\beamer@endinputifotherversion {3.36pt}}
\select@language{brazilian}
\@writefile{toc}{\select@language{brazilian}}
\@writefile{lof}{\select@language{brazilian}}
\@writefile{lot}{\select@language{brazilian}}
\@writefile{nav}{\headcommand {\slideentry {0}{0}{1}{1/1}{}{0}}}
\@writefile{nav}{\headcommand {\beamer@framepages {1}{1}}}
\@writefile{nav}{\headcommand {\slideentry {0}{0}{2}{2/2}{}{0}}}
\@writefile{nav}{\headcommand {\beamer@framepages {2}{2}}}
\@writefile{toc}{\beamer@sectionintoc {1}{About Me}{3}{0}{1}}
\@writefile{nav}{\headcommand {\sectionentry {1}{About Me}{3}{About Me}{0}}}
\@writefile{nav}{\headcommand {\beamer@sectionpages {1}{2}}}
\@writefile{nav}{\headcommand {\beamer@subsectionpages {1}{2}}}
\@writefile{nav}{\headcommand {\slideentry {1}{0}{1}{3/3}{}{0}}}
\@writefile{nav}{\headcommand {\beamer@framepages {3}{3}}}
\@writefile{toc}{\beamer@sectionintoc {2}{GNU Octave}{4}{0}{2}}
\@writefile{nav}{\headcommand {\sectionentry {2}{GNU Octave}{4}{GNU Octave}{0}}}
\@writefile{nav}{\headcommand {\beamer@sectionpages {3}{3}}}
\@writefile{nav}{\headcommand {\beamer@subsectionpages {3}{3}}}
\@writefile{toc}{\beamer@subsectionintoc {2}{1}{About}{4}{0}{2}}
\@writefile{nav}{\headcommand {\beamer@subsectionentry {0}{2}{1}{4}{About}}\headcommand {\beamer@subsectionpages {4}{3}}}
\citation{1}
\@writefile{nav}{\headcommand {\slideentry {2}{1}{1}{4/5}{About}{0}}}
\@writefile{nav}{\headcommand {\beamer@framepages {4}{5}}}
\@writefile{toc}{\beamer@subsectionintoc {2}{2}{Features}{6}{0}{2}}
\@writefile{nav}{\headcommand {\beamer@subsectionentry {0}{2}{2}{6}{Features}}\headcommand {\beamer@subsectionpages {4}{5}}}
\@writefile{nav}{\headcommand {\slideentry {2}{2}{1}{6/14}{Features}{0}}}
\@writefile{nav}{\headcommand {\beamer@framepages {6}{14}}}
\@writefile{toc}{\beamer@subsectionintoc {2}{3}{Code}{15}{0}{2}}
\@writefile{nav}{\headcommand {\beamer@subsectionentry {0}{2}{3}{15}{Code}}\headcommand {\beamer@subsectionpages {6}{14}}}
\@writefile{lol}{\contentsline {lstlisting}{code/code.sh}}
\@writefile{nav}{\headcommand {\slideentry {2}{3}{1}{15/15}{Code}{0}}}
\@writefile{nav}{\headcommand {\beamer@framepages {15}{15}}}
\@writefile{nav}{\headcommand {\slideentry {2}{3}{1}{15/16}{Code}{0}}}
\@writefile{nav}{\headcommand {\beamer@framepages {15}{16}}}
\@writefile{nav}{\headcommand {\slideentry {2}{3}{1}{15/17}{Code}{0}}}
\@writefile{nav}{\headcommand {\beamer@framepages {15}{17}}}
\@writefile{nav}{\headcommand {\slideentry {2}{3}{1}{15/18}{Code}{0}}}
\@writefile{nav}{\headcommand {\beamer@framepages {15}{18}}}
\@writefile{nav}{\headcommand {\slideentry {2}{3}{1}{15/19}{Code}{0}}}
\@writefile{nav}{\headcommand {\beamer@framepages {15}{19}}}
\@writefile{nav}{\headcommand {\slideentry {2}{3}{1}{15/20}{Code}{0}}}
\@writefile{nav}{\headcommand {\beamer@framepages {15}{20}}}
\bibcite{1}{\hyperlink {beamerbib1}{Eaton et al. 2015}}
\@writefile{toc}{\beamer@sectionintoc {3}{References}{21}{0}{3}}
\@writefile{nav}{\headcommand {\sectionentry {3}{References}{21}{References}{0}}}
\@writefile{nav}{\headcommand {\beamer@sectionpages {4}{20}}}
\@writefile{nav}{\headcommand {\beamer@subsectionpages {15}{20}}}
\@writefile{nav}{\headcommand {\slideentry {3}{0}{1}{21/21}{}{0}}}
\@writefile{nav}{\headcommand {\beamer@framepages {21}{21}}}
\@writefile{toc}{\beamer@sectionintoc {4}{End}{22}{0}{4}}
\@writefile{nav}{\headcommand {\sectionentry {4}{End}{22}{End}{0}}}
\@writefile{nav}{\headcommand {\beamer@sectionpages {21}{21}}}
\@writefile{nav}{\headcommand {\beamer@subsectionpages {21}{21}}}
\@writefile{nav}{\headcommand {\slideentry {4}{0}{1}{22/22}{}{0}}}
\@writefile{nav}{\headcommand {\beamer@framepages {22}{22}}}
\@writefile{nav}{\headcommand {\beamer@partpages {1}{22}}}
\@writefile{nav}{\headcommand {\beamer@subsectionpages {22}{22}}}
\@writefile{nav}{\headcommand {\beamer@sectionpages {22}{22}}}
\@writefile{nav}{\headcommand {\beamer@documentpages {22}}}
\@writefile{nav}{\headcommand {\def \inserttotalframenumber {13}}}
