\relax 
\providecommand\hyper@newdestlabel[2]{}
\providecommand\HyperFirstAtBeginDocument{\AtBeginDocument}
\HyperFirstAtBeginDocument{\ifx\hyper@anchor\@undefined
\global\let\oldcontentsline\contentsline
\gdef\contentsline#1#2#3#4{\oldcontentsline{#1}{#2}{#3}}
\global\let\oldnewlabel\newlabel
\gdef\newlabel#1#2{\newlabelxx{#1}#2}
\gdef\newlabelxx#1#2#3#4#5#6{\oldnewlabel{#1}{{#2}{#3}}}
\AtEndDocument{\ifx\hyper@anchor\@undefined
\let\contentsline\oldcontentsline
\let\newlabel\oldnewlabel
\fi}
\fi}
\global\let\hyper@last\relax 
\gdef\HyperFirstAtBeginDocument#1{#1}
\providecommand\HyField@AuxAddToFields[1]{}
\providecommand\HyField@AuxAddToCoFields[2]{}
\catcode `"\active 
\@writefile{toc}{\beamer@endinputifotherversion {3.36pt}}
\@writefile{nav}{\beamer@endinputifotherversion {3.36pt}}
\select@language{brazilian}
\@writefile{toc}{\select@language{brazilian}}
\@writefile{lof}{\select@language{brazilian}}
\@writefile{lot}{\select@language{brazilian}}
\@writefile{nav}{\headcommand {\slideentry {0}{0}{1}{1/1}{}{0}}}
\@writefile{nav}{\headcommand {\beamer@framepages {1}{1}}}
\@writefile{nav}{\headcommand {\slideentry {0}{0}{2}{2/2}{}{0}}}
\@writefile{nav}{\headcommand {\beamer@framepages {2}{2}}}
\@writefile{nav}{\headcommand {\slideentry {0}{0}{2}{2/3}{}{0}}}
\@writefile{nav}{\headcommand {\beamer@framepages {2}{3}}}
\@writefile{toc}{\beamer@sectionintoc {1}{Eu}{4}{0}{1}}
\@writefile{nav}{\headcommand {\sectionentry {1}{Eu}{4}{Eu}{0}}}
\@writefile{nav}{\headcommand {\beamer@sectionpages {1}{3}}}
\@writefile{nav}{\headcommand {\beamer@subsectionpages {1}{3}}}
\@writefile{nav}{\headcommand {\slideentry {1}{0}{1}{4/13}{}{0}}}
\@writefile{nav}{\headcommand {\beamer@framepages {4}{13}}}
\@writefile{toc}{\beamer@sectionintoc {2}{A For\IeC {\c c}a}{14}{0}{2}}
\@writefile{nav}{\headcommand {\sectionentry {2}{A For\IeC {\c c}a}{14}{A For\IeC {\c c}a}{0}}}
\@writefile{nav}{\headcommand {\beamer@sectionpages {4}{13}}}
\@writefile{nav}{\headcommand {\beamer@subsectionpages {4}{13}}}
\@writefile{toc}{\beamer@subsectionintoc {2}{1}{A For\IeC {\c c}a}{14}{0}{2}}
\@writefile{nav}{\headcommand {\beamer@subsectionentry {0}{2}{1}{14}{A For\IeC {\c c}a}}\headcommand {\beamer@subsectionpages {14}{13}}}
\citation{1}
\@writefile{nav}{\headcommand {\slideentry {2}{1}{1}{14/15}{A For\IeC {\c c}a}{0}}}
\@writefile{nav}{\headcommand {\beamer@framepages {14}{15}}}
\@writefile{toc}{\beamer@subsectionintoc {2}{2}{Origem da For\IeC {\c c}a}{16}{0}{2}}
\@writefile{nav}{\headcommand {\beamer@subsectionentry {0}{2}{2}{16}{Origem da For\IeC {\c c}a}}\headcommand {\beamer@subsectionpages {14}{15}}}
\@writefile{nav}{\headcommand {\slideentry {2}{2}{1}{16/22}{Origem da For\IeC {\c c}a}{0}}}
\@writefile{nav}{\headcommand {\beamer@framepages {16}{22}}}
\@writefile{toc}{\beamer@sectionintoc {3}{Padawan e Jedi}{23}{0}{3}}
\@writefile{nav}{\headcommand {\sectionentry {3}{Padawan e Jedi}{23}{Padawan e Jedi}{0}}}
\@writefile{nav}{\headcommand {\beamer@sectionpages {14}{22}}}
\@writefile{nav}{\headcommand {\beamer@subsectionpages {16}{22}}}
\@writefile{toc}{\beamer@subsectionintoc {3}{1}{Padawans e Jedis}{23}{0}{3}}
\@writefile{nav}{\headcommand {\beamer@subsectionentry {0}{3}{1}{23}{Padawans e Jedis}}\headcommand {\beamer@subsectionpages {23}{22}}}
\@writefile{nav}{\headcommand {\slideentry {3}{1}{1}{23/24}{Padawans e Jedis}{0}}}
\@writefile{nav}{\headcommand {\beamer@framepages {23}{24}}}
\@writefile{toc}{\beamer@subsectionintoc {3}{2}{Caracter\IeC {\'\i }sticas de um Padawan}{25}{0}{3}}
\@writefile{nav}{\headcommand {\beamer@subsectionentry {0}{3}{2}{25}{Caracter\IeC {\'\i }sticas de um Padawan}}\headcommand {\beamer@subsectionpages {23}{24}}}
\@writefile{nav}{\headcommand {\slideentry {3}{2}{1}{25/35}{Caracter\IeC {\'\i }sticas de um Padawan}{0}}}
\@writefile{nav}{\headcommand {\beamer@framepages {25}{35}}}
\@writefile{toc}{\beamer@subsectionintoc {3}{3}{Caracter\IeC {\'\i }sticas de um Jedi}{36}{0}{3}}
\@writefile{nav}{\headcommand {\beamer@subsectionentry {0}{3}{3}{36}{Caracter\IeC {\'\i }sticas de um Jedi}}\headcommand {\beamer@subsectionpages {25}{35}}}
\@writefile{nav}{\headcommand {\slideentry {3}{3}{1}{36/46}{Caracter\IeC {\'\i }sticas de um Jedi}{0}}}
\@writefile{nav}{\headcommand {\beamer@framepages {36}{46}}}
\citation{2}
\@writefile{toc}{\beamer@sectionintoc {4}{C\IeC {\'o}digo Jedi}{47}{0}{4}}
\@writefile{nav}{\headcommand {\sectionentry {4}{C\IeC {\'o}digo Jedi}{47}{C\IeC {\'o}digo Jedi}{0}}}
\@writefile{nav}{\headcommand {\beamer@sectionpages {23}{46}}}
\@writefile{nav}{\headcommand {\beamer@subsectionpages {36}{46}}}
\citation{2}
\citation{2}
\citation{2}
\citation{2}
\citation{2}
\@writefile{nav}{\headcommand {\slideentry {4}{0}{1}{47/52}{}{0}}}
\@writefile{nav}{\headcommand {\beamer@framepages {47}{52}}}
\citation{1}
\citation{3}
\citation{4}
\@writefile{toc}{\beamer@sectionintoc {5}{Treinamento Jedi}{53}{0}{5}}
\@writefile{nav}{\headcommand {\sectionentry {5}{Treinamento Jedi}{53}{Treinamento Jedi}{0}}}
\@writefile{nav}{\headcommand {\beamer@sectionpages {47}{52}}}
\@writefile{nav}{\headcommand {\beamer@subsectionpages {47}{52}}}
\@writefile{toc}{\beamer@subsectionintoc {5}{1}{Forjando os cristais llum}{53}{0}{5}}
\@writefile{nav}{\headcommand {\beamer@subsectionentry {0}{5}{1}{53}{Forjando os cristais llum}}\headcommand {\beamer@subsectionpages {53}{52}}}
\citation{1}
\citation{3}
\citation{4}
\citation{1}
\citation{3}
\citation{4}
\citation{1}
\citation{3}
\citation{4}
\@writefile{nav}{\headcommand {\slideentry {5}{1}{1}{53/56}{Forjando os cristais llum}{0}}}
\@writefile{nav}{\headcommand {\beamer@framepages {53}{56}}}
\@writefile{toc}{\beamer@subsectionintoc {5}{2}{Treinamento de Sabre de Luz I}{57}{0}{5}}
\@writefile{nav}{\headcommand {\beamer@subsectionentry {0}{5}{2}{57}{Treinamento de Sabre de Luz I}}\headcommand {\beamer@subsectionpages {53}{56}}}
\@writefile{toc}{\beamer@subsectionintoc {5}{3}{Treinamento de Sabre de Luz II}{67}{0}{5}}
\@writefile{nav}{\headcommand {\beamer@subsectionentry {0}{5}{3}{67}{Treinamento de Sabre de Luz II}}\headcommand {\beamer@subsectionpages {57}{66}}}
\@writefile{toc}{\beamer@sectionintoc {6}{Lado Negro da For\IeC {\c c}a}{71}{0}{6}}
\@writefile{nav}{\headcommand {\sectionentry {6}{Lado Negro da For\IeC {\c c}a}{71}{Lado Negro da For\IeC {\c c}a}{0}}}
\@writefile{nav}{\headcommand {\beamer@sectionpages {53}{70}}}
\@writefile{nav}{\headcommand {\beamer@subsectionpages {67}{70}}}
\@writefile{nav}{\headcommand {\slideentry {6}{0}{1}{71/73}{}{0}}}
\@writefile{nav}{\headcommand {\beamer@framepages {71}{73}}}
\@writefile{toc}{\beamer@sectionintoc {7}{Teste Jedi}{74}{0}{7}}
\@writefile{nav}{\headcommand {\sectionentry {7}{Teste Jedi}{74}{Teste Jedi}{0}}}
\@writefile{nav}{\headcommand {\beamer@sectionpages {71}{73}}}
\@writefile{nav}{\headcommand {\beamer@subsectionpages {71}{73}}}
\@writefile{nav}{\headcommand {\slideentry {7}{0}{1}{74/75}{}{0}}}
\@writefile{nav}{\headcommand {\beamer@framepages {74}{75}}}
\@writefile{toc}{\beamer@sectionintoc {8}{Desafios Jedi}{76}{0}{8}}
\@writefile{nav}{\headcommand {\sectionentry {8}{Desafios Jedi}{76}{Desafios Jedi}{0}}}
\@writefile{nav}{\headcommand {\beamer@sectionpages {74}{75}}}
\@writefile{nav}{\headcommand {\beamer@subsectionpages {74}{75}}}
\@writefile{nav}{\headcommand {\slideentry {8}{0}{1}{76/77}{}{0}}}
\@writefile{nav}{\headcommand {\beamer@framepages {76}{77}}}
\bibdata{talk}
\bibcite{3}{\hyperlink {beamerbib3}{Rossum, 2017}}
\bibcite{1}{\hyperlink {beamerbib1}{Stallman, 2017a}}
\bibcite{4}{\hyperlink {beamerbib4}{Stallman, 2017b}}
\bibcite{2}{\hyperlink {beamerbib2}{Wallace, 2011}}
\bibstyle{apalike}
\@writefile{toc}{\beamer@sectionintoc {9}{Refer\IeC {\^e}ncias}{78}{0}{9}}
\@writefile{nav}{\headcommand {\sectionentry {9}{Refer\IeC {\^e}ncias}{78}{Refer\IeC {\^e}ncias}{0}}}
\@writefile{nav}{\headcommand {\beamer@sectionpages {76}{77}}}
\@writefile{nav}{\headcommand {\beamer@subsectionpages {76}{77}}}
\@writefile{nav}{\headcommand {\slideentry {9}{0}{1}{78/78}{}{0}}}
\@writefile{nav}{\headcommand {\beamer@framepages {78}{78}}}
\@writefile{toc}{\beamer@sectionintoc {10}{Fim}{79}{0}{10}}
\@writefile{nav}{\headcommand {\sectionentry {10}{Fim}{79}{Fim}{0}}}
\@writefile{nav}{\headcommand {\beamer@sectionpages {78}{78}}}
\@writefile{nav}{\headcommand {\beamer@subsectionpages {78}{78}}}
\@writefile{nav}{\headcommand {\slideentry {10}{0}{1}{79/79}{}{0}}}
\@writefile{nav}{\headcommand {\beamer@framepages {79}{79}}}
\@writefile{nav}{\headcommand {\beamer@partpages {1}{79}}}
\@writefile{nav}{\headcommand {\beamer@subsectionpages {79}{79}}}
\@writefile{nav}{\headcommand {\beamer@sectionpages {79}{79}}}
\@writefile{nav}{\headcommand {\beamer@documentpages {79}}}
\@writefile{nav}{\headcommand {\def \inserttotalframenumber {16}}}
