\relax 
\providecommand\hyper@newdestlabel[2]{}
\providecommand\HyperFirstAtBeginDocument{\AtBeginDocument}
\HyperFirstAtBeginDocument{\ifx\hyper@anchor\@undefined
\global\let\oldcontentsline\contentsline
\gdef\contentsline#1#2#3#4{\oldcontentsline{#1}{#2}{#3}}
\global\let\oldnewlabel\newlabel
\gdef\newlabel#1#2{\newlabelxx{#1}#2}
\gdef\newlabelxx#1#2#3#4#5#6{\oldnewlabel{#1}{{#2}{#3}}}
\AtEndDocument{\ifx\hyper@anchor\@undefined
\let\contentsline\oldcontentsline
\let\newlabel\oldnewlabel
\fi}
\fi}
\global\let\hyper@last\relax 
\gdef\HyperFirstAtBeginDocument#1{#1}
\providecommand\HyField@AuxAddToFields[1]{}
\providecommand\HyField@AuxAddToCoFields[2]{}
\catcode `"\active 
\babel@aux{brazilian}{}
\@writefile{nav}{\headcommand {\slideentry {0}{0}{1}{1/1}{}{0}}}
\@writefile{nav}{\headcommand {\beamer@framepages {1}{1}}}
\@writefile{lol}{\contentsline {lstlisting}{static/code/code}}
\@writefile{nav}{\headcommand {\slideentry {0}{0}{2}{2/3}{}{0}}}
\@writefile{nav}{\headcommand {\beamer@framepages {2}{3}}}
\@writefile{lol}{\contentsline {lstlisting}{static/code/code}}
\@writefile{nav}{\headcommand {\slideentry {0}{0}{3}{4/5}{}{0}}}
\@writefile{nav}{\headcommand {\beamer@framepages {4}{5}}}
\@writefile{lol}{\contentsline {lstlisting}{static/code/code}}
\@writefile{nav}{\headcommand {\slideentry {0}{0}{4}{6/7}{}{0}}}
\@writefile{nav}{\headcommand {\beamer@framepages {6}{7}}}
\@writefile{lol}{\contentsline {lstlisting}{static/code/code}}
\@writefile{nav}{\headcommand {\slideentry {0}{0}{5}{8/9}{}{0}}}
\@writefile{nav}{\headcommand {\beamer@framepages {8}{9}}}
\@writefile{nav}{\headcommand {\slideentry {0}{0}{6}{10/13}{}{0}}}
\@writefile{nav}{\headcommand {\beamer@framepages {10}{13}}}
\@writefile{nav}{\headcommand {\slideentry {0}{0}{7}{14/17}{}{0}}}
\@writefile{nav}{\headcommand {\beamer@framepages {14}{17}}}
\@writefile{nav}{\headcommand {\slideentry {0}{0}{8}{18/23}{}{0}}}
\@writefile{nav}{\headcommand {\beamer@framepages {18}{23}}}
\@writefile{lol}{\contentsline {lstlisting}{static/code/code}}
\@writefile{nav}{\headcommand {\slideentry {0}{0}{9}{24/25}{}{0}}}
\@writefile{nav}{\headcommand {\beamer@framepages {24}{25}}}
\@writefile{nav}{\headcommand {\slideentry {0}{0}{10}{26/34}{}{0}}}
\@writefile{nav}{\headcommand {\beamer@framepages {26}{34}}}
\@writefile{nav}{\headcommand {\slideentry {0}{0}{11}{35/43}{}{0}}}
\@writefile{nav}{\headcommand {\beamer@framepages {35}{43}}}
\@writefile{nav}{\headcommand {\slideentry {0}{0}{12}{44/51}{}{0}}}
\@writefile{nav}{\headcommand {\beamer@framepages {44}{51}}}
\@writefile{nav}{\headcommand {\slideentry {0}{0}{13}{52/58}{}{0}}}
\@writefile{nav}{\headcommand {\beamer@framepages {52}{58}}}
\@writefile{nav}{\headcommand {\slideentry {0}{0}{14}{59/62}{}{0}}}
\@writefile{nav}{\headcommand {\beamer@framepages {59}{62}}}
\@writefile{nav}{\headcommand {\slideentry {0}{0}{15}{63/65}{}{0}}}
\@writefile{nav}{\headcommand {\beamer@framepages {63}{65}}}
\bibdata{talk}
\bibcite{3}{\hyperlink {beamerbib3}{Debian, 2018}}
\bibcite{4}{\hyperlink {beamerbib4}{Jargas, 2008}}
\bibcite{1}{\hyperlink {beamerbib1}{Mazioli, 2010}}
\bibcite{2}{\hyperlink {beamerbib2}{Ramey and Fox, 2016}}
\bibstyle{apalike}
\@writefile{nav}{\headcommand {\slideentry {0}{0}{16}{66/66}{}{0}}}
\@writefile{nav}{\headcommand {\beamer@framepages {66}{66}}}
\@writefile{nav}{\headcommand {\slideentry {0}{0}{17}{67/67}{}{0}}}
\@writefile{nav}{\headcommand {\beamer@framepages {67}{67}}}
\@writefile{nav}{\headcommand {\beamer@partpages {1}{67}}}
\@writefile{nav}{\headcommand {\beamer@subsectionpages {1}{67}}}
\@writefile{nav}{\headcommand {\beamer@sectionpages {1}{67}}}
\@writefile{nav}{\headcommand {\beamer@documentpages {67}}}
\@writefile{nav}{\headcommand {\gdef \inserttotalframenumber {17}}}
