\headcommand {\slideentry {0}{0}{1}{1/1}{}{0}}
\headcommand {\beamer@framepages {1}{1}}
\headcommand {\slideentry {0}{0}{2}{2/3}{}{0}}
\headcommand {\beamer@framepages {2}{3}}
\headcommand {\slideentry {0}{0}{3}{4/5}{}{0}}
\headcommand {\beamer@framepages {4}{5}}
\headcommand {\slideentry {0}{0}{4}{6/7}{}{0}}
\headcommand {\beamer@framepages {6}{7}}
\headcommand {\slideentry {0}{0}{5}{8/9}{}{0}}
\headcommand {\beamer@framepages {8}{9}}
\headcommand {\slideentry {0}{0}{6}{10/13}{}{0}}
\headcommand {\beamer@framepages {10}{13}}
\headcommand {\slideentry {0}{0}{7}{14/17}{}{0}}
\headcommand {\beamer@framepages {14}{17}}
\headcommand {\slideentry {0}{0}{8}{18/23}{}{0}}
\headcommand {\beamer@framepages {18}{23}}
\headcommand {\slideentry {0}{0}{9}{24/25}{}{0}}
\headcommand {\beamer@framepages {24}{25}}
\headcommand {\slideentry {0}{0}{10}{26/34}{}{0}}
\headcommand {\beamer@framepages {26}{34}}
\headcommand {\slideentry {0}{0}{11}{35/43}{}{0}}
\headcommand {\beamer@framepages {35}{43}}
\headcommand {\slideentry {0}{0}{12}{44/51}{}{0}}
\headcommand {\beamer@framepages {44}{51}}
\headcommand {\slideentry {0}{0}{13}{52/58}{}{0}}
\headcommand {\beamer@framepages {52}{58}}
\headcommand {\slideentry {0}{0}{14}{59/62}{}{0}}
\headcommand {\beamer@framepages {59}{62}}
\headcommand {\slideentry {0}{0}{15}{63/65}{}{0}}
\headcommand {\beamer@framepages {63}{65}}
\headcommand {\slideentry {0}{0}{16}{66/66}{}{0}}
\headcommand {\beamer@framepages {66}{66}}
\headcommand {\slideentry {0}{0}{17}{67/67}{}{0}}
\headcommand {\beamer@framepages {67}{67}}
\headcommand {\beamer@partpages {1}{67}}
\headcommand {\beamer@subsectionpages {1}{67}}
\headcommand {\beamer@sectionpages {1}{67}}
\headcommand {\beamer@documentpages {67}}
\headcommand {\gdef \inserttotalframenumber {17}}
