\relax 
\providecommand\hyper@newdestlabel[2]{}
\providecommand\zref@newlabel[2]{}
\providecommand\HyperFirstAtBeginDocument{\AtBeginDocument}
\HyperFirstAtBeginDocument{\ifx\hyper@anchor\@undefined
\global\let\oldcontentsline\contentsline
\gdef\contentsline#1#2#3#4{\oldcontentsline{#1}{#2}{#3}}
\global\let\oldnewlabel\newlabel
\gdef\newlabel#1#2{\newlabelxx{#1}#2}
\gdef\newlabelxx#1#2#3#4#5#6{\oldnewlabel{#1}{{#2}{#3}}}
\AtEndDocument{\ifx\hyper@anchor\@undefined
\let\contentsline\oldcontentsline
\let\newlabel\oldnewlabel
\fi}
\fi}
\global\let\hyper@last\relax 
\gdef\HyperFirstAtBeginDocument#1{#1}
\providecommand\HyField@AuxAddToFields[1]{}
\providecommand\HyField@AuxAddToCoFields[2]{}
\catcode `"\active 
\providecommand\AtEndDvi@Check{}
\AtEndDvi@Check
\@writefile{toc}{\beamer@endinputifotherversion {3.36pt}}
\@writefile{nav}{\beamer@endinputifotherversion {3.36pt}}
\select@language{brazilian}
\@writefile{toc}{\select@language{brazilian}}
\@writefile{lof}{\select@language{brazilian}}
\@writefile{lot}{\select@language{brazilian}}
\@writefile{nav}{\headcommand {\slideentry {0}{0}{1}{1/1}{}{0}}}
\@writefile{nav}{\headcommand {\beamer@framepages {1}{1}}}
\@writefile{nav}{\headcommand {\slideentry {0}{0}{2}{2/2}{}{0}}}
\@writefile{nav}{\headcommand {\beamer@framepages {2}{2}}}
\@writefile{toc}{\beamer@sectionintoc {1}{Anonimato?}{3}{0}{1}}
\@writefile{nav}{\headcommand {\sectionentry {1}{Anonimato?}{3}{Anonimato?}{0}}}
\@writefile{nav}{\headcommand {\beamer@sectionpages {1}{2}}}
\@writefile{nav}{\headcommand {\beamer@subsectionpages {1}{2}}}
\@writefile{toc}{\beamer@subsectionintoc {1}{1}{Anonimato?}{3}{0}{1}}
\@writefile{nav}{\headcommand {\beamer@subsectionentry {0}{1}{1}{3}{Anonimato?}}\headcommand {\beamer@subsectionpages {3}{2}}}
\@writefile{nav}{\headcommand {\slideentry {1}{1}{1}{3/4}{Anonimato?}{0}}}
\@writefile{nav}{\headcommand {\beamer@framepages {3}{4}}}
\@writefile{toc}{\beamer@sectionintoc {2}{Revolu\IeC {\c c}\IeC {\~a}o}{5}{0}{2}}
\@writefile{nav}{\headcommand {\sectionentry {2}{Revolu\IeC {\c c}\IeC {\~a}o}{5}{Revolu\IeC {\c c}\IeC {\~a}o}{0}}}
\@writefile{nav}{\headcommand {\beamer@sectionpages {3}{4}}}
\@writefile{nav}{\headcommand {\beamer@subsectionpages {3}{4}}}
\@writefile{toc}{\beamer@subsectionintoc {2}{1}{Amea\IeC {\c c}as}{5}{0}{2}}
\@writefile{nav}{\headcommand {\beamer@subsectionentry {0}{2}{1}{5}{Amea\IeC {\c c}as}}\headcommand {\beamer@subsectionpages {5}{4}}}
\@writefile{nav}{\headcommand {\slideentry {2}{1}{1}{5/6}{Amea\IeC {\c c}as}{0}}}
\@writefile{nav}{\headcommand {\beamer@framepages {5}{6}}}
\@writefile{nav}{\headcommand {\slideentry {2}{1}{2}{7/8}{Amea\IeC {\c c}as}{0}}}
\@writefile{nav}{\headcommand {\beamer@framepages {7}{8}}}
\@writefile{nav}{\headcommand {\slideentry {2}{1}{3}{9/10}{Amea\IeC {\c c}as}{0}}}
\@writefile{nav}{\headcommand {\beamer@framepages {9}{10}}}
\@writefile{nav}{\headcommand {\slideentry {2}{1}{4}{11/16}{Amea\IeC {\c c}as}{0}}}
\@writefile{nav}{\headcommand {\beamer@framepages {11}{16}}}
\@writefile{nav}{\headcommand {\slideentry {2}{1}{5}{17/18}{Amea\IeC {\c c}as}{0}}}
\@writefile{nav}{\headcommand {\beamer@framepages {17}{18}}}
\@writefile{toc}{\beamer@subsectionintoc {2}{2}{Resist\IeC {\^e}ncias}{19}{0}{2}}
\@writefile{nav}{\headcommand {\beamer@subsectionentry {0}{2}{2}{19}{Resist\IeC {\^e}ncias}}\headcommand {\beamer@subsectionpages {5}{18}}}
\citation{1}
\@writefile{nav}{\headcommand {\slideentry {2}{2}{1}{19/20}{Resist\IeC {\^e}ncias}{0}}}
\@writefile{nav}{\headcommand {\beamer@framepages {19}{20}}}
\@writefile{nav}{\headcommand {\slideentry {2}{2}{2}{21/22}{Resist\IeC {\^e}ncias}{0}}}
\@writefile{nav}{\headcommand {\beamer@framepages {21}{22}}}
\@writefile{nav}{\headcommand {\slideentry {2}{2}{3}{23/24}{Resist\IeC {\^e}ncias}{0}}}
\@writefile{nav}{\headcommand {\beamer@framepages {23}{24}}}
\@writefile{toc}{\beamer@sectionintoc {3}{Anonimato}{25}{0}{3}}
\@writefile{nav}{\headcommand {\sectionentry {3}{Anonimato}{25}{Anonimato}{0}}}
\@writefile{nav}{\headcommand {\beamer@sectionpages {5}{24}}}
\@writefile{nav}{\headcommand {\beamer@subsectionpages {19}{24}}}
\@writefile{toc}{\beamer@subsectionintoc {3}{1}{Criptografia}{25}{0}{3}}
\@writefile{nav}{\headcommand {\beamer@subsectionentry {0}{3}{1}{25}{Criptografia}}\headcommand {\beamer@subsectionpages {25}{24}}}
\citation{2}
\@writefile{nav}{\headcommand {\slideentry {3}{1}{1}{25/26}{Criptografia}{0}}}
\@writefile{nav}{\headcommand {\beamer@framepages {25}{26}}}
\@writefile{nav}{\headcommand {\slideentry {3}{1}{2}{27/28}{Criptografia}{0}}}
\@writefile{nav}{\headcommand {\beamer@framepages {27}{28}}}
\@writefile{toc}{\beamer@subsectionintoc {3}{2}{Proxy}{29}{0}{3}}
\@writefile{nav}{\headcommand {\beamer@subsectionentry {0}{3}{2}{29}{Proxy}}\headcommand {\beamer@subsectionpages {25}{28}}}
\@writefile{nav}{\headcommand {\slideentry {3}{2}{1}{29/30}{Proxy}{0}}}
\@writefile{nav}{\headcommand {\beamer@framepages {29}{30}}}
\@writefile{nav}{\headcommand {\slideentry {3}{2}{2}{31/32}{Proxy}{0}}}
\@writefile{nav}{\headcommand {\beamer@framepages {31}{32}}}
\@writefile{toc}{\beamer@subsectionintoc {3}{3}{Moeda Virtual}{33}{0}{3}}
\@writefile{nav}{\headcommand {\beamer@subsectionentry {0}{3}{3}{33}{Moeda Virtual}}\headcommand {\beamer@subsectionpages {29}{32}}}
\@writefile{nav}{\headcommand {\slideentry {3}{3}{1}{33/34}{Moeda Virtual}{0}}}
\@writefile{nav}{\headcommand {\beamer@framepages {33}{34}}}
\@writefile{toc}{\beamer@subsectionintoc {3}{4}{Software Livre}{35}{0}{3}}
\@writefile{nav}{\headcommand {\beamer@subsectionentry {0}{3}{4}{35}{Software Livre}}\headcommand {\beamer@subsectionpages {33}{34}}}
\@writefile{nav}{\headcommand {\slideentry {3}{4}{1}{35/36}{Software Livre}{0}}}
\@writefile{nav}{\headcommand {\beamer@framepages {35}{36}}}
\@writefile{nav}{\headcommand {\slideentry {3}{4}{2}{37/39}{Software Livre}{0}}}
\@writefile{nav}{\headcommand {\beamer@framepages {37}{39}}}
\@writefile{nav}{\headcommand {\slideentry {3}{4}{3}{40/41}{Software Livre}{0}}}
\@writefile{nav}{\headcommand {\beamer@framepages {40}{41}}}
\@writefile{nav}{\headcommand {\slideentry {3}{4}{4}{42/42}{Software Livre}{0}}}
\@writefile{nav}{\headcommand {\beamer@framepages {42}{42}}}
\bibdata{talk}
\bibcite{1}{\hyperlink {beamerbib1}{Harding, 2014}}
\bibcite{2}{\hyperlink {beamerbib2}{Koch, 2015}}
\bibstyle{apalike}
\@writefile{toc}{\beamer@sectionintoc {4}{De-anonimato}{43}{0}{4}}
\@writefile{nav}{\headcommand {\sectionentry {4}{De-anonimato}{43}{De-anonimato}{0}}}
\@writefile{nav}{\headcommand {\beamer@sectionpages {25}{42}}}
\@writefile{nav}{\headcommand {\beamer@subsectionpages {35}{42}}}
\@writefile{toc}{\beamer@subsectionintoc {4}{1}{Refer\IeC {\^e}ncias}{43}{0}{4}}
\@writefile{nav}{\headcommand {\beamer@subsectionentry {0}{4}{1}{43}{Refer\IeC {\^e}ncias}}\headcommand {\beamer@subsectionpages {43}{42}}}
\@writefile{nav}{\headcommand {\slideentry {4}{1}{1}{43/43}{Refer\IeC {\^e}ncias}{0}}}
\@writefile{nav}{\headcommand {\beamer@framepages {43}{43}}}
\@writefile{toc}{\beamer@subsectionintoc {4}{2}{Fim}{44}{0}{4}}
\@writefile{nav}{\headcommand {\beamer@subsectionentry {0}{4}{2}{44}{Fim}}\headcommand {\beamer@subsectionpages {43}{43}}}
\@writefile{nav}{\headcommand {\slideentry {4}{2}{1}{44/44}{Fim}{0}}}
\@writefile{nav}{\headcommand {\beamer@framepages {44}{44}}}
\@writefile{nav}{\headcommand {\beamer@partpages {1}{44}}}
\@writefile{nav}{\headcommand {\beamer@subsectionpages {44}{44}}}
\@writefile{nav}{\headcommand {\beamer@sectionpages {43}{44}}}
\@writefile{nav}{\headcommand {\beamer@documentpages {44}}}
\@writefile{nav}{\headcommand {\def \inserttotalframenumber {22}}}
\zref@newlabel{LastPage}{\default{2}\page{44}\abspage{44}}
