\beamer@endinputifotherversion {3.36pt}
\select@language {brazilian}
\beamer@sectionintoc {1}{Anonimato?}{3}{0}{1}
\beamer@subsectionintoc {1}{1}{Anonimato?}{3}{0}{1}
\beamer@sectionintoc {2}{Revolu\IeC {\c c}\IeC {\~a}o}{5}{0}{2}
\beamer@subsectionintoc {2}{1}{Amea\IeC {\c c}as}{5}{0}{2}
\beamer@subsectionintoc {2}{2}{Resist\IeC {\^e}ncias}{19}{0}{2}
\beamer@sectionintoc {3}{Anonimato}{25}{0}{3}
\beamer@subsectionintoc {3}{1}{Criptografia}{25}{0}{3}
\beamer@subsectionintoc {3}{2}{Proxy}{29}{0}{3}
\beamer@subsectionintoc {3}{3}{Moeda Virtual}{33}{0}{3}
\beamer@subsectionintoc {3}{4}{Software Livre}{35}{0}{3}
\beamer@sectionintoc {4}{De-anonimato}{43}{0}{4}
\beamer@subsectionintoc {4}{1}{Refer\IeC {\^e}ncias}{43}{0}{4}
\beamer@subsectionintoc {4}{2}{Fim}{44}{0}{4}
