\relax 
\providecommand\hyper@newdestlabel[2]{}
\providecommand\HyperFirstAtBeginDocument{\AtBeginDocument}
\HyperFirstAtBeginDocument{\ifx\hyper@anchor\@undefined
\global\let\oldcontentsline\contentsline
\gdef\contentsline#1#2#3#4{\oldcontentsline{#1}{#2}{#3}}
\global\let\oldnewlabel\newlabel
\gdef\newlabel#1#2{\newlabelxx{#1}#2}
\gdef\newlabelxx#1#2#3#4#5#6{\oldnewlabel{#1}{{#2}{#3}}}
\AtEndDocument{\ifx\hyper@anchor\@undefined
\let\contentsline\oldcontentsline
\let\newlabel\oldnewlabel
\fi}
\fi}
\global\let\hyper@last\relax 
\gdef\HyperFirstAtBeginDocument#1{#1}
\providecommand\HyField@AuxAddToFields[1]{}
\providecommand\HyField@AuxAddToCoFields[2]{}
\catcode `"\active 
\@writefile{toc}{\beamer@endinputifotherversion {3.36pt}}
\@writefile{nav}{\beamer@endinputifotherversion {3.36pt}}
\select@language{brazilian}
\@writefile{toc}{\select@language{brazilian}}
\@writefile{lof}{\select@language{brazilian}}
\@writefile{lot}{\select@language{brazilian}}
\@writefile{nav}{\headcommand {\slideentry {0}{0}{1}{1/1}{}{0}}}
\@writefile{nav}{\headcommand {\beamer@framepages {1}{1}}}
\@writefile{nav}{\headcommand {\slideentry {0}{0}{2}{2/8}{}{0}}}
\@writefile{nav}{\headcommand {\beamer@framepages {2}{8}}}
\@writefile{nav}{\headcommand {\slideentry {0}{0}{3}{10/22}{}{0}}}
\@writefile{nav}{\headcommand {\beamer@framepages {10}{22}}}
\@writefile{nav}{\headcommand {\slideentry {0}{0}{4}{23/24}{}{0}}}
\@writefile{nav}{\headcommand {\beamer@framepages {23}{24}}}
\@writefile{nav}{\headcommand {\slideentry {0}{0}{5}{25/27}{}{0}}}
\@writefile{nav}{\headcommand {\beamer@framepages {25}{27}}}
\@writefile{nav}{\headcommand {\slideentry {0}{0}{6}{28/37}{}{0}}}
\@writefile{nav}{\headcommand {\beamer@framepages {28}{37}}}
\@writefile{nav}{\headcommand {\slideentry {0}{0}{7}{38/42}{}{0}}}
\@writefile{nav}{\headcommand {\beamer@framepages {38}{42}}}
\@writefile{nav}{\headcommand {\slideentry {0}{0}{8}{43/47}{}{0}}}
\@writefile{nav}{\headcommand {\beamer@framepages {43}{47}}}
\@writefile{nav}{\headcommand {\slideentry {0}{0}{9}{48/51}{}{0}}}
\@writefile{nav}{\headcommand {\beamer@framepages {48}{51}}}
\@writefile{nav}{\headcommand {\slideentry {0}{0}{10}{52/59}{}{0}}}
\@writefile{nav}{\headcommand {\beamer@framepages {52}{59}}}
\@writefile{nav}{\headcommand {\slideentry {0}{0}{11}{60/64}{}{0}}}
\@writefile{nav}{\headcommand {\beamer@framepages {60}{64}}}
\bibdata{talk}
\bibcite{1}{\hyperlink {beamerbib1}{Deitel and Deitel, 2010}}
\bibcite{3}{\hyperlink {beamerbib3}{Evaristo, 2015}}
\bibcite{2}{\hyperlink {beamerbib2}{Mizrahi, 2014}}
\bibstyle{apalike}
\@writefile{nav}{\headcommand {\slideentry {0}{0}{12}{65/65}{}{0}}}
\@writefile{nav}{\headcommand {\beamer@framepages {65}{65}}}
\@writefile{nav}{\headcommand {\slideentry {0}{0}{13}{66/66}{}{0}}}
\@writefile{nav}{\headcommand {\beamer@framepages {66}{66}}}
\@writefile{nav}{\headcommand {\beamer@partpages {1}{66}}}
\@writefile{nav}{\headcommand {\beamer@subsectionpages {1}{66}}}
\@writefile{nav}{\headcommand {\beamer@sectionpages {1}{66}}}
\@writefile{nav}{\headcommand {\beamer@documentpages {66}}}
\@writefile{nav}{\headcommand {\def \inserttotalframenumber {13}}}
