\relax 
\providecommand\hyper@newdestlabel[2]{}
\providecommand\HyperFirstAtBeginDocument{\AtBeginDocument}
\HyperFirstAtBeginDocument{\ifx\hyper@anchor\@undefined
\global\let\oldcontentsline\contentsline
\gdef\contentsline#1#2#3#4{\oldcontentsline{#1}{#2}{#3}}
\global\let\oldnewlabel\newlabel
\gdef\newlabel#1#2{\newlabelxx{#1}#2}
\gdef\newlabelxx#1#2#3#4#5#6{\oldnewlabel{#1}{{#2}{#3}}}
\AtEndDocument{\ifx\hyper@anchor\@undefined
\let\contentsline\oldcontentsline
\let\newlabel\oldnewlabel
\fi}
\fi}
\global\let\hyper@last\relax 
\gdef\HyperFirstAtBeginDocument#1{#1}
\providecommand\HyField@AuxAddToFields[1]{}
\providecommand\HyField@AuxAddToCoFields[2]{}
\@writefile{toc}{\beamer@endinputifotherversion {3.36pt}}
\@writefile{nav}{\beamer@endinputifotherversion {3.36pt}}
\@writefile{nav}{\headcommand {\slideentry {0}{0}{1}{1/1}{}{0}}}
\@writefile{nav}{\headcommand {\beamer@framepages {1}{1}}}
\@writefile{nav}{\headcommand {\slideentry {0}{0}{2}{2/2}{}{0}}}
\@writefile{nav}{\headcommand {\beamer@framepages {2}{2}}}
\@writefile{nav}{\headcommand {\slideentry {0}{0}{2}{2/3}{}{0}}}
\@writefile{nav}{\headcommand {\beamer@framepages {2}{3}}}
\@writefile{toc}{\beamer@sectionintoc {1}{Me}{4}{0}{1}}
\@writefile{nav}{\headcommand {\sectionentry {1}{Me}{4}{Me}{0}}}
\@writefile{nav}{\headcommand {\beamer@sectionpages {1}{3}}}
\@writefile{nav}{\headcommand {\beamer@subsectionpages {1}{3}}}
\@writefile{nav}{\headcommand {\slideentry {1}{0}{1}{4/12}{}{0}}}
\@writefile{nav}{\headcommand {\beamer@framepages {4}{12}}}
\@writefile{toc}{\beamer@sectionintoc {2}{Introduction}{13}{0}{2}}
\@writefile{nav}{\headcommand {\sectionentry {2}{Introduction}{13}{Introduction}{0}}}
\@writefile{nav}{\headcommand {\beamer@sectionpages {4}{12}}}
\@writefile{nav}{\headcommand {\beamer@subsectionpages {4}{12}}}
\@writefile{toc}{\beamer@subsectionintoc {2}{1}{Context}{13}{0}{2}}
\@writefile{nav}{\headcommand {\beamer@subsectionentry {0}{2}{1}{13}{Context}}\headcommand {\beamer@subsectionpages {13}{12}}}
\@writefile{nav}{\headcommand {\slideentry {2}{1}{1}{13/14}{Context}{0}}}
\@writefile{nav}{\headcommand {\beamer@framepages {13}{14}}}
\@writefile{toc}{\beamer@subsectionintoc {2}{2}{Problem}{15}{0}{2}}
\@writefile{nav}{\headcommand {\beamer@subsectionentry {0}{2}{2}{15}{Problem}}\headcommand {\beamer@subsectionpages {13}{14}}}
\@writefile{nav}{\headcommand {\slideentry {2}{2}{1}{15/22}{Problem}{0}}}
\@writefile{nav}{\headcommand {\beamer@framepages {15}{22}}}
\@writefile{toc}{\beamer@sectionintoc {3}{Lightom}{23}{0}{3}}
\@writefile{nav}{\headcommand {\sectionentry {3}{Lightom}{23}{Lightom}{0}}}
\@writefile{nav}{\headcommand {\beamer@sectionpages {13}{22}}}
\@writefile{nav}{\headcommand {\beamer@subsectionpages {15}{22}}}
\@writefile{toc}{\beamer@subsectionintoc {3}{1}{Lightom}{23}{0}{3}}
\@writefile{nav}{\headcommand {\beamer@subsectionentry {0}{3}{1}{23}{Lightom}}\headcommand {\beamer@subsectionpages {23}{22}}}
\citation{1}
\@writefile{nav}{\headcommand {\slideentry {3}{1}{1}{23/24}{Lightom}{0}}}
\@writefile{nav}{\headcommand {\beamer@framepages {23}{24}}}
\@writefile{toc}{\beamer@subsectionintoc {3}{2}{Libre Hardware}{25}{0}{3}}
\@writefile{nav}{\headcommand {\beamer@subsectionentry {0}{3}{2}{25}{Libre Hardware}}\headcommand {\beamer@subsectionpages {23}{24}}}
\citation{2}
\@writefile{nav}{\headcommand {\slideentry {3}{2}{1}{25/26}{Libre Hardware}{0}}}
\@writefile{nav}{\headcommand {\beamer@framepages {25}{26}}}
\@writefile{toc}{\beamer@subsectionintoc {3}{3}{Layout}{27}{0}{3}}
\@writefile{nav}{\headcommand {\beamer@subsectionentry {0}{3}{3}{27}{Layout}}\headcommand {\beamer@subsectionpages {25}{26}}}
\citation{1}
\@writefile{nav}{\headcommand {\slideentry {3}{3}{1}{27/28}{Layout}{0}}}
\@writefile{nav}{\headcommand {\beamer@framepages {27}{28}}}
\@writefile{toc}{\beamer@subsectionintoc {3}{4}{Network}{29}{0}{3}}
\@writefile{nav}{\headcommand {\beamer@subsectionentry {0}{3}{4}{29}{Network}}\headcommand {\beamer@subsectionpages {27}{28}}}
\citation{1}
\@writefile{nav}{\headcommand {\slideentry {3}{4}{1}{29/30}{Network}{0}}}
\@writefile{nav}{\headcommand {\beamer@framepages {29}{30}}}
\@writefile{toc}{\beamer@subsectionintoc {3}{5}{Free Software}{31}{0}{3}}
\@writefile{nav}{\headcommand {\beamer@subsectionentry {0}{3}{5}{31}{Free Software}}\headcommand {\beamer@subsectionpages {29}{30}}}
\citation{1}
\@writefile{nav}{\headcommand {\slideentry {3}{5}{1}{31/32}{Free Software}{0}}}
\@writefile{nav}{\headcommand {\beamer@framepages {31}{32}}}
\@writefile{toc}{\beamer@subsectionintoc {3}{6}{Resume}{33}{0}{3}}
\@writefile{nav}{\headcommand {\beamer@subsectionentry {0}{3}{6}{33}{Resume}}\headcommand {\beamer@subsectionpages {31}{32}}}
\@writefile{nav}{\headcommand {\slideentry {3}{6}{1}{33/39}{Resume}{0}}}
\@writefile{nav}{\headcommand {\beamer@framepages {33}{39}}}
\@writefile{toc}{\beamer@subsectionintoc {3}{7}{New Problem}{40}{0}{3}}
\@writefile{nav}{\headcommand {\beamer@subsectionentry {0}{3}{7}{40}{New Problem}}\headcommand {\beamer@subsectionpages {33}{39}}}
\@writefile{nav}{\headcommand {\slideentry {3}{7}{1}{40/44}{New Problem}{0}}}
\@writefile{nav}{\headcommand {\beamer@framepages {40}{44}}}
\citation{3}
\@writefile{toc}{\beamer@sectionintoc {4}{Lig}{45}{0}{4}}
\@writefile{nav}{\headcommand {\sectionentry {4}{Lig}{45}{Lig}{0}}}
\@writefile{nav}{\headcommand {\beamer@sectionpages {23}{44}}}
\@writefile{nav}{\headcommand {\beamer@subsectionpages {40}{44}}}
\@writefile{toc}{\beamer@subsectionintoc {4}{1}{IoT}{45}{0}{4}}
\@writefile{nav}{\headcommand {\beamer@subsectionentry {0}{4}{1}{45}{IoT}}\headcommand {\beamer@subsectionpages {45}{44}}}
\citation{3}
\citation{3}
\citation{3}
\citation{3}
\citation{3}
\@writefile{nav}{\headcommand {\slideentry {4}{1}{1}{45/50}{IoT}{0}}}
\@writefile{nav}{\headcommand {\beamer@framepages {45}{50}}}
\citation{4}
\@writefile{toc}{\beamer@subsectionintoc {4}{2}{GNU Guile}{51}{0}{4}}
\@writefile{nav}{\headcommand {\beamer@subsectionentry {0}{4}{2}{51}{GNU Guile}}\headcommand {\beamer@subsectionpages {45}{50}}}
\citation{4}
\citation{4}
\citation{4}
\citation{4}
\citation{4}
\@writefile{nav}{\headcommand {\slideentry {4}{2}{1}{51/56}{GNU Guile}{0}}}
\@writefile{nav}{\headcommand {\beamer@framepages {51}{56}}}
\@writefile{toc}{\beamer@subsectionintoc {4}{3}{Lig}{57}{0}{4}}
\@writefile{nav}{\headcommand {\beamer@subsectionentry {0}{4}{3}{57}{Lig}}\headcommand {\beamer@subsectionpages {51}{56}}}
\@writefile{nav}{\headcommand {\slideentry {4}{3}{1}{57/58}{Lig}{0}}}
\@writefile{nav}{\headcommand {\beamer@framepages {57}{58}}}
\bibdata{talk}
\bibcite{2}{\hyperlink {beamerbib2}{Banzi, 2011}}
\bibcite{4}{\hyperlink {beamerbib4}{FSF, 2016}}
\bibcite{3}{\hyperlink {beamerbib3}{Hemmerich, 2016}}
\bibcite{1}{\hyperlink {beamerbib1}{Pimentel and Santos, 2014}}
\bibstyle{apalike}
\@writefile{toc}{\beamer@sectionintoc {5}{References}{59}{0}{5}}
\@writefile{nav}{\headcommand {\sectionentry {5}{References}{59}{References}{0}}}
\@writefile{nav}{\headcommand {\beamer@sectionpages {45}{58}}}
\@writefile{nav}{\headcommand {\beamer@subsectionpages {57}{58}}}
\@writefile{nav}{\headcommand {\slideentry {5}{0}{1}{59/59}{}{0}}}
\@writefile{nav}{\headcommand {\beamer@framepages {59}{59}}}
\@writefile{toc}{\beamer@sectionintoc {6}{End}{60}{0}{6}}
\@writefile{nav}{\headcommand {\sectionentry {6}{End}{60}{End}{0}}}
\@writefile{nav}{\headcommand {\beamer@sectionpages {59}{59}}}
\@writefile{nav}{\headcommand {\beamer@subsectionpages {59}{59}}}
\@writefile{nav}{\headcommand {\slideentry {6}{0}{1}{60/60}{}{0}}}
\@writefile{nav}{\headcommand {\beamer@framepages {60}{60}}}
\@writefile{nav}{\headcommand {\beamer@partpages {1}{60}}}
\@writefile{nav}{\headcommand {\beamer@subsectionpages {60}{60}}}
\@writefile{nav}{\headcommand {\beamer@sectionpages {60}{60}}}
\@writefile{nav}{\headcommand {\beamer@documentpages {60}}}
\@writefile{nav}{\headcommand {\def \inserttotalframenumber {18}}}
