\relax 
\providecommand\hyper@newdestlabel[2]{}
\providecommand\HyperFirstAtBeginDocument{\AtBeginDocument}
\HyperFirstAtBeginDocument{\ifx\hyper@anchor\@undefined
\global\let\oldcontentsline\contentsline
\gdef\contentsline#1#2#3#4{\oldcontentsline{#1}{#2}{#3}}
\global\let\oldnewlabel\newlabel
\gdef\newlabel#1#2{\newlabelxx{#1}#2}
\gdef\newlabelxx#1#2#3#4#5#6{\oldnewlabel{#1}{{#2}{#3}}}
\AtEndDocument{\ifx\hyper@anchor\@undefined
\let\contentsline\oldcontentsline
\let\newlabel\oldnewlabel
\fi}
\fi}
\global\let\hyper@last\relax 
\gdef\HyperFirstAtBeginDocument#1{#1}
\providecommand\HyField@AuxAddToFields[1]{}
\providecommand\HyField@AuxAddToCoFields[2]{}
\catcode `"\active 
\@writefile{toc}{\beamer@endinputifotherversion {3.36pt}}
\@writefile{nav}{\beamer@endinputifotherversion {3.36pt}}
\select@language{brazilian}
\@writefile{toc}{\select@language{brazilian}}
\@writefile{lof}{\select@language{brazilian}}
\@writefile{lot}{\select@language{brazilian}}
\@writefile{nav}{\headcommand {\slideentry {0}{0}{1}{1/1}{}{0}}}
\@writefile{nav}{\headcommand {\beamer@framepages {1}{1}}}
\@writefile{nav}{\headcommand {\slideentry {0}{0}{2}{2/4}{}{0}}}
\@writefile{nav}{\headcommand {\beamer@framepages {2}{4}}}
\@writefile{nav}{\headcommand {\slideentry {0}{0}{3}{5/9}{}{0}}}
\@writefile{nav}{\headcommand {\beamer@framepages {5}{9}}}
\@writefile{nav}{\headcommand {\slideentry {0}{0}{4}{10/15}{}{0}}}
\@writefile{nav}{\headcommand {\beamer@framepages {10}{15}}}
\@writefile{nav}{\headcommand {\slideentry {0}{0}{5}{16/20}{}{0}}}
\@writefile{nav}{\headcommand {\beamer@framepages {16}{20}}}
\@writefile{nav}{\headcommand {\slideentry {0}{0}{6}{21/24}{}{0}}}
\@writefile{nav}{\headcommand {\beamer@framepages {21}{24}}}
\@writefile{nav}{\headcommand {\slideentry {0}{0}{7}{25/28}{}{0}}}
\@writefile{nav}{\headcommand {\beamer@framepages {25}{28}}}
\@writefile{nav}{\headcommand {\slideentry {0}{0}{8}{29/34}{}{0}}}
\@writefile{nav}{\headcommand {\beamer@framepages {29}{34}}}
\@writefile{nav}{\headcommand {\slideentry {0}{0}{9}{35/43}{}{0}}}
\@writefile{nav}{\headcommand {\beamer@framepages {35}{43}}}
\@writefile{nav}{\headcommand {\slideentry {0}{0}{10}{44/56}{}{0}}}
\@writefile{nav}{\headcommand {\beamer@framepages {44}{56}}}
\@writefile{nav}{\headcommand {\slideentry {0}{0}{11}{57/58}{}{0}}}
\@writefile{nav}{\headcommand {\beamer@framepages {57}{58}}}
\@writefile{nav}{\headcommand {\slideentry {0}{0}{12}{59/60}{}{0}}}
\@writefile{nav}{\headcommand {\beamer@framepages {59}{60}}}
\bibdata{talk}
\bibcite{1}{\hyperlink {beamerbib1}{Stallings, 2010}}
\bibstyle{apalike}
\@writefile{nav}{\headcommand {\slideentry {0}{0}{13}{61/61}{}{0}}}
\@writefile{nav}{\headcommand {\beamer@framepages {61}{61}}}
\@writefile{nav}{\headcommand {\slideentry {0}{0}{14}{62/62}{}{0}}}
\@writefile{nav}{\headcommand {\beamer@framepages {62}{62}}}
\@writefile{nav}{\headcommand {\beamer@partpages {1}{62}}}
\@writefile{nav}{\headcommand {\beamer@subsectionpages {1}{62}}}
\@writefile{nav}{\headcommand {\beamer@sectionpages {1}{62}}}
\@writefile{nav}{\headcommand {\beamer@documentpages {62}}}
\@writefile{nav}{\headcommand {\def \inserttotalframenumber {14}}}
