\beamer@endinputifotherversion {3.36pt}
\beamer@sectionintoc {1}{Me}{3}{0}{1}
\beamer@sectionintoc {2}{GNU Hurd}{16}{0}{2}
\beamer@subsectionintoc {2}{1}{History}{16}{0}{2}
\beamer@subsectionintoc {2}{2}{Microkernel}{22}{0}{2}
\beamer@subsectionintoc {2}{3}{GNU Hurd}{28}{0}{2}
\beamer@subsectionintoc {2}{4}{GNU Mach}{30}{0}{2}
\beamer@subsectionintoc {2}{5}{GNU MIG}{35}{0}{2}
\beamer@subsectionintoc {2}{6}{Advantages}{38}{0}{2}
\beamer@subsectionintoc {2}{7}{Servers}{44}{0}{2}
\beamer@sectionintoc {3}{References}{47}{0}{3}
\beamer@sectionintoc {4}{End}{48}{0}{4}
