\relax 
\providecommand\hyper@newdestlabel[2]{}
\providecommand\HyperFirstAtBeginDocument{\AtBeginDocument}
\HyperFirstAtBeginDocument{\ifx\hyper@anchor\@undefined
\global\let\oldcontentsline\contentsline
\gdef\contentsline#1#2#3#4{\oldcontentsline{#1}{#2}{#3}}
\global\let\oldnewlabel\newlabel
\gdef\newlabel#1#2{\newlabelxx{#1}#2}
\gdef\newlabelxx#1#2#3#4#5#6{\oldnewlabel{#1}{{#2}{#3}}}
\AtEndDocument{\ifx\hyper@anchor\@undefined
\let\contentsline\oldcontentsline
\let\newlabel\oldnewlabel
\fi}
\fi}
\global\let\hyper@last\relax 
\gdef\HyperFirstAtBeginDocument#1{#1}
\providecommand\HyField@AuxAddToFields[1]{}
\providecommand\HyField@AuxAddToCoFields[2]{}
\@writefile{toc}{\beamer@endinputifotherversion {3.36pt}}
\@writefile{nav}{\beamer@endinputifotherversion {3.36pt}}
\@writefile{nav}{\headcommand {\slideentry {0}{0}{1}{1/1}{}{0}}}
\@writefile{nav}{\headcommand {\beamer@framepages {1}{1}}}
\@writefile{nav}{\headcommand {\slideentry {0}{0}{2}{2/2}{}{0}}}
\@writefile{nav}{\headcommand {\beamer@framepages {2}{2}}}
\@writefile{toc}{\beamer@sectionintoc {1}{Me}{3}{0}{1}}
\@writefile{nav}{\headcommand {\sectionentry {1}{Me}{3}{Me}{0}}}
\@writefile{nav}{\headcommand {\beamer@sectionpages {1}{2}}}
\@writefile{nav}{\headcommand {\beamer@subsectionpages {1}{2}}}
\@writefile{nav}{\headcommand {\slideentry {1}{0}{1}{3/15}{}{0}}}
\@writefile{nav}{\headcommand {\beamer@framepages {3}{15}}}
\@writefile{toc}{\beamer@sectionintoc {2}{GNU Hurd}{16}{0}{2}}
\@writefile{nav}{\headcommand {\sectionentry {2}{GNU Hurd}{16}{GNU Hurd}{0}}}
\@writefile{nav}{\headcommand {\beamer@sectionpages {3}{15}}}
\@writefile{nav}{\headcommand {\beamer@subsectionpages {3}{15}}}
\@writefile{toc}{\beamer@subsectionintoc {2}{1}{History}{16}{0}{2}}
\@writefile{nav}{\headcommand {\beamer@subsectionentry {0}{2}{1}{16}{History}}\headcommand {\beamer@subsectionpages {16}{15}}}
\@writefile{nav}{\headcommand {\slideentry {2}{1}{1}{16/21}{History}{0}}}
\@writefile{nav}{\headcommand {\beamer@framepages {16}{21}}}
\@writefile{toc}{\beamer@subsectionintoc {2}{2}{Microkernel}{22}{0}{2}}
\@writefile{nav}{\headcommand {\beamer@subsectionentry {0}{2}{2}{22}{Microkernel}}\headcommand {\beamer@subsectionpages {16}{21}}}
\@writefile{nav}{\headcommand {\slideentry {2}{2}{1}{22/27}{Microkernel}{0}}}
\@writefile{nav}{\headcommand {\beamer@framepages {22}{27}}}
\@writefile{toc}{\beamer@subsectionintoc {2}{3}{GNU Hurd}{28}{0}{2}}
\@writefile{nav}{\headcommand {\beamer@subsectionentry {0}{2}{3}{28}{GNU Hurd}}\headcommand {\beamer@subsectionpages {22}{27}}}
\citation{1}
\@writefile{nav}{\headcommand {\slideentry {2}{3}{1}{28/29}{GNU Hurd}{0}}}
\@writefile{nav}{\headcommand {\beamer@framepages {28}{29}}}
\@writefile{toc}{\beamer@subsectionintoc {2}{4}{GNU Mach}{30}{0}{2}}
\@writefile{nav}{\headcommand {\beamer@subsectionentry {0}{2}{4}{30}{GNU Mach}}\headcommand {\beamer@subsectionpages {28}{29}}}
\@writefile{nav}{\headcommand {\slideentry {2}{4}{1}{30/34}{GNU Mach}{0}}}
\@writefile{nav}{\headcommand {\beamer@framepages {30}{34}}}
\@writefile{toc}{\beamer@subsectionintoc {2}{5}{GNU MIG}{35}{0}{2}}
\@writefile{nav}{\headcommand {\beamer@subsectionentry {0}{2}{5}{35}{GNU MIG}}\headcommand {\beamer@subsectionpages {30}{34}}}
\@writefile{nav}{\headcommand {\slideentry {2}{5}{1}{35/37}{GNU MIG}{0}}}
\@writefile{nav}{\headcommand {\beamer@framepages {35}{37}}}
\@writefile{toc}{\beamer@subsectionintoc {2}{6}{Advantages}{38}{0}{2}}
\@writefile{nav}{\headcommand {\beamer@subsectionentry {0}{2}{6}{38}{Advantages}}\headcommand {\beamer@subsectionpages {35}{37}}}
\@writefile{nav}{\headcommand {\slideentry {2}{6}{1}{38/43}{Advantages}{0}}}
\@writefile{nav}{\headcommand {\beamer@framepages {38}{43}}}
\citation{2}
\citation{2}
\@writefile{toc}{\beamer@subsectionintoc {2}{7}{Servers}{44}{0}{2}}
\@writefile{nav}{\headcommand {\beamer@subsectionentry {0}{2}{7}{44}{Servers}}\headcommand {\beamer@subsectionpages {38}{43}}}
\citation{2}
\citation{2}
\citation{2}
\citation{2}
\@writefile{nav}{\headcommand {\slideentry {2}{7}{1}{44/46}{Servers}{0}}}
\@writefile{nav}{\headcommand {\beamer@framepages {44}{46}}}
\bibdata{talk}
\bibcite{2}{\hyperlink {beamerbib2}{Bushnell, 2016}}
\bibcite{1}{\hyperlink {beamerbib1}{FSF, 2016}}
\bibstyle{apalike}
\@writefile{toc}{\beamer@sectionintoc {3}{References}{47}{0}{3}}
\@writefile{nav}{\headcommand {\sectionentry {3}{References}{47}{References}{0}}}
\@writefile{nav}{\headcommand {\beamer@sectionpages {16}{46}}}
\@writefile{nav}{\headcommand {\beamer@subsectionpages {44}{46}}}
\@writefile{nav}{\headcommand {\slideentry {3}{0}{1}{47/47}{}{0}}}
\@writefile{nav}{\headcommand {\beamer@framepages {47}{47}}}
\@writefile{toc}{\beamer@sectionintoc {4}{End}{48}{0}{4}}
\@writefile{nav}{\headcommand {\sectionentry {4}{End}{48}{End}{0}}}
\@writefile{nav}{\headcommand {\beamer@sectionpages {47}{47}}}
\@writefile{nav}{\headcommand {\beamer@subsectionpages {47}{47}}}
\@writefile{nav}{\headcommand {\slideentry {4}{0}{1}{48/48}{}{0}}}
\@writefile{nav}{\headcommand {\beamer@framepages {48}{48}}}
\@writefile{nav}{\headcommand {\beamer@partpages {1}{48}}}
\@writefile{nav}{\headcommand {\beamer@subsectionpages {48}{48}}}
\@writefile{nav}{\headcommand {\beamer@sectionpages {48}{48}}}
\@writefile{nav}{\headcommand {\beamer@documentpages {48}}}
\@writefile{nav}{\headcommand {\def \inserttotalframenumber {12}}}
