\relax 
\providecommand\hyper@newdestlabel[2]{}
\providecommand\HyperFirstAtBeginDocument{\AtBeginDocument}
\HyperFirstAtBeginDocument{\ifx\hyper@anchor\@undefined
\global\let\oldcontentsline\contentsline
\gdef\contentsline#1#2#3#4{\oldcontentsline{#1}{#2}{#3}}
\global\let\oldnewlabel\newlabel
\gdef\newlabel#1#2{\newlabelxx{#1}#2}
\gdef\newlabelxx#1#2#3#4#5#6{\oldnewlabel{#1}{{#2}{#3}}}
\AtEndDocument{\ifx\hyper@anchor\@undefined
\let\contentsline\oldcontentsline
\let\newlabel\oldnewlabel
\fi}
\fi}
\global\let\hyper@last\relax 
\gdef\HyperFirstAtBeginDocument#1{#1}
\providecommand\HyField@AuxAddToFields[1]{}
\providecommand\HyField@AuxAddToCoFields[2]{}
\catcode `"\active 
\select@language{brazilian}
\@writefile{toc}{\select@language{brazilian}}
\@writefile{lof}{\select@language{brazilian}}
\@writefile{lot}{\select@language{brazilian}}
\@writefile{nav}{\headcommand {\slideentry {0}{0}{1}{1/1}{}{0}}}
\@writefile{nav}{\headcommand {\beamer@framepages {1}{1}}}
\@writefile{nav}{\headcommand {\slideentry {0}{0}{2}{2/4}{}{0}}}
\@writefile{nav}{\headcommand {\beamer@framepages {2}{4}}}
\@writefile{nav}{\headcommand {\slideentry {0}{0}{3}{5/11}{}{0}}}
\@writefile{nav}{\headcommand {\beamer@framepages {5}{11}}}
\@writefile{nav}{\headcommand {\slideentry {0}{0}{4}{12/18}{}{0}}}
\@writefile{nav}{\headcommand {\beamer@framepages {12}{18}}}
\@writefile{lol}{\contentsline {lstlisting}{static/code/code}}
\@writefile{nav}{\headcommand {\slideentry {0}{0}{5}{19/20}{}{0}}}
\@writefile{nav}{\headcommand {\beamer@framepages {19}{20}}}
\@writefile{lol}{\contentsline {lstlisting}{static/code/code}}
\@writefile{nav}{\headcommand {\slideentry {0}{0}{6}{21/22}{}{0}}}
\@writefile{nav}{\headcommand {\beamer@framepages {21}{22}}}
\@writefile{lol}{\contentsline {lstlisting}{static/code/code}}
\@writefile{nav}{\headcommand {\slideentry {0}{0}{7}{23/24}{}{0}}}
\@writefile{nav}{\headcommand {\beamer@framepages {23}{24}}}
\@writefile{lol}{\contentsline {lstlisting}{static/code/code}}
\@writefile{nav}{\headcommand {\slideentry {0}{0}{8}{25/26}{}{0}}}
\@writefile{nav}{\headcommand {\beamer@framepages {25}{26}}}
\@writefile{lol}{\contentsline {lstlisting}{static/code/code}}
\@writefile{lol}{\contentsline {lstlisting}{static/code/code}}
\@writefile{lol}{\contentsline {lstlisting}{static/code/code}}
\@writefile{nav}{\headcommand {\slideentry {0}{0}{9}{27/29}{}{0}}}
\@writefile{nav}{\headcommand {\beamer@framepages {27}{29}}}
\bibdata{talk}
\bibcite{1}{\hyperlink {beamerbib1}{Stallings, 2010}}
\bibstyle{apalike}
\@writefile{nav}{\headcommand {\slideentry {0}{0}{10}{30/30}{}{0}}}
\@writefile{nav}{\headcommand {\beamer@framepages {30}{30}}}
\@writefile{nav}{\headcommand {\slideentry {0}{0}{11}{31/31}{}{0}}}
\@writefile{nav}{\headcommand {\beamer@framepages {31}{31}}}
\@writefile{nav}{\headcommand {\beamer@partpages {1}{31}}}
\@writefile{nav}{\headcommand {\beamer@subsectionpages {1}{31}}}
\@writefile{nav}{\headcommand {\beamer@sectionpages {1}{31}}}
\@writefile{nav}{\headcommand {\beamer@documentpages {31}}}
\@writefile{nav}{\headcommand {\def \inserttotalframenumber {11}}}
