\beamer@endinputifotherversion {3.36pt}
\headcommand {\slideentry {0}{0}{1}{1/1}{}{0}}
\headcommand {\beamer@framepages {1}{1}}
\headcommand {\slideentry {0}{0}{2}{2/6}{}{0}}
\headcommand {\beamer@framepages {2}{6}}
\headcommand {\slideentry {0}{0}{3}{7/10}{}{0}}
\headcommand {\beamer@framepages {7}{10}}
\headcommand {\slideentry {0}{0}{4}{11/12}{}{0}}
\headcommand {\beamer@framepages {11}{12}}
\headcommand {\slideentry {0}{0}{5}{13/20}{}{0}}
\headcommand {\beamer@framepages {13}{20}}
\headcommand {\slideentry {0}{0}{6}{21/28}{}{0}}
\headcommand {\beamer@framepages {21}{28}}
\headcommand {\slideentry {0}{0}{7}{29/30}{}{0}}
\headcommand {\beamer@framepages {29}{30}}
\headcommand {\slideentry {0}{0}{8}{31/32}{}{0}}
\headcommand {\beamer@framepages {31}{32}}
\headcommand {\slideentry {0}{0}{9}{33/33}{}{0}}
\headcommand {\beamer@framepages {33}{33}}
\headcommand {\slideentry {0}{0}{10}{34/34}{}{0}}
\headcommand {\beamer@framepages {34}{34}}
\headcommand {\beamer@partpages {1}{34}}
\headcommand {\beamer@subsectionpages {1}{34}}
\headcommand {\beamer@sectionpages {1}{34}}
\headcommand {\beamer@documentpages {34}}
\headcommand {\def \inserttotalframenumber {10}}
