\relax 
\providecommand\hyper@newdestlabel[2]{}
\providecommand\HyperFirstAtBeginDocument{\AtBeginDocument}
\HyperFirstAtBeginDocument{\ifx\hyper@anchor\@undefined
\global\let\oldcontentsline\contentsline
\gdef\contentsline#1#2#3#4{\oldcontentsline{#1}{#2}{#3}}
\global\let\oldnewlabel\newlabel
\gdef\newlabel#1#2{\newlabelxx{#1}#2}
\gdef\newlabelxx#1#2#3#4#5#6{\oldnewlabel{#1}{{#2}{#3}}}
\AtEndDocument{\ifx\hyper@anchor\@undefined
\let\contentsline\oldcontentsline
\let\newlabel\oldnewlabel
\fi}
\fi}
\global\let\hyper@last\relax 
\gdef\HyperFirstAtBeginDocument#1{#1}
\providecommand\HyField@AuxAddToFields[1]{}
\providecommand\HyField@AuxAddToCoFields[2]{}
\catcode `"\active 
\select@language{brazilian}
\@writefile{toc}{\select@language{brazilian}}
\@writefile{lof}{\select@language{brazilian}}
\@writefile{lot}{\select@language{brazilian}}
\@writefile{nav}{\headcommand {\slideentry {0}{0}{1}{1/1}{}{0}}}
\@writefile{nav}{\headcommand {\beamer@framepages {1}{1}}}
\@writefile{nav}{\headcommand {\slideentry {0}{0}{2}{2/11}{}{0}}}
\@writefile{nav}{\headcommand {\beamer@framepages {2}{11}}}
\citation{1}
\@writefile{nav}{\headcommand {\slideentry {0}{0}{3}{12/13}{}{0}}}
\@writefile{nav}{\headcommand {\beamer@framepages {12}{13}}}
\citation{2}
\@writefile{nav}{\headcommand {\slideentry {0}{0}{4}{14/15}{}{0}}}
\@writefile{nav}{\headcommand {\beamer@framepages {14}{15}}}
\citation{3}
\citation{3}
\citation{3}
\@writefile{nav}{\headcommand {\slideentry {0}{0}{5}{16/18}{}{0}}}
\@writefile{nav}{\headcommand {\beamer@framepages {16}{18}}}
\citation{4}
\citation{4}
\citation{4}
\citation{4}
\citation{4}
\@writefile{nav}{\headcommand {\slideentry {0}{0}{6}{19/23}{}{0}}}
\@writefile{nav}{\headcommand {\beamer@framepages {19}{23}}}
\citation{5}
\@writefile{nav}{\headcommand {\slideentry {0}{0}{7}{24/25}{}{0}}}
\@writefile{nav}{\headcommand {\beamer@framepages {24}{25}}}
\@writefile{nav}{\headcommand {\slideentry {0}{0}{8}{26/31}{}{0}}}
\@writefile{nav}{\headcommand {\beamer@framepages {26}{31}}}
\@writefile{nav}{\headcommand {\slideentry {0}{0}{9}{32/37}{}{0}}}
\@writefile{nav}{\headcommand {\beamer@framepages {32}{37}}}
\@writefile{nav}{\headcommand {\slideentry {0}{0}{10}{38/48}{}{0}}}
\@writefile{nav}{\headcommand {\beamer@framepages {38}{48}}}
\@writefile{nav}{\headcommand {\slideentry {0}{0}{11}{49/54}{}{0}}}
\@writefile{nav}{\headcommand {\beamer@framepages {49}{54}}}
\@writefile{nav}{\headcommand {\slideentry {0}{0}{12}{55/59}{}{0}}}
\@writefile{nav}{\headcommand {\beamer@framepages {55}{59}}}
\@writefile{nav}{\headcommand {\slideentry {0}{0}{13}{60/64}{}{0}}}
\@writefile{nav}{\headcommand {\beamer@framepages {60}{64}}}
\bibdata{talk}
\bibcite{2}{\hyperlink {beamerbib2}{Dans, 2017}}
\bibcite{1}{\hyperlink {beamerbib1}{FSF, 2017}}
\bibcite{4}{\hyperlink {beamerbib4}{Garrett, 2017}}
\bibcite{3}{\hyperlink {beamerbib3}{Hemmerich, 2017}}
\bibcite{5}{\hyperlink {beamerbib5}{Srping, 2017}}
\bibstyle{apalike}
\@writefile{nav}{\headcommand {\slideentry {0}{0}{14}{65/65}{}{0}}}
\@writefile{nav}{\headcommand {\beamer@framepages {65}{65}}}
\@writefile{nav}{\headcommand {\slideentry {0}{0}{14}{65/66}{}{0}}}
\@writefile{nav}{\headcommand {\beamer@framepages {65}{66}}}
\@writefile{nav}{\headcommand {\slideentry {0}{0}{15}{67/67}{}{0}}}
\@writefile{nav}{\headcommand {\beamer@framepages {67}{67}}}
\@writefile{nav}{\headcommand {\beamer@partpages {1}{67}}}
\@writefile{nav}{\headcommand {\beamer@subsectionpages {1}{67}}}
\@writefile{nav}{\headcommand {\beamer@sectionpages {1}{67}}}
\@writefile{nav}{\headcommand {\beamer@documentpages {67}}}
\@writefile{nav}{\headcommand {\def \inserttotalframenumber {16}}}
