\relax 
\providecommand\hyper@newdestlabel[2]{}
\providecommand\HyperFirstAtBeginDocument{\AtBeginDocument}
\HyperFirstAtBeginDocument{\ifx\hyper@anchor\@undefined
\global\let\oldcontentsline\contentsline
\gdef\contentsline#1#2#3#4{\oldcontentsline{#1}{#2}{#3}}
\global\let\oldnewlabel\newlabel
\gdef\newlabel#1#2{\newlabelxx{#1}#2}
\gdef\newlabelxx#1#2#3#4#5#6{\oldnewlabel{#1}{{#2}{#3}}}
\AtEndDocument{\ifx\hyper@anchor\@undefined
\let\contentsline\oldcontentsline
\let\newlabel\oldnewlabel
\fi}
\fi}
\global\let\hyper@last\relax 
\gdef\HyperFirstAtBeginDocument#1{#1}
\providecommand\HyField@AuxAddToFields[1]{}
\providecommand\HyField@AuxAddToCoFields[2]{}
\catcode `"\active 
\@writefile{toc}{\beamer@endinputifotherversion {3.36pt}}
\@writefile{nav}{\beamer@endinputifotherversion {3.36pt}}
\select@language{brazilian}
\@writefile{toc}{\select@language{brazilian}}
\@writefile{lof}{\select@language{brazilian}}
\@writefile{lot}{\select@language{brazilian}}
\@writefile{nav}{\headcommand {\slideentry {0}{0}{1}{1/1}{}{0}}}
\@writefile{nav}{\headcommand {\beamer@framepages {1}{1}}}
\citation{1}
\citation{1}
\citation{1}
\citation{1}
\@writefile{nav}{\headcommand {\slideentry {0}{0}{2}{2/5}{}{0}}}
\@writefile{nav}{\headcommand {\beamer@framepages {2}{5}}}
\citation{3}
\citation{3}
\@writefile{nav}{\headcommand {\slideentry {0}{0}{3}{6/7}{}{0}}}
\@writefile{nav}{\headcommand {\beamer@framepages {6}{7}}}
\citation{4}
\citation{4}
\citation{4}
\citation{4}
\citation{4}
\citation{4}
\citation{4}
\citation{4}
\citation{4}
\citation{4}
\@writefile{nav}{\headcommand {\slideentry {0}{0}{4}{8/17}{}{0}}}
\@writefile{nav}{\headcommand {\beamer@framepages {8}{17}}}
\citation{5}
\citation{5}
\citation{5}
\citation{5}
\citation{5}
\@writefile{nav}{\headcommand {\slideentry {0}{0}{5}{18/22}{}{0}}}
\@writefile{nav}{\headcommand {\beamer@framepages {18}{22}}}
\citation{2}
\citation{2}
\citation{2}
\citation{2}
\citation{2}
\@writefile{nav}{\headcommand {\slideentry {0}{0}{6}{23/27}{}{0}}}
\@writefile{nav}{\headcommand {\beamer@framepages {23}{27}}}
\@writefile{nav}{\headcommand {\slideentry {0}{0}{7}{28/34}{}{0}}}
\@writefile{nav}{\headcommand {\beamer@framepages {28}{34}}}
\citation{1}
\citation{1}
\citation{1}
\citation{1}
\citation{1}
\citation{1}
\@writefile{nav}{\headcommand {\slideentry {0}{0}{8}{35/40}{}{0}}}
\@writefile{nav}{\headcommand {\beamer@framepages {35}{40}}}
\@writefile{nav}{\headcommand {\slideentry {0}{0}{9}{41/42}{}{0}}}
\@writefile{nav}{\headcommand {\beamer@framepages {41}{42}}}
\@writefile{nav}{\headcommand {\slideentry {0}{0}{10}{43/44}{}{0}}}
\@writefile{nav}{\headcommand {\beamer@framepages {43}{44}}}
\@writefile{nav}{\headcommand {\slideentry {0}{0}{11}{45/46}{}{0}}}
\@writefile{nav}{\headcommand {\beamer@framepages {45}{46}}}
\@writefile{nav}{\headcommand {\slideentry {0}{0}{12}{47/48}{}{0}}}
\@writefile{nav}{\headcommand {\beamer@framepages {47}{48}}}
\@writefile{nav}{\headcommand {\slideentry {0}{0}{13}{49/50}{}{0}}}
\@writefile{nav}{\headcommand {\beamer@framepages {49}{50}}}
\@writefile{nav}{\headcommand {\slideentry {0}{0}{14}{51/53}{}{0}}}
\@writefile{nav}{\headcommand {\beamer@framepages {51}{53}}}
\bibdata{talk}
\bibcite{2}{\hyperlink {beamerbib2}{Bittencourt, 2014}}
\bibcite{1}{\hyperlink {beamerbib1}{George, 2014}}
\bibcite{4}{\hyperlink {beamerbib4}{Resende, 2015}}
\bibcite{5}{\hyperlink {beamerbib5}{Rich, 2016}}
\bibcite{3}{\hyperlink {beamerbib3}{Russel and Norvig, 2015}}
\bibstyle{apalike}
\@writefile{nav}{\headcommand {\slideentry {0}{0}{15}{54/54}{}{0}}}
\@writefile{nav}{\headcommand {\beamer@framepages {54}{54}}}
\@writefile{nav}{\headcommand {\slideentry {0}{0}{16}{55/55}{}{0}}}
\@writefile{nav}{\headcommand {\beamer@framepages {55}{55}}}
\@writefile{nav}{\headcommand {\beamer@partpages {1}{55}}}
\@writefile{nav}{\headcommand {\beamer@subsectionpages {1}{55}}}
\@writefile{nav}{\headcommand {\beamer@sectionpages {1}{55}}}
\@writefile{nav}{\headcommand {\beamer@documentpages {55}}}
\@writefile{nav}{\headcommand {\def \inserttotalframenumber {16}}}
