\relax 
\providecommand\hyper@newdestlabel[2]{}
\providecommand\HyperFirstAtBeginDocument{\AtBeginDocument}
\HyperFirstAtBeginDocument{\ifx\hyper@anchor\@undefined
\global\let\oldcontentsline\contentsline
\gdef\contentsline#1#2#3#4{\oldcontentsline{#1}{#2}{#3}}
\global\let\oldnewlabel\newlabel
\gdef\newlabel#1#2{\newlabelxx{#1}#2}
\gdef\newlabelxx#1#2#3#4#5#6{\oldnewlabel{#1}{{#2}{#3}}}
\AtEndDocument{\ifx\hyper@anchor\@undefined
\let\contentsline\oldcontentsline
\let\newlabel\oldnewlabel
\fi}
\fi}
\global\let\hyper@last\relax 
\gdef\HyperFirstAtBeginDocument#1{#1}
\providecommand\HyField@AuxAddToFields[1]{}
\providecommand\HyField@AuxAddToCoFields[2]{}
\catcode `"\active 
\@writefile{toc}{\beamer@endinputifotherversion {3.36pt}}
\@writefile{nav}{\beamer@endinputifotherversion {3.36pt}}
\select@language{brazilian}
\@writefile{toc}{\select@language{brazilian}}
\@writefile{lof}{\select@language{brazilian}}
\@writefile{lot}{\select@language{brazilian}}
\@writefile{nav}{\headcommand {\slideentry {0}{0}{1}{1/1}{}{0}}}
\@writefile{nav}{\headcommand {\beamer@framepages {1}{1}}}
\@writefile{nav}{\headcommand {\slideentry {0}{0}{2}{2/5}{}{0}}}
\@writefile{nav}{\headcommand {\beamer@framepages {2}{5}}}
\@writefile{nav}{\headcommand {\slideentry {0}{0}{3}{6/8}{}{0}}}
\@writefile{nav}{\headcommand {\beamer@framepages {6}{8}}}
\@writefile{nav}{\headcommand {\slideentry {0}{0}{4}{9/12}{}{0}}}
\@writefile{nav}{\headcommand {\beamer@framepages {9}{12}}}
\@writefile{nav}{\headcommand {\slideentry {0}{0}{5}{13/16}{}{0}}}
\@writefile{nav}{\headcommand {\beamer@framepages {13}{16}}}
\@writefile{nav}{\headcommand {\slideentry {0}{0}{6}{17/19}{}{0}}}
\@writefile{nav}{\headcommand {\beamer@framepages {17}{19}}}
\@writefile{nav}{\headcommand {\slideentry {0}{0}{7}{20/22}{}{0}}}
\@writefile{nav}{\headcommand {\beamer@framepages {20}{22}}}
\@writefile{nav}{\headcommand {\slideentry {0}{0}{8}{23/25}{}{0}}}
\@writefile{nav}{\headcommand {\beamer@framepages {23}{25}}}
\@writefile{nav}{\headcommand {\slideentry {0}{0}{9}{26/28}{}{0}}}
\@writefile{nav}{\headcommand {\beamer@framepages {26}{28}}}
\@writefile{nav}{\headcommand {\slideentry {0}{0}{10}{29/31}{}{0}}}
\@writefile{nav}{\headcommand {\beamer@framepages {29}{31}}}
\@writefile{nav}{\headcommand {\slideentry {0}{0}{11}{32/36}{}{0}}}
\@writefile{nav}{\headcommand {\beamer@framepages {32}{36}}}
\@writefile{nav}{\headcommand {\slideentry {0}{0}{12}{37/38}{}{0}}}
\@writefile{nav}{\headcommand {\beamer@framepages {37}{38}}}
\bibdata{talk}
\bibcite{1}{\hyperlink {beamerbib1}{Lipschutz and Lpson, 2013}}
\bibstyle{apalike}
\@writefile{nav}{\headcommand {\slideentry {0}{0}{13}{39/39}{}{0}}}
\@writefile{nav}{\headcommand {\beamer@framepages {39}{39}}}
\@writefile{nav}{\headcommand {\slideentry {0}{0}{14}{40/40}{}{0}}}
\@writefile{nav}{\headcommand {\beamer@framepages {40}{40}}}
\@writefile{nav}{\headcommand {\beamer@partpages {1}{40}}}
\@writefile{nav}{\headcommand {\beamer@subsectionpages {1}{40}}}
\@writefile{nav}{\headcommand {\beamer@sectionpages {1}{40}}}
\@writefile{nav}{\headcommand {\beamer@documentpages {40}}}
\@writefile{nav}{\headcommand {\def \inserttotalframenumber {14}}}
