\relax 
\providecommand\hyper@newdestlabel[2]{}
\providecommand\HyperFirstAtBeginDocument{\AtBeginDocument}
\HyperFirstAtBeginDocument{\ifx\hyper@anchor\@undefined
\global\let\oldcontentsline\contentsline
\gdef\contentsline#1#2#3#4{\oldcontentsline{#1}{#2}{#3}}
\global\let\oldnewlabel\newlabel
\gdef\newlabel#1#2{\newlabelxx{#1}#2}
\gdef\newlabelxx#1#2#3#4#5#6{\oldnewlabel{#1}{{#2}{#3}}}
\AtEndDocument{\ifx\hyper@anchor\@undefined
\let\contentsline\oldcontentsline
\let\newlabel\oldnewlabel
\fi}
\fi}
\global\let\hyper@last\relax 
\gdef\HyperFirstAtBeginDocument#1{#1}
\providecommand\HyField@AuxAddToFields[1]{}
\providecommand\HyField@AuxAddToCoFields[2]{}
\@writefile{toc}{\beamer@endinputifotherversion {3.33pt}}
\@writefile{nav}{\beamer@endinputifotherversion {3.33pt}}
\@writefile{nav}{\headcommand {\slideentry {0}{0}{1}{1/1}{}{0}}}
\@writefile{nav}{\headcommand {\beamer@framepages {1}{1}}}
\@writefile{nav}{\headcommand {\slideentry {0}{0}{2}{2/2}{}{0}}}
\@writefile{nav}{\headcommand {\beamer@framepages {2}{2}}}
\@writefile{toc}{\beamer@sectionintoc {1}{About}{3}{0}{1}}
\@writefile{nav}{\headcommand {\sectionentry {1}{About}{3}{About}{0}}}
\@writefile{nav}{\headcommand {\beamer@sectionpages {1}{2}}}
\@writefile{nav}{\headcommand {\beamer@subsectionpages {1}{2}}}
\@writefile{nav}{\headcommand {\slideentry {1}{0}{3}{3/3}{}{0}}}
\@writefile{nav}{\headcommand {\beamer@framepages {3}{3}}}
\@writefile{toc}{\beamer@sectionintoc {2}{Context}{4}{0}{2}}
\@writefile{nav}{\headcommand {\sectionentry {2}{Context}{4}{Context}{0}}}
\@writefile{nav}{\headcommand {\beamer@sectionpages {3}{3}}}
\@writefile{nav}{\headcommand {\beamer@subsectionpages {3}{3}}}
\@writefile{nav}{\headcommand {\slideentry {2}{0}{4}{4/4}{}{0}}}
\@writefile{nav}{\headcommand {\beamer@framepages {4}{4}}}
\@writefile{toc}{\beamer@sectionintoc {3}{Problems}{5}{0}{3}}
\@writefile{nav}{\headcommand {\sectionentry {3}{Problems}{5}{Problems}{0}}}
\@writefile{nav}{\headcommand {\beamer@sectionpages {4}{4}}}
\@writefile{nav}{\headcommand {\beamer@subsectionpages {4}{4}}}
\@writefile{nav}{\headcommand {\slideentry {3}{0}{5}{5/16}{}{0}}}
\@writefile{nav}{\headcommand {\beamer@framepages {5}{16}}}
\citation{1}
\@writefile{toc}{\beamer@sectionintoc {4}{Lightom}{17}{0}{4}}
\@writefile{nav}{\headcommand {\sectionentry {4}{Lightom}{17}{Lightom}{0}}}
\@writefile{nav}{\headcommand {\beamer@sectionpages {5}{16}}}
\@writefile{nav}{\headcommand {\beamer@subsectionpages {5}{16}}}
\@writefile{toc}{\beamer@subsectionintoc {4}{1}{Light On Management}{17}{0}{4}}
\@writefile{nav}{\headcommand {\beamer@subsectionentry {0}{4}{1}{17}{Light On Management}}\headcommand {\beamer@subsectionpages {17}{16}}}
\@writefile{nav}{\headcommand {\slideentry {4}{1}{1}{17/17}{Light On Management}{0}}}
\@writefile{nav}{\headcommand {\beamer@framepages {17}{17}}}
\citation{1}
\@writefile{toc}{\beamer@subsectionintoc {4}{2}{Arduino}{18}{0}{4}}
\@writefile{nav}{\headcommand {\beamer@subsectionentry {0}{4}{2}{18}{Arduino}}\headcommand {\beamer@subsectionpages {17}{17}}}
\@writefile{nav}{\headcommand {\slideentry {4}{2}{1}{18/18}{Arduino}{0}}}
\@writefile{nav}{\headcommand {\beamer@framepages {18}{18}}}
\citation{1}
\@writefile{toc}{\beamer@subsectionintoc {4}{3}{Layout}{19}{0}{4}}
\@writefile{nav}{\headcommand {\beamer@subsectionentry {0}{4}{3}{19}{Layout}}\headcommand {\beamer@subsectionpages {18}{18}}}
\@writefile{nav}{\headcommand {\slideentry {4}{3}{1}{19/19}{Layout}{0}}}
\@writefile{nav}{\headcommand {\beamer@framepages {19}{19}}}
\citation{1}
\@writefile{toc}{\beamer@subsectionintoc {4}{4}{Application}{20}{0}{4}}
\@writefile{nav}{\headcommand {\beamer@subsectionentry {0}{4}{4}{20}{Application}}\headcommand {\beamer@subsectionpages {19}{19}}}
\@writefile{nav}{\headcommand {\slideentry {4}{4}{1}{20/20}{Application}{0}}}
\@writefile{nav}{\headcommand {\beamer@framepages {20}{20}}}
\citation{1}
\@writefile{toc}{\beamer@subsectionintoc {4}{5}{Network}{21}{0}{4}}
\@writefile{nav}{\headcommand {\beamer@subsectionentry {0}{4}{5}{21}{Network}}\headcommand {\beamer@subsectionpages {20}{20}}}
\@writefile{nav}{\headcommand {\slideentry {4}{5}{1}{21/21}{Network}{0}}}
\@writefile{nav}{\headcommand {\beamer@framepages {21}{21}}}
\@writefile{toc}{\beamer@subsectionintoc {4}{6}{Resume}{22}{0}{4}}
\@writefile{nav}{\headcommand {\beamer@subsectionentry {0}{4}{6}{22}{Resume}}\headcommand {\beamer@subsectionpages {21}{21}}}
\@writefile{nav}{\headcommand {\slideentry {4}{6}{1}{22/28}{Resume}{0}}}
\@writefile{nav}{\headcommand {\beamer@framepages {22}{28}}}
\@writefile{toc}{\beamer@subsectionintoc {4}{7}{Prototype}{29}{0}{4}}
\@writefile{nav}{\headcommand {\beamer@subsectionentry {0}{4}{7}{29}{Prototype}}\headcommand {\beamer@subsectionpages {22}{28}}}
\@writefile{nav}{\headcommand {\slideentry {4}{7}{1}{29/31}{Prototype}{0}}}
\@writefile{nav}{\headcommand {\beamer@framepages {29}{31}}}
\@writefile{toc}{\beamer@sectionintoc {5}{Future Works}{32}{0}{5}}
\@writefile{nav}{\headcommand {\sectionentry {5}{Future Works}{32}{Future Works}{0}}}
\@writefile{nav}{\headcommand {\beamer@sectionpages {17}{31}}}
\@writefile{nav}{\headcommand {\beamer@subsectionpages {29}{31}}}
\@writefile{nav}{\headcommand {\slideentry {5}{0}{2}{32/35}{}{0}}}
\@writefile{nav}{\headcommand {\beamer@framepages {32}{35}}}
\bibcite{1}{\hyperlink {beamerbib1}{1}}
\bibcite{2}{\hyperlink {beamerbib2}{2}}
\@writefile{toc}{\beamer@sectionintoc {6}{References}{36}{0}{6}}
\@writefile{nav}{\headcommand {\sectionentry {6}{References}{36}{References}{0}}}
\@writefile{nav}{\headcommand {\beamer@sectionpages {32}{35}}}
\@writefile{nav}{\headcommand {\beamer@subsectionpages {32}{35}}}
\@writefile{nav}{\headcommand {\slideentry {6}{0}{3}{36/36}{}{0}}}
\@writefile{nav}{\headcommand {\beamer@framepages {36}{36}}}
\@writefile{nav}{\headcommand {\slideentry {6}{0}{4}{37/37}{}{0}}}
\@writefile{nav}{\headcommand {\beamer@framepages {37}{37}}}
\@writefile{nav}{\headcommand {\beamer@partpages {1}{37}}}
\@writefile{nav}{\headcommand {\beamer@subsectionpages {36}{37}}}
\@writefile{nav}{\headcommand {\beamer@sectionpages {36}{37}}}
\@writefile{nav}{\headcommand {\beamer@documentpages {37}}}
\@writefile{nav}{\headcommand {\def \inserttotalframenumber {15}}}
