\relax 
\providecommand\hyper@newdestlabel[2]{}
\providecommand\HyperFirstAtBeginDocument{\AtBeginDocument}
\HyperFirstAtBeginDocument{\ifx\hyper@anchor\@undefined
\global\let\oldcontentsline\contentsline
\gdef\contentsline#1#2#3#4{\oldcontentsline{#1}{#2}{#3}}
\global\let\oldnewlabel\newlabel
\gdef\newlabel#1#2{\newlabelxx{#1}#2}
\gdef\newlabelxx#1#2#3#4#5#6{\oldnewlabel{#1}{{#2}{#3}}}
\AtEndDocument{\ifx\hyper@anchor\@undefined
\let\contentsline\oldcontentsline
\let\newlabel\oldnewlabel
\fi}
\fi}
\global\let\hyper@last\relax 
\gdef\HyperFirstAtBeginDocument#1{#1}
\providecommand\HyField@AuxAddToFields[1]{}
\providecommand\HyField@AuxAddToCoFields[2]{}
\catcode `"\active 
\@writefile{toc}{\beamer@endinputifotherversion {3.36pt}}
\@writefile{nav}{\beamer@endinputifotherversion {3.36pt}}
\select@language{brazilian}
\@writefile{toc}{\select@language{brazilian}}
\@writefile{lof}{\select@language{brazilian}}
\@writefile{lot}{\select@language{brazilian}}
\@writefile{nav}{\headcommand {\slideentry {0}{0}{1}{1/1}{}{0}}}
\@writefile{nav}{\headcommand {\beamer@framepages {1}{1}}}
\@writefile{nav}{\headcommand {\slideentry {0}{0}{2}{2/5}{}{0}}}
\@writefile{nav}{\headcommand {\beamer@framepages {2}{5}}}
\@writefile{nav}{\headcommand {\slideentry {0}{0}{3}{6/8}{}{0}}}
\@writefile{nav}{\headcommand {\beamer@framepages {6}{8}}}
\@writefile{nav}{\headcommand {\slideentry {0}{0}{4}{9/11}{}{0}}}
\@writefile{nav}{\headcommand {\beamer@framepages {9}{11}}}
\@writefile{nav}{\headcommand {\slideentry {0}{0}{5}{12/14}{}{0}}}
\@writefile{nav}{\headcommand {\beamer@framepages {12}{14}}}
\@writefile{nav}{\headcommand {\slideentry {0}{0}{6}{15/18}{}{0}}}
\@writefile{nav}{\headcommand {\beamer@framepages {15}{18}}}
\@writefile{nav}{\headcommand {\slideentry {0}{0}{7}{19/28}{}{0}}}
\@writefile{nav}{\headcommand {\beamer@framepages {19}{28}}}
\@writefile{nav}{\headcommand {\slideentry {0}{0}{8}{29/38}{}{0}}}
\@writefile{nav}{\headcommand {\beamer@framepages {29}{38}}}
\@writefile{nav}{\headcommand {\slideentry {0}{0}{9}{39/41}{}{0}}}
\@writefile{nav}{\headcommand {\beamer@framepages {39}{41}}}
\@writefile{nav}{\headcommand {\slideentry {0}{0}{10}{42/45}{}{0}}}
\@writefile{nav}{\headcommand {\beamer@framepages {42}{45}}}
\@writefile{nav}{\headcommand {\slideentry {0}{0}{11}{46/49}{}{0}}}
\@writefile{nav}{\headcommand {\beamer@framepages {46}{49}}}
\@writefile{nav}{\headcommand {\slideentry {0}{0}{12}{50/53}{}{0}}}
\@writefile{nav}{\headcommand {\beamer@framepages {50}{53}}}
\@writefile{nav}{\headcommand {\slideentry {0}{0}{13}{54/58}{}{0}}}
\@writefile{nav}{\headcommand {\beamer@framepages {54}{58}}}
\@writefile{lol}{\contentsline {lstlisting}{static/code/code}}
\@writefile{lol}{\contentsline {lstlisting}{static/code/code}}
\@writefile{lol}{\contentsline {lstlisting}{static/code/code}}
\@writefile{nav}{\headcommand {\slideentry {0}{0}{14}{59/61}{}{0}}}
\@writefile{nav}{\headcommand {\beamer@framepages {59}{61}}}
\bibdata{talk}
\bibcite{1}{\hyperlink {beamerbib1}{Lipschutz and Lpson, 2013}}
\bibstyle{apalike}
\@writefile{nav}{\headcommand {\slideentry {0}{0}{15}{62/62}{}{0}}}
\@writefile{nav}{\headcommand {\beamer@framepages {62}{62}}}
\@writefile{nav}{\headcommand {\slideentry {0}{0}{16}{63/63}{}{0}}}
\@writefile{nav}{\headcommand {\beamer@framepages {63}{63}}}
\@writefile{nav}{\headcommand {\beamer@partpages {1}{63}}}
\@writefile{nav}{\headcommand {\beamer@subsectionpages {1}{63}}}
\@writefile{nav}{\headcommand {\beamer@sectionpages {1}{63}}}
\@writefile{nav}{\headcommand {\beamer@documentpages {63}}}
\@writefile{nav}{\headcommand {\def \inserttotalframenumber {16}}}
