\beamer@endinputifotherversion {3.36pt}
\select@language {brazilian}
\beamer@sectionintoc {1}{Copyleft}{3}{0}{1}
\beamer@subsectionintoc {1}{1}{Copyleft}{3}{0}{1}
\beamer@subsectionintoc {1}{2}{Hist\IeC {\'o}ria}{5}{0}{1}
\beamer@subsectionintoc {1}{3}{Uso}{7}{0}{1}
\beamer@subsectionintoc {1}{4}{Licen\IeC {\c c}as}{12}{0}{1}
\beamer@sectionintoc {2}{Fim}{16}{0}{2}
\beamer@subsectionintoc {2}{1}{Refer\IeC {\^e}ncias}{16}{0}{2}
\beamer@subsectionintoc {2}{2}{Obrigado}{17}{0}{2}
