\relax 
\providecommand\hyper@newdestlabel[2]{}
\providecommand\HyperFirstAtBeginDocument{\AtBeginDocument}
\HyperFirstAtBeginDocument{\ifx\hyper@anchor\@undefined
\global\let\oldcontentsline\contentsline
\gdef\contentsline#1#2#3#4{\oldcontentsline{#1}{#2}{#3}}
\global\let\oldnewlabel\newlabel
\gdef\newlabel#1#2{\newlabelxx{#1}#2}
\gdef\newlabelxx#1#2#3#4#5#6{\oldnewlabel{#1}{{#2}{#3}}}
\AtEndDocument{\ifx\hyper@anchor\@undefined
\let\contentsline\oldcontentsline
\let\newlabel\oldnewlabel
\fi}
\fi}
\global\let\hyper@last\relax 
\gdef\HyperFirstAtBeginDocument#1{#1}
\providecommand\HyField@AuxAddToFields[1]{}
\providecommand\HyField@AuxAddToCoFields[2]{}
\catcode `"\active 
\@writefile{toc}{\beamer@endinputifotherversion {3.36pt}}
\@writefile{nav}{\beamer@endinputifotherversion {3.36pt}}
\select@language{brazilian}
\@writefile{toc}{\select@language{brazilian}}
\@writefile{lof}{\select@language{brazilian}}
\@writefile{lot}{\select@language{brazilian}}
\@writefile{nav}{\headcommand {\slideentry {0}{0}{1}{1/1}{}{0}}}
\@writefile{nav}{\headcommand {\beamer@framepages {1}{1}}}
\@writefile{nav}{\headcommand {\slideentry {0}{0}{2}{2/2}{}{0}}}
\@writefile{nav}{\headcommand {\beamer@framepages {2}{2}}}
\@writefile{toc}{\beamer@sectionintoc {1}{Copyleft}{3}{0}{1}}
\@writefile{nav}{\headcommand {\sectionentry {1}{Copyleft}{3}{Copyleft}{0}}}
\@writefile{nav}{\headcommand {\beamer@sectionpages {1}{2}}}
\@writefile{nav}{\headcommand {\beamer@subsectionpages {1}{2}}}
\@writefile{toc}{\beamer@subsectionintoc {1}{1}{Copyleft}{3}{0}{1}}
\@writefile{nav}{\headcommand {\beamer@subsectionentry {0}{1}{1}{3}{Copyleft}}\headcommand {\beamer@subsectionpages {3}{2}}}
\citation{1}
\@writefile{nav}{\headcommand {\slideentry {1}{1}{1}{3/4}{Copyleft}{0}}}
\@writefile{nav}{\headcommand {\beamer@framepages {3}{4}}}
\citation{2}
\@writefile{toc}{\beamer@subsectionintoc {1}{2}{Hist\IeC {\'o}ria}{5}{0}{1}}
\@writefile{nav}{\headcommand {\beamer@subsectionentry {0}{1}{2}{5}{Hist\IeC {\'o}ria}}\headcommand {\beamer@subsectionpages {3}{4}}}
\citation{2}
\@writefile{nav}{\headcommand {\slideentry {1}{2}{1}{5/6}{Hist\IeC {\'o}ria}{0}}}
\@writefile{nav}{\headcommand {\beamer@framepages {5}{6}}}
\@writefile{toc}{\beamer@subsectionintoc {1}{3}{Uso}{7}{0}{1}}
\@writefile{nav}{\headcommand {\beamer@subsectionentry {0}{1}{3}{7}{Uso}}\headcommand {\beamer@subsectionpages {5}{6}}}
\@writefile{nav}{\headcommand {\slideentry {1}{3}{1}{7/11}{Uso}{0}}}
\@writefile{nav}{\headcommand {\beamer@framepages {7}{11}}}
\@writefile{toc}{\beamer@subsectionintoc {1}{4}{Licen\IeC {\c c}as}{12}{0}{1}}
\@writefile{nav}{\headcommand {\beamer@subsectionentry {0}{1}{4}{12}{Licen\IeC {\c c}as}}\headcommand {\beamer@subsectionpages {7}{11}}}
\@writefile{nav}{\headcommand {\slideentry {1}{4}{1}{12/15}{Licen\IeC {\c c}as}{0}}}
\@writefile{nav}{\headcommand {\beamer@framepages {12}{15}}}
\bibcite{1}{\hyperlink {beamerbib1}{1}}
\bibcite{2}{\hyperlink {beamerbib2}{2}}
\@writefile{toc}{\beamer@sectionintoc {2}{Fim}{16}{0}{2}}
\@writefile{nav}{\headcommand {\sectionentry {2}{Fim}{16}{Fim}{0}}}
\@writefile{nav}{\headcommand {\beamer@sectionpages {3}{15}}}
\@writefile{nav}{\headcommand {\beamer@subsectionpages {12}{15}}}
\@writefile{toc}{\beamer@subsectionintoc {2}{1}{Refer\IeC {\^e}ncias}{16}{0}{2}}
\@writefile{nav}{\headcommand {\beamer@subsectionentry {0}{2}{1}{16}{Refer\IeC {\^e}ncias}}\headcommand {\beamer@subsectionpages {16}{15}}}
\@writefile{nav}{\headcommand {\slideentry {2}{1}{1}{16/16}{Refer\IeC {\^e}ncias}{0}}}
\@writefile{nav}{\headcommand {\beamer@framepages {16}{16}}}
\@writefile{toc}{\beamer@subsectionintoc {2}{2}{Obrigado}{17}{0}{2}}
\@writefile{nav}{\headcommand {\beamer@subsectionentry {0}{2}{2}{17}{Obrigado}}\headcommand {\beamer@subsectionpages {16}{16}}}
\@writefile{nav}{\headcommand {\slideentry {2}{2}{1}{17/17}{Obrigado}{0}}}
\@writefile{nav}{\headcommand {\beamer@framepages {17}{17}}}
\@writefile{nav}{\headcommand {\beamer@partpages {1}{17}}}
\@writefile{nav}{\headcommand {\beamer@subsectionpages {17}{17}}}
\@writefile{nav}{\headcommand {\beamer@sectionpages {16}{17}}}
\@writefile{nav}{\headcommand {\beamer@documentpages {17}}}
\@writefile{nav}{\headcommand {\def \inserttotalframenumber {8}}}
