\relax 
\providecommand\hyper@newdestlabel[2]{}
\providecommand\HyperFirstAtBeginDocument{\AtBeginDocument}
\HyperFirstAtBeginDocument{\ifx\hyper@anchor\@undefined
\global\let\oldcontentsline\contentsline
\gdef\contentsline#1#2#3#4{\oldcontentsline{#1}{#2}{#3}}
\global\let\oldnewlabel\newlabel
\gdef\newlabel#1#2{\newlabelxx{#1}#2}
\gdef\newlabelxx#1#2#3#4#5#6{\oldnewlabel{#1}{{#2}{#3}}}
\AtEndDocument{\ifx\hyper@anchor\@undefined
\let\contentsline\oldcontentsline
\let\newlabel\oldnewlabel
\fi}
\fi}
\global\let\hyper@last\relax 
\gdef\HyperFirstAtBeginDocument#1{#1}
\providecommand\HyField@AuxAddToFields[1]{}
\providecommand\HyField@AuxAddToCoFields[2]{}
\@writefile{toc}{\beamer@endinputifotherversion {3.36pt}}
\@writefile{nav}{\beamer@endinputifotherversion {3.36pt}}
\@writefile{nav}{\headcommand {\slideentry {0}{0}{1}{1/1}{}{0}}}
\@writefile{nav}{\headcommand {\beamer@framepages {1}{1}}}
\@writefile{nav}{\headcommand {\slideentry {0}{0}{2}{2/11}{}{0}}}
\@writefile{nav}{\headcommand {\beamer@framepages {2}{11}}}
\citation{1}
\citation{1}
\citation{1}
\@writefile{nav}{\headcommand {\slideentry {0}{0}{3}{12/14}{}{0}}}
\@writefile{nav}{\headcommand {\beamer@framepages {12}{14}}}
\@writefile{nav}{\headcommand {\slideentry {0}{0}{4}{15/19}{}{0}}}
\@writefile{nav}{\headcommand {\beamer@framepages {15}{19}}}
\@writefile{nav}{\headcommand {\slideentry {0}{0}{5}{20/22}{}{0}}}
\@writefile{nav}{\headcommand {\beamer@framepages {20}{22}}}
\bibdata{talk}
\bibcite{1}{\hyperlink {beamerbib1}{Rowe, 2017}}
\bibstyle{apalike}
\@writefile{nav}{\headcommand {\slideentry {0}{0}{6}{23/23}{}{0}}}
\@writefile{nav}{\headcommand {\beamer@framepages {23}{23}}}
\@writefile{nav}{\headcommand {\slideentry {0}{0}{7}{25/25}{}{0}}}
\@writefile{nav}{\headcommand {\beamer@framepages {25}{25}}}
\@writefile{nav}{\headcommand {\beamer@partpages {1}{25}}}
\@writefile{nav}{\headcommand {\beamer@subsectionpages {1}{25}}}
\@writefile{nav}{\headcommand {\beamer@sectionpages {1}{25}}}
\@writefile{nav}{\headcommand {\beamer@documentpages {25}}}
\@writefile{nav}{\headcommand {\def \inserttotalframenumber {7}}}
