\relax 
\providecommand\hyper@newdestlabel[2]{}
\providecommand\HyperFirstAtBeginDocument{\AtBeginDocument}
\HyperFirstAtBeginDocument{\ifx\hyper@anchor\@undefined
\global\let\oldcontentsline\contentsline
\gdef\contentsline#1#2#3#4{\oldcontentsline{#1}{#2}{#3}}
\global\let\oldnewlabel\newlabel
\gdef\newlabel#1#2{\newlabelxx{#1}#2}
\gdef\newlabelxx#1#2#3#4#5#6{\oldnewlabel{#1}{{#2}{#3}}}
\AtEndDocument{\ifx\hyper@anchor\@undefined
\let\contentsline\oldcontentsline
\let\newlabel\oldnewlabel
\fi}
\fi}
\global\let\hyper@last\relax 
\gdef\HyperFirstAtBeginDocument#1{#1}
\providecommand\HyField@AuxAddToFields[1]{}
\providecommand\HyField@AuxAddToCoFields[2]{}
\catcode `"\active 
\@writefile{toc}{\beamer@endinputifotherversion {3.36pt}}
\@writefile{nav}{\beamer@endinputifotherversion {3.36pt}}
\select@language{brazilian}
\@writefile{toc}{\select@language{brazilian}}
\@writefile{lof}{\select@language{brazilian}}
\@writefile{lot}{\select@language{brazilian}}
\@writefile{nav}{\headcommand {\slideentry {0}{0}{1}{1/1}{}{0}}}
\@writefile{nav}{\headcommand {\beamer@framepages {1}{1}}}
\@writefile{nav}{\headcommand {\slideentry {0}{0}{2}{2/2}{}{0}}}
\@writefile{nav}{\headcommand {\beamer@framepages {2}{2}}}
\@writefile{nav}{\headcommand {\slideentry {0}{0}{2}{2/3}{}{0}}}
\@writefile{nav}{\headcommand {\beamer@framepages {2}{3}}}
\@writefile{toc}{\beamer@sectionintoc {1}{Introdu\IeC {\c c}\IeC {\~a}o}{4}{0}{1}}
\@writefile{nav}{\headcommand {\sectionentry {1}{Introdu\IeC {\c c}\IeC {\~a}o}{4}{Introdu\IeC {\c c}\IeC {\~a}o}{0}}}
\@writefile{nav}{\headcommand {\beamer@sectionpages {1}{3}}}
\@writefile{nav}{\headcommand {\beamer@subsectionpages {1}{3}}}
\@writefile{toc}{\beamer@subsectionintoc {1}{1}{Bitcoin}{4}{0}{1}}
\@writefile{nav}{\headcommand {\beamer@subsectionentry {0}{1}{1}{4}{Bitcoin}}\headcommand {\beamer@subsectionpages {4}{3}}}
\citation{1}
\@writefile{nav}{\headcommand {\slideentry {1}{1}{1}{4/5}{Bitcoin}{0}}}
\@writefile{nav}{\headcommand {\beamer@framepages {4}{5}}}
\@writefile{toc}{\beamer@subsectionintoc {1}{2}{Ecosistema}{6}{0}{1}}
\@writefile{nav}{\headcommand {\beamer@subsectionentry {0}{1}{2}{6}{Ecosistema}}\headcommand {\beamer@subsectionpages {4}{5}}}
\citation{2}
\@writefile{nav}{\headcommand {\slideentry {1}{2}{1}{6/7}{Ecosistema}{0}}}
\@writefile{nav}{\headcommand {\beamer@framepages {6}{7}}}
\@writefile{toc}{\beamer@subsectionintoc {1}{3}{Transa\IeC {\c c}\IeC {\~a}o}{8}{0}{1}}
\@writefile{nav}{\headcommand {\beamer@subsectionentry {0}{1}{3}{8}{Transa\IeC {\c c}\IeC {\~a}o}}\headcommand {\beamer@subsectionpages {6}{7}}}
\@writefile{nav}{\headcommand {\slideentry {1}{3}{1}{8/9}{Transa\IeC {\c c}\IeC {\~a}o}{0}}}
\@writefile{nav}{\headcommand {\beamer@framepages {8}{9}}}
\@writefile{toc}{\beamer@subsectionintoc {1}{4}{Assinatura de Grupo}{10}{0}{1}}
\@writefile{nav}{\headcommand {\beamer@subsectionentry {0}{1}{4}{10}{Assinatura de Grupo}}\headcommand {\beamer@subsectionpages {8}{9}}}
\citation{3}
\citation{3}
\@writefile{nav}{\headcommand {\slideentry {1}{4}{1}{10/11}{Assinatura de Grupo}{0}}}
\@writefile{nav}{\headcommand {\beamer@framepages {10}{11}}}
\citation{4}
\citation{5}
\citation{6}
\citation{7}
\@writefile{toc}{\beamer@sectionintoc {2}{Problema}{12}{0}{2}}
\@writefile{nav}{\headcommand {\sectionentry {2}{Problema}{12}{Problema}{0}}}
\@writefile{nav}{\headcommand {\beamer@sectionpages {4}{11}}}
\@writefile{nav}{\headcommand {\beamer@subsectionpages {10}{11}}}
\citation{4}
\citation{5}
\citation{6}
\citation{7}
\citation{4}
\citation{5}
\citation{6}
\citation{7}
\citation{4}
\citation{5}
\citation{6}
\citation{7}
\citation{4}
\citation{5}
\citation{6}
\citation{7}
\@writefile{nav}{\headcommand {\slideentry {2}{0}{1}{12/16}{}{0}}}
\@writefile{nav}{\headcommand {\beamer@framepages {12}{16}}}
\@writefile{toc}{\beamer@sectionintoc {3}{Metodologia}{17}{0}{3}}
\@writefile{nav}{\headcommand {\sectionentry {3}{Metodologia}{17}{Metodologia}{0}}}
\@writefile{nav}{\headcommand {\beamer@sectionpages {12}{16}}}
\@writefile{nav}{\headcommand {\beamer@subsectionpages {12}{16}}}
\@writefile{nav}{\headcommand {\slideentry {3}{0}{1}{17/22}{}{0}}}
\@writefile{nav}{\headcommand {\beamer@framepages {17}{22}}}
\@writefile{toc}{\beamer@sectionintoc {4}{Experimento}{23}{0}{4}}
\@writefile{nav}{\headcommand {\sectionentry {4}{Experimento}{23}{Experimento}{0}}}
\@writefile{nav}{\headcommand {\beamer@sectionpages {17}{22}}}
\@writefile{nav}{\headcommand {\beamer@subsectionpages {17}{22}}}
\@writefile{nav}{\headcommand {\slideentry {4}{0}{1}{23/28}{}{0}}}
\@writefile{nav}{\headcommand {\beamer@framepages {23}{28}}}
\@writefile{toc}{\beamer@sectionintoc {5}{An\IeC {\'a}lise}{29}{0}{5}}
\@writefile{nav}{\headcommand {\sectionentry {5}{An\IeC {\'a}lise}{29}{An\IeC {\'a}lise}{0}}}
\@writefile{nav}{\headcommand {\beamer@sectionpages {23}{28}}}
\@writefile{nav}{\headcommand {\beamer@subsectionpages {23}{28}}}
\@writefile{toc}{\beamer@subsectionintoc {5}{1}{Anonimato}{29}{0}{5}}
\@writefile{nav}{\headcommand {\beamer@subsectionentry {0}{5}{1}{29}{Anonimato}}\headcommand {\beamer@subsectionpages {29}{28}}}
\@writefile{nav}{\headcommand {\slideentry {5}{1}{1}{29/30}{Anonimato}{0}}}
\@writefile{nav}{\headcommand {\beamer@framepages {29}{30}}}
\@writefile{toc}{\beamer@subsectionintoc {5}{2}{Desempenho}{31}{0}{5}}
\@writefile{nav}{\headcommand {\beamer@subsectionentry {0}{5}{2}{31}{Desempenho}}\headcommand {\beamer@subsectionpages {29}{30}}}
\@writefile{nav}{\headcommand {\slideentry {5}{2}{1}{31/32}{Desempenho}{0}}}
\@writefile{nav}{\headcommand {\beamer@framepages {31}{32}}}
\@writefile{toc}{\beamer@sectionintoc {6}{Resultado}{33}{0}{6}}
\@writefile{nav}{\headcommand {\sectionentry {6}{Resultado}{33}{Resultado}{0}}}
\@writefile{nav}{\headcommand {\beamer@sectionpages {29}{32}}}
\@writefile{nav}{\headcommand {\beamer@subsectionpages {31}{32}}}
\@writefile{toc}{\beamer@subsectionintoc {6}{1}{Anonimato}{33}{0}{6}}
\@writefile{nav}{\headcommand {\beamer@subsectionentry {0}{6}{1}{33}{Anonimato}}\headcommand {\beamer@subsectionpages {33}{32}}}
\@writefile{nav}{\headcommand {\slideentry {6}{1}{1}{33/35}{Anonimato}{0}}}
\@writefile{nav}{\headcommand {\beamer@framepages {33}{35}}}
\@writefile{toc}{\beamer@subsectionintoc {6}{2}{Desempenho}{36}{0}{6}}
\@writefile{nav}{\headcommand {\beamer@subsectionentry {0}{6}{2}{36}{Desempenho}}\headcommand {\beamer@subsectionpages {33}{35}}}
\@writefile{nav}{\headcommand {\slideentry {6}{2}{1}{36/38}{Desempenho}{0}}}
\@writefile{nav}{\headcommand {\beamer@framepages {36}{38}}}
\@writefile{toc}{\beamer@sectionintoc {7}{Conclus\IeC {\~a}o}{39}{0}{7}}
\@writefile{nav}{\headcommand {\sectionentry {7}{Conclus\IeC {\~a}o}{39}{Conclus\IeC {\~a}o}{0}}}
\@writefile{nav}{\headcommand {\beamer@sectionpages {33}{38}}}
\@writefile{nav}{\headcommand {\beamer@subsectionpages {36}{38}}}
\@writefile{nav}{\headcommand {\slideentry {7}{0}{1}{39/39}{}{0}}}
\@writefile{nav}{\headcommand {\beamer@framepages {39}{39}}}
\bibdata{talk}
\bibcite{3}{\hyperlink {beamerbib3}{Barrera, 2016}}
\bibcite{7}{\hyperlink {beamerbib7}{Biryukov et~al., 2014}}
\bibcite{5}{\hyperlink {beamerbib5}{Bradbury, 2015}}
\bibcite{6}{\hyperlink {beamerbib6}{Dupont and Squicciarini, 2015}}
\bibcite{1}{\hyperlink {beamerbib1}{Nakamoto, 2016}}
\bibcite{4}{\hyperlink {beamerbib4}{Taylor, 2014}}
\bibcite{2}{\hyperlink {beamerbib2}{Times, 2016}}
\bibstyle{apalike}
\@writefile{toc}{\beamer@sectionintoc {8}{Refer\IeC {\^e}ncias}{40}{0}{8}}
\@writefile{nav}{\headcommand {\sectionentry {8}{Refer\IeC {\^e}ncias}{40}{Refer\IeC {\^e}ncias}{0}}}
\@writefile{nav}{\headcommand {\beamer@sectionpages {39}{39}}}
\@writefile{nav}{\headcommand {\beamer@subsectionpages {39}{39}}}
\@writefile{nav}{\headcommand {\slideentry {8}{0}{1}{40/40}{}{0}}}
\@writefile{nav}{\headcommand {\beamer@framepages {40}{40}}}
\@writefile{nav}{\headcommand {\slideentry {8}{0}{1}{40/41}{}{0}}}
\@writefile{nav}{\headcommand {\beamer@framepages {40}{41}}}
\@writefile{toc}{\beamer@sectionintoc {9}{Fim}{42}{0}{9}}
\@writefile{nav}{\headcommand {\sectionentry {9}{Fim}{42}{Fim}{0}}}
\@writefile{nav}{\headcommand {\beamer@sectionpages {40}{41}}}
\@writefile{nav}{\headcommand {\beamer@subsectionpages {40}{41}}}
\@writefile{nav}{\headcommand {\slideentry {9}{0}{1}{42/42}{}{0}}}
\@writefile{nav}{\headcommand {\beamer@framepages {42}{42}}}
\@writefile{nav}{\headcommand {\beamer@partpages {1}{42}}}
\@writefile{nav}{\headcommand {\beamer@subsectionpages {42}{42}}}
\@writefile{nav}{\headcommand {\beamer@sectionpages {42}{42}}}
\@writefile{nav}{\headcommand {\beamer@documentpages {42}}}
\@writefile{nav}{\headcommand {\def \inserttotalframenumber {18}}}
