\BOOKMARK [2][]{Outline0.1}{Introdu\347\343o}{}% 1
\BOOKMARK [3][]{Outline0.1.1.4}{Bitcoin}{Outline0.1}% 2
\BOOKMARK [3][]{Outline0.1.2.6}{Ecosistema}{Outline0.1}% 3
\BOOKMARK [3][]{Outline0.1.3.8}{Transa\347\343o}{Outline0.1}% 4
\BOOKMARK [3][]{Outline0.1.4.10}{Assinatura de Grupo}{Outline0.1}% 5
\BOOKMARK [2][]{Outline0.2}{Problema}{}% 6
\BOOKMARK [2][]{Outline0.3}{Metodologia}{}% 7
\BOOKMARK [2][]{Outline0.4}{Experimento}{}% 8
\BOOKMARK [2][]{Outline0.5}{An\341lise}{}% 9
\BOOKMARK [3][]{Outline0.5.1.29}{Anonimato}{Outline0.5}% 10
\BOOKMARK [3][]{Outline0.5.2.31}{Desempenho}{Outline0.5}% 11
\BOOKMARK [2][]{Outline0.6}{Resultado}{}% 12
\BOOKMARK [3][]{Outline0.6.1.33}{Anonimato}{Outline0.6}% 13
\BOOKMARK [3][]{Outline0.6.2.36}{Desempenho}{Outline0.6}% 14
\BOOKMARK [2][]{Outline0.7}{Conclus\343o}{}% 15
\BOOKMARK [2][]{Outline0.8}{Refer\352ncias}{}% 16
\BOOKMARK [2][]{Outline0.9}{Fim}{}% 17
