\relax 
\providecommand\hyper@newdestlabel[2]{}
\providecommand\HyperFirstAtBeginDocument{\AtBeginDocument}
\HyperFirstAtBeginDocument{\ifx\hyper@anchor\@undefined
\global\let\oldcontentsline\contentsline
\gdef\contentsline#1#2#3#4{\oldcontentsline{#1}{#2}{#3}}
\global\let\oldnewlabel\newlabel
\gdef\newlabel#1#2{\newlabelxx{#1}#2}
\gdef\newlabelxx#1#2#3#4#5#6{\oldnewlabel{#1}{{#2}{#3}}}
\AtEndDocument{\ifx\hyper@anchor\@undefined
\let\contentsline\oldcontentsline
\let\newlabel\oldnewlabel
\fi}
\fi}
\global\let\hyper@last\relax 
\gdef\HyperFirstAtBeginDocument#1{#1}
\providecommand\HyField@AuxAddToFields[1]{}
\providecommand\HyField@AuxAddToCoFields[2]{}
\catcode `"\active 
\@writefile{toc}{\beamer@endinputifotherversion {3.36pt}}
\@writefile{nav}{\beamer@endinputifotherversion {3.36pt}}
\select@language{brazilian}
\@writefile{toc}{\select@language{brazilian}}
\@writefile{lof}{\select@language{brazilian}}
\@writefile{lot}{\select@language{brazilian}}
\@writefile{nav}{\headcommand {\slideentry {0}{0}{1}{1/1}{}{0}}}
\@writefile{nav}{\headcommand {\beamer@framepages {1}{1}}}
\@writefile{nav}{\headcommand {\slideentry {0}{0}{2}{2/11}{}{0}}}
\@writefile{nav}{\headcommand {\beamer@framepages {2}{11}}}
\citation{1}
\@writefile{nav}{\headcommand {\slideentry {0}{0}{3}{12/13}{}{0}}}
\@writefile{nav}{\headcommand {\beamer@framepages {12}{13}}}
\@writefile{nav}{\headcommand {\slideentry {0}{0}{4}{14/19}{}{0}}}
\@writefile{nav}{\headcommand {\beamer@framepages {14}{19}}}
\citation{2}
\citation{3}
\citation{4}
\citation{5}
\citation{2}
\citation{3}
\citation{4}
\citation{5}
\citation{2}
\citation{3}
\citation{4}
\citation{5}
\citation{2}
\citation{3}
\citation{4}
\citation{5}
\citation{2}
\citation{3}
\citation{4}
\citation{5}
\@writefile{nav}{\headcommand {\slideentry {0}{0}{5}{20/24}{}{0}}}
\@writefile{nav}{\headcommand {\beamer@framepages {20}{24}}}
\citation{1}
\@writefile{nav}{\headcommand {\slideentry {0}{0}{6}{25/26}{}{0}}}
\@writefile{nav}{\headcommand {\beamer@framepages {25}{26}}}
\@writefile{nav}{\headcommand {\slideentry {0}{0}{7}{27/34}{}{0}}}
\@writefile{nav}{\headcommand {\beamer@framepages {27}{34}}}
\citation{7}
\@writefile{nav}{\headcommand {\slideentry {0}{0}{8}{35/36}{}{0}}}
\@writefile{nav}{\headcommand {\beamer@framepages {35}{36}}}
\citation{7}
\@writefile{nav}{\headcommand {\slideentry {0}{0}{9}{37/38}{}{0}}}
\@writefile{nav}{\headcommand {\beamer@framepages {37}{38}}}
\citation{7}
\@writefile{nav}{\headcommand {\slideentry {0}{0}{10}{39/40}{}{0}}}
\@writefile{nav}{\headcommand {\beamer@framepages {39}{40}}}
\citation{7}
\@writefile{nav}{\headcommand {\slideentry {0}{0}{11}{41/42}{}{0}}}
\@writefile{nav}{\headcommand {\beamer@framepages {41}{42}}}
\citation{7}
\@writefile{nav}{\headcommand {\slideentry {0}{0}{12}{43/44}{}{0}}}
\@writefile{nav}{\headcommand {\beamer@framepages {43}{44}}}
\citation{8}
\@writefile{nav}{\headcommand {\slideentry {0}{0}{13}{45/46}{}{0}}}
\@writefile{nav}{\headcommand {\beamer@framepages {45}{46}}}
\@writefile{nav}{\headcommand {\slideentry {0}{0}{14}{47/52}{}{0}}}
\@writefile{nav}{\headcommand {\beamer@framepages {47}{52}}}
\@writefile{nav}{\headcommand {\slideentry {0}{0}{15}{53/66}{}{0}}}
\@writefile{nav}{\headcommand {\beamer@framepages {53}{66}}}
\citation{6}
\@writefile{nav}{\headcommand {\slideentry {0}{0}{16}{67/68}{}{0}}}
\@writefile{nav}{\headcommand {\beamer@framepages {67}{68}}}
\citation{6}
\@writefile{nav}{\headcommand {\slideentry {0}{0}{17}{69/70}{}{0}}}
\@writefile{nav}{\headcommand {\beamer@framepages {69}{70}}}
\citation{6}
\@writefile{nav}{\headcommand {\slideentry {0}{0}{18}{71/72}{}{0}}}
\@writefile{nav}{\headcommand {\beamer@framepages {71}{72}}}
\citation{6}
\@writefile{nav}{\headcommand {\slideentry {0}{0}{19}{73/74}{}{0}}}
\@writefile{nav}{\headcommand {\beamer@framepages {73}{74}}}
\citation{9}
\citation{10}
\citation{9}
\citation{10}
\citation{9}
\citation{10}
\citation{9}
\citation{10}
\citation{9}
\citation{10}
\@writefile{nav}{\headcommand {\slideentry {0}{0}{20}{75/79}{}{0}}}
\@writefile{nav}{\headcommand {\beamer@framepages {75}{79}}}
\@writefile{nav}{\headcommand {\slideentry {0}{0}{21}{80/88}{}{0}}}
\@writefile{nav}{\headcommand {\beamer@framepages {80}{88}}}
\@writefile{lol}{\contentsline {lstlisting}{static/code/code}}
\@writefile{nav}{\headcommand {\slideentry {0}{0}{22}{89/90}{}{0}}}
\@writefile{nav}{\headcommand {\beamer@framepages {89}{90}}}
\bibdata{talk}
\bibcite{10}{\hyperlink {beamerbib10}{Biryukov et~al., 2014}}
\bibcite{9}{\hyperlink {beamerbib9}{Bradbury, 2015}}
\bibcite{5}{\hyperlink {beamerbib5}{CoinMarketCap, 2017}}
\bibcite{2}{\hyperlink {beamerbib2}{Dai, 2017}}
\bibcite{4}{\hyperlink {beamerbib4}{Evans-Pughe et~al., 2014}}
\bibcite{1}{\hyperlink {beamerbib1}{Nakamoto, 2017a}}
\bibcite{7}{\hyperlink {beamerbib7}{Nakamoto, 2017b}}
\bibcite{3}{\hyperlink {beamerbib3}{Peck, 2017}}
\bibcite{6}{\hyperlink {beamerbib6}{Smith, 2017}}
\bibcite{8}{\hyperlink {beamerbib8}{Times, 2017}}
\bibstyle{apalike}
\@writefile{nav}{\headcommand {\slideentry {0}{0}{23}{91/91}{}{0}}}
\@writefile{nav}{\headcommand {\beamer@framepages {91}{91}}}
\@writefile{nav}{\headcommand {\slideentry {0}{0}{23}{91/92}{}{0}}}
\@writefile{nav}{\headcommand {\beamer@framepages {91}{92}}}
\@writefile{nav}{\headcommand {\slideentry {0}{0}{23}{91/93}{}{0}}}
\@writefile{nav}{\headcommand {\beamer@framepages {91}{93}}}
\@writefile{nav}{\headcommand {\slideentry {0}{0}{24}{94/94}{}{0}}}
\@writefile{nav}{\headcommand {\beamer@framepages {94}{94}}}
\@writefile{nav}{\headcommand {\beamer@partpages {1}{94}}}
\@writefile{nav}{\headcommand {\beamer@subsectionpages {1}{94}}}
\@writefile{nav}{\headcommand {\beamer@sectionpages {1}{94}}}
\@writefile{nav}{\headcommand {\beamer@documentpages {94}}}
\@writefile{nav}{\headcommand {\def \inserttotalframenumber {26}}}
