\relax 
\providecommand\hyper@newdestlabel[2]{}
\providecommand\HyperFirstAtBeginDocument{\AtBeginDocument}
\HyperFirstAtBeginDocument{\ifx\hyper@anchor\@undefined
\global\let\oldcontentsline\contentsline
\gdef\contentsline#1#2#3#4{\oldcontentsline{#1}{#2}{#3}}
\global\let\oldnewlabel\newlabel
\gdef\newlabel#1#2{\newlabelxx{#1}#2}
\gdef\newlabelxx#1#2#3#4#5#6{\oldnewlabel{#1}{{#2}{#3}}}
\AtEndDocument{\ifx\hyper@anchor\@undefined
\let\contentsline\oldcontentsline
\let\newlabel\oldnewlabel
\fi}
\fi}
\global\let\hyper@last\relax 
\gdef\HyperFirstAtBeginDocument#1{#1}
\providecommand\HyField@AuxAddToFields[1]{}
\providecommand\HyField@AuxAddToCoFields[2]{}
\catcode `"\active 
\@writefile{toc}{\beamer@endinputifotherversion {3.36pt}}
\@writefile{nav}{\beamer@endinputifotherversion {3.36pt}}
\select@language{brazilian}
\@writefile{toc}{\select@language{brazilian}}
\@writefile{lof}{\select@language{brazilian}}
\@writefile{lot}{\select@language{brazilian}}
\@writefile{nav}{\headcommand {\slideentry {0}{0}{1}{1/1}{}{0}}}
\@writefile{nav}{\headcommand {\beamer@framepages {1}{1}}}
\@writefile{nav}{\headcommand {\slideentry {0}{0}{2}{2/6}{}{0}}}
\@writefile{nav}{\headcommand {\beamer@framepages {2}{6}}}
\@writefile{nav}{\headcommand {\slideentry {0}{0}{3}{7/8}{}{0}}}
\@writefile{nav}{\headcommand {\beamer@framepages {7}{8}}}
\@writefile{nav}{\headcommand {\slideentry {0}{0}{4}{9/17}{}{0}}}
\@writefile{nav}{\headcommand {\beamer@framepages {9}{17}}}
\@writefile{nav}{\headcommand {\slideentry {0}{0}{5}{18/19}{}{0}}}
\@writefile{nav}{\headcommand {\beamer@framepages {18}{19}}}
\@writefile{nav}{\headcommand {\slideentry {0}{0}{6}{20/22}{}{0}}}
\@writefile{nav}{\headcommand {\beamer@framepages {20}{22}}}
\@writefile{nav}{\headcommand {\slideentry {0}{0}{7}{23/24}{}{0}}}
\@writefile{nav}{\headcommand {\beamer@framepages {23}{24}}}
\@writefile{nav}{\headcommand {\slideentry {0}{0}{8}{25/26}{}{0}}}
\@writefile{nav}{\headcommand {\beamer@framepages {25}{26}}}
\@writefile{nav}{\headcommand {\slideentry {0}{0}{9}{27/29}{}{0}}}
\@writefile{nav}{\headcommand {\beamer@framepages {27}{29}}}
\@writefile{nav}{\headcommand {\slideentry {0}{0}{10}{30/32}{}{0}}}
\@writefile{nav}{\headcommand {\beamer@framepages {30}{32}}}
\@writefile{nav}{\headcommand {\slideentry {0}{0}{11}{33/35}{}{0}}}
\@writefile{nav}{\headcommand {\beamer@framepages {33}{35}}}
\@writefile{nav}{\headcommand {\slideentry {0}{0}{12}{36/38}{}{0}}}
\@writefile{nav}{\headcommand {\beamer@framepages {36}{38}}}
\@writefile{nav}{\headcommand {\slideentry {0}{0}{13}{39/44}{}{0}}}
\@writefile{nav}{\headcommand {\beamer@framepages {39}{44}}}
\@writefile{nav}{\headcommand {\slideentry {0}{0}{14}{45/48}{}{0}}}
\@writefile{nav}{\headcommand {\beamer@framepages {45}{48}}}
\@writefile{nav}{\headcommand {\slideentry {0}{0}{15}{49/52}{}{0}}}
\@writefile{nav}{\headcommand {\beamer@framepages {49}{52}}}
\@writefile{nav}{\headcommand {\slideentry {0}{0}{16}{53/54}{}{0}}}
\@writefile{nav}{\headcommand {\beamer@framepages {53}{54}}}
\@writefile{nav}{\headcommand {\slideentry {0}{0}{17}{55/56}{}{0}}}
\@writefile{nav}{\headcommand {\beamer@framepages {55}{56}}}
\bibdata{talk}
\bibcite{1}{\hyperlink {beamerbib1}{Lipschutz and Lpson, 2013}}
\bibstyle{apalike}
\@writefile{nav}{\headcommand {\slideentry {0}{0}{18}{57/57}{}{0}}}
\@writefile{nav}{\headcommand {\beamer@framepages {57}{57}}}
\@writefile{nav}{\headcommand {\slideentry {0}{0}{19}{58/58}{}{0}}}
\@writefile{nav}{\headcommand {\beamer@framepages {58}{58}}}
\@writefile{nav}{\headcommand {\beamer@partpages {1}{58}}}
\@writefile{nav}{\headcommand {\beamer@subsectionpages {1}{58}}}
\@writefile{nav}{\headcommand {\beamer@sectionpages {1}{58}}}
\@writefile{nav}{\headcommand {\beamer@documentpages {58}}}
\@writefile{nav}{\headcommand {\def \inserttotalframenumber {19}}}
