\relax 
\providecommand\hyper@newdestlabel[2]{}
\providecommand\HyperFirstAtBeginDocument{\AtBeginDocument}
\HyperFirstAtBeginDocument{\ifx\hyper@anchor\@undefined
\global\let\oldcontentsline\contentsline
\gdef\contentsline#1#2#3#4{\oldcontentsline{#1}{#2}{#3}}
\global\let\oldnewlabel\newlabel
\gdef\newlabel#1#2{\newlabelxx{#1}#2}
\gdef\newlabelxx#1#2#3#4#5#6{\oldnewlabel{#1}{{#2}{#3}}}
\AtEndDocument{\ifx\hyper@anchor\@undefined
\let\contentsline\oldcontentsline
\let\newlabel\oldnewlabel
\fi}
\fi}
\global\let\hyper@last\relax 
\gdef\HyperFirstAtBeginDocument#1{#1}
\providecommand\HyField@AuxAddToFields[1]{}
\providecommand\HyField@AuxAddToCoFields[2]{}
\catcode `"\active 
\@writefile{toc}{\beamer@endinputifotherversion {3.36pt}}
\@writefile{nav}{\beamer@endinputifotherversion {3.36pt}}
\select@language{brazilian}
\@writefile{toc}{\select@language{brazilian}}
\@writefile{lof}{\select@language{brazilian}}
\@writefile{lot}{\select@language{brazilian}}
\@writefile{nav}{\headcommand {\slideentry {0}{0}{1}{1/1}{}{0}}}
\@writefile{nav}{\headcommand {\beamer@framepages {1}{1}}}
\@writefile{nav}{\headcommand {\slideentry {0}{0}{2}{2/2}{}{0}}}
\@writefile{nav}{\headcommand {\beamer@framepages {2}{2}}}
\citation{1}
\@writefile{toc}{\beamer@sectionintoc {1}{An\IeC {\'a}lise Sem\IeC {\^a}ntica}{3}{0}{1}}
\@writefile{nav}{\headcommand {\sectionentry {1}{An\IeC {\'a}lise Sem\IeC {\^a}ntica}{3}{An\IeC {\'a}lise Sem\IeC {\^a}ntica}{0}}}
\@writefile{nav}{\headcommand {\beamer@sectionpages {1}{2}}}
\@writefile{nav}{\headcommand {\beamer@subsectionpages {1}{2}}}
\@writefile{toc}{\beamer@subsectionintoc {1}{1}{Analisador Sem\IeC {\^a}ntico}{3}{0}{1}}
\@writefile{nav}{\headcommand {\beamer@subsectionentry {0}{1}{1}{3}{Analisador Sem\IeC {\^a}ntico}}\headcommand {\beamer@subsectionpages {3}{2}}}
\citation{1}
\@writefile{nav}{\headcommand {\slideentry {1}{1}{1}{3/4}{Analisador Sem\IeC {\^a}ntico}{0}}}
\@writefile{nav}{\headcommand {\beamer@framepages {3}{4}}}
\citation{2}
\@writefile{toc}{\beamer@subsectionintoc {1}{2}{An\IeC {\'a}lise do C\IeC {\'o}digo}{5}{0}{1}}
\@writefile{nav}{\headcommand {\beamer@subsectionentry {0}{1}{2}{5}{An\IeC {\'a}lise do C\IeC {\'o}digo}}\headcommand {\beamer@subsectionpages {3}{4}}}
\citation{2}
\citation{2}
\citation{2}
\@writefile{nav}{\headcommand {\slideentry {1}{2}{1}{5/8}{An\IeC {\'a}lise do C\IeC {\'o}digo}{0}}}
\@writefile{nav}{\headcommand {\beamer@framepages {5}{8}}}
\citation{3}
\@writefile{toc}{\beamer@subsectionintoc {1}{3}{Tabela de S\IeC {\'\i }mbolos}{9}{0}{1}}
\@writefile{nav}{\headcommand {\beamer@subsectionentry {0}{1}{3}{9}{Tabela de S\IeC {\'\i }mbolos}}\headcommand {\beamer@subsectionpages {5}{8}}}
\citation{3}
\citation{3}
\citation{3}
\@writefile{nav}{\headcommand {\slideentry {1}{3}{1}{9/12}{Tabela de S\IeC {\'\i }mbolos}{0}}}
\@writefile{nav}{\headcommand {\beamer@framepages {9}{12}}}
\@writefile{toc}{\beamer@subsectionintoc {1}{4}{Decora\IeC {\c c}\IeC {\~o}es de Nomes}{14}{0}{1}}
\@writefile{nav}{\headcommand {\beamer@subsectionentry {0}{1}{4}{14}{Decora\IeC {\c c}\IeC {\~o}es de Nomes}}\headcommand {\beamer@subsectionpages {9}{13}}}
\@writefile{nav}{\headcommand {\slideentry {1}{4}{1}{14/18}{Decora\IeC {\c c}\IeC {\~o}es de Nomes}{0}}}
\@writefile{nav}{\headcommand {\beamer@framepages {14}{18}}}
\@writefile{toc}{\beamer@subsectionintoc {1}{5}{Informa\IeC {\c c}\IeC {\~o}es de escopo}{19}{0}{1}}
\@writefile{nav}{\headcommand {\beamer@subsectionentry {0}{1}{5}{19}{Informa\IeC {\c c}\IeC {\~o}es de escopo}}\headcommand {\beamer@subsectionpages {14}{18}}}
\@writefile{nav}{\headcommand {\slideentry {1}{5}{1}{20/23}{Informa\IeC {\c c}\IeC {\~o}es de escopo}{0}}}
\@writefile{nav}{\headcommand {\beamer@framepages {20}{23}}}
\@writefile{toc}{\beamer@subsectionintoc {1}{6}{Heur\IeC {\'\i }stica para a An\IeC {\'a}lise Sem\IeC {\^a}ntica}{24}{0}{1}}
\@writefile{nav}{\headcommand {\beamer@subsectionentry {0}{1}{6}{24}{Heur\IeC {\'\i }stica para a An\IeC {\'a}lise Sem\IeC {\^a}ntica}}\headcommand {\beamer@subsectionpages {19}{23}}}
\@writefile{nav}{\headcommand {\slideentry {1}{6}{1}{24/27}{Heur\IeC {\'\i }stica para a An\IeC {\'a}lise Sem\IeC {\^a}ntica}{0}}}
\@writefile{nav}{\headcommand {\beamer@framepages {24}{27}}}
\@writefile{toc}{\beamer@subsectionintoc {1}{7}{Verifica\IeC {\c c}\IeC {\~a}o de Tipos}{28}{0}{1}}
\@writefile{nav}{\headcommand {\beamer@subsectionentry {0}{1}{7}{28}{Verifica\IeC {\c c}\IeC {\~a}o de Tipos}}\headcommand {\beamer@subsectionpages {24}{27}}}
\@writefile{nav}{\headcommand {\slideentry {1}{7}{1}{28/32}{Verifica\IeC {\c c}\IeC {\~a}o de Tipos}{0}}}
\@writefile{nav}{\headcommand {\beamer@framepages {28}{32}}}
\@writefile{toc}{\beamer@subsectionintoc {1}{8}{Verifica\IeC {\c c}\IeC {\~a}o de Fluxo de Controle}{33}{0}{1}}
\@writefile{nav}{\headcommand {\beamer@subsectionentry {0}{1}{8}{33}{Verifica\IeC {\c c}\IeC {\~a}o de Fluxo de Controle}}\headcommand {\beamer@subsectionpages {28}{32}}}
\@writefile{nav}{\headcommand {\slideentry {1}{8}{1}{33/36}{Verifica\IeC {\c c}\IeC {\~a}o de Fluxo de Controle}{0}}}
\@writefile{nav}{\headcommand {\beamer@framepages {33}{36}}}
\@writefile{toc}{\beamer@subsectionintoc {1}{9}{Verifica\IeC {\c c}\IeC {\~a}o de Unidade}{37}{0}{1}}
\@writefile{nav}{\headcommand {\beamer@subsectionentry {0}{1}{9}{37}{Verifica\IeC {\c c}\IeC {\~a}o de Unidade}}\headcommand {\beamer@subsectionpages {33}{36}}}
\@writefile{nav}{\headcommand {\slideentry {1}{9}{1}{37/41}{Verifica\IeC {\c c}\IeC {\~a}o de Unidade}{0}}}
\@writefile{nav}{\headcommand {\beamer@framepages {37}{41}}}
\bibdata{talk}
\bibcite{1}{\hyperlink {beamerbib1}{AHO and Sethi, 2013}}
\bibcite{4}{\hyperlink {beamerbib4}{Louden, 2016}}
\bibcite{3}{\hyperlink {beamerbib3}{Prince and Toscani, 2015}}
\bibcite{2}{\hyperlink {beamerbib2}{Sebesta, 2014}}
\bibcite{5}{\hyperlink {beamerbib5}{Toscani, 2016}}
\bibstyle{apalike}
\@writefile{toc}{\beamer@sectionintoc {2}{Refer\IeC {\^e}ncias}{42}{0}{2}}
\@writefile{nav}{\headcommand {\sectionentry {2}{Refer\IeC {\^e}ncias}{42}{Refer\IeC {\^e}ncias}{0}}}
\@writefile{nav}{\headcommand {\beamer@sectionpages {3}{41}}}
\@writefile{nav}{\headcommand {\beamer@subsectionpages {37}{41}}}
\@writefile{nav}{\headcommand {\slideentry {2}{0}{1}{42/42}{}{0}}}
\@writefile{nav}{\headcommand {\beamer@framepages {42}{42}}}
\@writefile{toc}{\beamer@sectionintoc {3}{Fim}{43}{0}{3}}
\@writefile{nav}{\headcommand {\sectionentry {3}{Fim}{43}{Fim}{0}}}
\@writefile{nav}{\headcommand {\beamer@sectionpages {42}{42}}}
\@writefile{nav}{\headcommand {\beamer@subsectionpages {42}{42}}}
\@writefile{nav}{\headcommand {\slideentry {3}{0}{1}{43/43}{}{0}}}
\@writefile{nav}{\headcommand {\beamer@framepages {43}{43}}}
\@writefile{nav}{\headcommand {\beamer@partpages {1}{43}}}
\@writefile{nav}{\headcommand {\beamer@subsectionpages {43}{43}}}
\@writefile{nav}{\headcommand {\beamer@sectionpages {43}{43}}}
\@writefile{nav}{\headcommand {\beamer@documentpages {43}}}
\@writefile{nav}{\headcommand {\def \inserttotalframenumber {13}}}
