\relax 
\providecommand\hyper@newdestlabel[2]{}
\providecommand\HyperFirstAtBeginDocument{\AtBeginDocument}
\HyperFirstAtBeginDocument{\ifx\hyper@anchor\@undefined
\global\let\oldcontentsline\contentsline
\gdef\contentsline#1#2#3#4{\oldcontentsline{#1}{#2}{#3}}
\global\let\oldnewlabel\newlabel
\gdef\newlabel#1#2{\newlabelxx{#1}#2}
\gdef\newlabelxx#1#2#3#4#5#6{\oldnewlabel{#1}{{#2}{#3}}}
\AtEndDocument{\ifx\hyper@anchor\@undefined
\let\contentsline\oldcontentsline
\let\newlabel\oldnewlabel
\fi}
\fi}
\global\let\hyper@last\relax 
\gdef\HyperFirstAtBeginDocument#1{#1}
\providecommand\HyField@AuxAddToFields[1]{}
\providecommand\HyField@AuxAddToCoFields[2]{}
\@writefile{toc}{\beamer@endinputifotherversion {3.36pt}}
\@writefile{nav}{\beamer@endinputifotherversion {3.36pt}}
\@writefile{nav}{\headcommand {\slideentry {0}{0}{1}{1/1}{}{0}}}
\@writefile{nav}{\headcommand {\beamer@framepages {1}{1}}}
\@writefile{nav}{\headcommand {\slideentry {0}{0}{2}{2/2}{}{0}}}
\@writefile{nav}{\headcommand {\beamer@framepages {2}{2}}}
\@writefile{toc}{\beamer@sectionintoc {1}{Me}{3}{0}{1}}
\@writefile{nav}{\headcommand {\sectionentry {1}{Me}{3}{Me}{0}}}
\@writefile{nav}{\headcommand {\beamer@sectionpages {1}{2}}}
\@writefile{nav}{\headcommand {\beamer@subsectionpages {1}{2}}}
\@writefile{nav}{\headcommand {\slideentry {1}{0}{1}{3/15}{}{0}}}
\@writefile{nav}{\headcommand {\beamer@framepages {3}{15}}}
\@writefile{toc}{\beamer@sectionintoc {2}{GNU Guix}{16}{0}{2}}
\@writefile{nav}{\headcommand {\sectionentry {2}{GNU Guix}{16}{GNU Guix}{0}}}
\@writefile{nav}{\headcommand {\beamer@sectionpages {3}{15}}}
\@writefile{nav}{\headcommand {\beamer@subsectionpages {3}{15}}}
\@writefile{toc}{\beamer@subsectionintoc {2}{1}{GNU Guix}{16}{0}{2}}
\@writefile{nav}{\headcommand {\beamer@subsectionentry {0}{2}{1}{16}{GNU Guix}}\headcommand {\beamer@subsectionpages {16}{15}}}
\citation{1}
\@writefile{nav}{\headcommand {\slideentry {2}{1}{1}{16/17}{GNU Guix}{0}}}
\@writefile{nav}{\headcommand {\beamer@framepages {16}{17}}}
\@writefile{toc}{\beamer@subsectionintoc {2}{2}{Features}{18}{0}{2}}
\@writefile{nav}{\headcommand {\beamer@subsectionentry {0}{2}{2}{18}{Features}}\headcommand {\beamer@subsectionpages {16}{17}}}
\@writefile{nav}{\headcommand {\slideentry {2}{2}{1}{18/26}{Features}{0}}}
\@writefile{nav}{\headcommand {\beamer@framepages {18}{26}}}
\@writefile{toc}{\beamer@subsectionintoc {2}{3}{Guix and Guile}{27}{0}{2}}
\@writefile{nav}{\headcommand {\beamer@subsectionentry {0}{2}{3}{27}{Guix and Guile}}\headcommand {\beamer@subsectionpages {18}{26}}}
\@writefile{nav}{\headcommand {\slideentry {2}{3}{1}{27/31}{Guix and Guile}{0}}}
\@writefile{nav}{\headcommand {\beamer@framepages {27}{31}}}
\@writefile{toc}{\beamer@subsectionintoc {2}{4}{Demo}{32}{0}{2}}
\@writefile{nav}{\headcommand {\beamer@subsectionentry {0}{2}{4}{32}{Demo}}\headcommand {\beamer@subsectionpages {27}{31}}}
\@writefile{nav}{\headcommand {\slideentry {2}{4}{1}{32/32}{Demo}{0}}}
\@writefile{nav}{\headcommand {\beamer@framepages {32}{32}}}
\@writefile{nav}{\headcommand {\slideentry {2}{4}{1}{32/33}{Demo}{0}}}
\@writefile{nav}{\headcommand {\beamer@framepages {32}{33}}}
\@writefile{toc}{\beamer@subsectionintoc {2}{5}{New Package}{34}{0}{2}}
\@writefile{nav}{\headcommand {\beamer@subsectionentry {0}{2}{5}{34}{New Package}}\headcommand {\beamer@subsectionpages {32}{33}}}
\@writefile{nav}{\headcommand {\slideentry {2}{5}{1}{34/34}{New Package}{0}}}
\@writefile{nav}{\headcommand {\beamer@framepages {34}{34}}}
\@writefile{nav}{\headcommand {\slideentry {2}{5}{1}{34/35}{New Package}{0}}}
\@writefile{nav}{\headcommand {\beamer@framepages {34}{35}}}
\@writefile{toc}{\beamer@subsectionintoc {2}{6}{Packaging}{36}{0}{2}}
\@writefile{nav}{\headcommand {\beamer@subsectionentry {0}{2}{6}{36}{Packaging}}\headcommand {\beamer@subsectionpages {34}{35}}}
\@writefile{nav}{\headcommand {\slideentry {2}{6}{1}{36/36}{Packaging}{0}}}
\@writefile{nav}{\headcommand {\beamer@framepages {36}{36}}}
\@writefile{nav}{\headcommand {\slideentry {2}{6}{1}{36/37}{Packaging}{0}}}
\@writefile{nav}{\headcommand {\beamer@framepages {36}{37}}}
\@writefile{toc}{\beamer@subsectionintoc {2}{7}{Help}{38}{0}{2}}
\@writefile{nav}{\headcommand {\beamer@subsectionentry {0}{2}{7}{38}{Help}}\headcommand {\beamer@subsectionpages {36}{37}}}
\@writefile{nav}{\headcommand {\slideentry {2}{7}{1}{38/42}{Help}{0}}}
\@writefile{nav}{\headcommand {\beamer@framepages {38}{42}}}
\bibdata{talk}
\bibcite{1}{\hyperlink {beamerbib1}{FSF, 2016}}
\bibstyle{apalike}
\@writefile{toc}{\beamer@sectionintoc {3}{References}{43}{0}{3}}
\@writefile{nav}{\headcommand {\sectionentry {3}{References}{43}{References}{0}}}
\@writefile{nav}{\headcommand {\beamer@sectionpages {16}{42}}}
\@writefile{nav}{\headcommand {\beamer@subsectionpages {38}{42}}}
\@writefile{nav}{\headcommand {\slideentry {3}{0}{1}{43/43}{}{0}}}
\@writefile{nav}{\headcommand {\beamer@framepages {43}{43}}}
\@writefile{toc}{\beamer@sectionintoc {4}{End}{44}{0}{4}}
\@writefile{nav}{\headcommand {\sectionentry {4}{End}{44}{End}{0}}}
\@writefile{nav}{\headcommand {\beamer@sectionpages {43}{43}}}
\@writefile{nav}{\headcommand {\beamer@subsectionpages {43}{43}}}
\@writefile{nav}{\headcommand {\slideentry {4}{0}{1}{44/44}{}{0}}}
\@writefile{nav}{\headcommand {\beamer@framepages {44}{44}}}
\@writefile{nav}{\headcommand {\beamer@partpages {1}{44}}}
\@writefile{nav}{\headcommand {\beamer@subsectionpages {44}{44}}}
\@writefile{nav}{\headcommand {\beamer@sectionpages {44}{44}}}
\@writefile{nav}{\headcommand {\beamer@documentpages {44}}}
\@writefile{nav}{\headcommand {\def \inserttotalframenumber {15}}}
