\relax 
\providecommand\hyper@newdestlabel[2]{}
\providecommand\HyperFirstAtBeginDocument{\AtBeginDocument}
\HyperFirstAtBeginDocument{\ifx\hyper@anchor\@undefined
\global\let\oldcontentsline\contentsline
\gdef\contentsline#1#2#3#4{\oldcontentsline{#1}{#2}{#3}}
\global\let\oldnewlabel\newlabel
\gdef\newlabel#1#2{\newlabelxx{#1}#2}
\gdef\newlabelxx#1#2#3#4#5#6{\oldnewlabel{#1}{{#2}{#3}}}
\AtEndDocument{\ifx\hyper@anchor\@undefined
\let\contentsline\oldcontentsline
\let\newlabel\oldnewlabel
\fi}
\fi}
\global\let\hyper@last\relax 
\gdef\HyperFirstAtBeginDocument#1{#1}
\providecommand\HyField@AuxAddToFields[1]{}
\providecommand\HyField@AuxAddToCoFields[2]{}
\catcode `"\active 
\@writefile{toc}{\beamer@endinputifotherversion {3.36pt}}
\@writefile{nav}{\beamer@endinputifotherversion {3.36pt}}
\select@language{brazilian}
\@writefile{toc}{\select@language{brazilian}}
\@writefile{lof}{\select@language{brazilian}}
\@writefile{lot}{\select@language{brazilian}}
\@writefile{nav}{\headcommand {\slideentry {0}{0}{1}{1/1}{}{0}}}
\@writefile{nav}{\headcommand {\beamer@framepages {1}{1}}}
\citation{1}
\citation{1}
\citation{1}
\citation{1}
\@writefile{nav}{\headcommand {\slideentry {0}{0}{2}{2/5}{}{0}}}
\@writefile{nav}{\headcommand {\beamer@framepages {2}{5}}}
\citation{2}
\citation{2}
\citation{2}
\citation{2}
\citation{2}
\@writefile{nav}{\headcommand {\slideentry {0}{0}{3}{6/10}{}{0}}}
\@writefile{nav}{\headcommand {\beamer@framepages {6}{10}}}
\citation{3}
\citation{3}
\citation{3}
\citation{3}
\citation{3}
\citation{3}
\@writefile{nav}{\headcommand {\slideentry {0}{0}{4}{11/16}{}{0}}}
\@writefile{nav}{\headcommand {\beamer@framepages {11}{16}}}
\@writefile{nav}{\headcommand {\slideentry {0}{0}{5}{17/19}{}{0}}}
\@writefile{nav}{\headcommand {\beamer@framepages {17}{19}}}
\@writefile{nav}{\headcommand {\slideentry {0}{0}{6}{20/21}{}{0}}}
\@writefile{nav}{\headcommand {\beamer@framepages {20}{21}}}
\@writefile{nav}{\headcommand {\slideentry {0}{0}{7}{22/25}{}{0}}}
\@writefile{nav}{\headcommand {\beamer@framepages {22}{25}}}
\@writefile{nav}{\headcommand {\slideentry {0}{0}{8}{26/30}{}{0}}}
\@writefile{nav}{\headcommand {\beamer@framepages {26}{30}}}
\@writefile{nav}{\headcommand {\slideentry {0}{0}{9}{31/35}{}{0}}}
\@writefile{nav}{\headcommand {\beamer@framepages {31}{35}}}
\@writefile{nav}{\headcommand {\slideentry {0}{0}{10}{36/41}{}{0}}}
\@writefile{nav}{\headcommand {\beamer@framepages {36}{41}}}
\@writefile{nav}{\headcommand {\slideentry {0}{0}{11}{42/44}{}{0}}}
\@writefile{nav}{\headcommand {\beamer@framepages {42}{44}}}
\@writefile{nav}{\headcommand {\slideentry {0}{0}{12}{45/47}{}{0}}}
\@writefile{nav}{\headcommand {\beamer@framepages {45}{47}}}
\@writefile{nav}{\headcommand {\slideentry {0}{0}{13}{48/56}{}{0}}}
\@writefile{nav}{\headcommand {\beamer@framepages {48}{56}}}
\@writefile{nav}{\headcommand {\slideentry {0}{0}{14}{57/60}{}{0}}}
\@writefile{nav}{\headcommand {\beamer@framepages {57}{60}}}
\bibdata{talk}
\bibcite{2}{\hyperlink {beamerbib2}{Bittencourt, 2014}}
\bibcite{1}{\hyperlink {beamerbib1}{George, 2014}}
\bibcite{3}{\hyperlink {beamerbib3}{Russel and Norvig, 2015}}
\bibstyle{apalike}
\@writefile{nav}{\headcommand {\slideentry {0}{0}{15}{61/61}{}{0}}}
\@writefile{nav}{\headcommand {\beamer@framepages {61}{61}}}
\@writefile{nav}{\headcommand {\slideentry {0}{0}{16}{62/62}{}{0}}}
\@writefile{nav}{\headcommand {\beamer@framepages {62}{62}}}
\@writefile{nav}{\headcommand {\beamer@partpages {1}{62}}}
\@writefile{nav}{\headcommand {\beamer@subsectionpages {1}{62}}}
\@writefile{nav}{\headcommand {\beamer@sectionpages {1}{62}}}
\@writefile{nav}{\headcommand {\beamer@documentpages {62}}}
\@writefile{nav}{\headcommand {\def \inserttotalframenumber {16}}}
