\relax 
\providecommand\hyper@newdestlabel[2]{}
\providecommand\HyperFirstAtBeginDocument{\AtBeginDocument}
\HyperFirstAtBeginDocument{\ifx\hyper@anchor\@undefined
\global\let\oldcontentsline\contentsline
\gdef\contentsline#1#2#3#4{\oldcontentsline{#1}{#2}{#3}}
\global\let\oldnewlabel\newlabel
\gdef\newlabel#1#2{\newlabelxx{#1}#2}
\gdef\newlabelxx#1#2#3#4#5#6{\oldnewlabel{#1}{{#2}{#3}}}
\AtEndDocument{\ifx\hyper@anchor\@undefined
\let\contentsline\oldcontentsline
\let\newlabel\oldnewlabel
\fi}
\fi}
\global\let\hyper@last\relax 
\gdef\HyperFirstAtBeginDocument#1{#1}
\providecommand\HyField@AuxAddToFields[1]{}
\providecommand\HyField@AuxAddToCoFields[2]{}
\catcode `"\active 
\@writefile{toc}{\beamer@endinputifotherversion {3.36pt}}
\@writefile{nav}{\beamer@endinputifotherversion {3.36pt}}
\select@language{brazilian}
\@writefile{toc}{\select@language{brazilian}}
\@writefile{lof}{\select@language{brazilian}}
\@writefile{lot}{\select@language{brazilian}}
\@writefile{nav}{\headcommand {\slideentry {0}{0}{1}{1/1}{}{0}}}
\@writefile{nav}{\headcommand {\beamer@framepages {1}{1}}}
\@writefile{nav}{\headcommand {\slideentry {0}{0}{2}{2/2}{}{0}}}
\@writefile{nav}{\headcommand {\beamer@framepages {2}{2}}}
\citation{1}
\@writefile{toc}{\beamer@sectionintoc {1}{Aut\IeC {\^o}matos}{3}{0}{1}}
\@writefile{nav}{\headcommand {\sectionentry {1}{Aut\IeC {\^o}matos}{3}{Aut\IeC {\^o}matos}{0}}}
\@writefile{nav}{\headcommand {\beamer@sectionpages {1}{2}}}
\@writefile{nav}{\headcommand {\beamer@subsectionpages {1}{2}}}
\@writefile{toc}{\beamer@subsectionintoc {1}{1}{Introdu\IeC {\c c}\IeC {\~a}o}{3}{0}{1}}
\@writefile{nav}{\headcommand {\beamer@subsectionentry {0}{1}{1}{3}{Introdu\IeC {\c c}\IeC {\~a}o}}\headcommand {\beamer@subsectionpages {3}{2}}}
\citation{1}
\citation{1}
\citation{1}
\citation{1}
\@writefile{nav}{\headcommand {\slideentry {1}{1}{1}{3/7}{Introdu\IeC {\c c}\IeC {\~a}o}{0}}}
\@writefile{nav}{\headcommand {\beamer@framepages {3}{7}}}
\citation{2}
\@writefile{toc}{\beamer@subsectionintoc {1}{2}{Caracter\IeC {\'\i }sticas}{8}{0}{1}}
\@writefile{nav}{\headcommand {\beamer@subsectionentry {0}{1}{2}{8}{Caracter\IeC {\'\i }sticas}}\headcommand {\beamer@subsectionpages {3}{7}}}
\citation{2}
\citation{2}
\@writefile{nav}{\headcommand {\slideentry {1}{2}{1}{8/10}{Caracter\IeC {\'\i }sticas}{0}}}
\@writefile{nav}{\headcommand {\beamer@framepages {8}{10}}}
\citation{2}
\@writefile{toc}{\beamer@subsectionintoc {1}{3}{Aut\IeC {\^o}matos Finitos}{11}{0}{1}}
\@writefile{nav}{\headcommand {\beamer@subsectionentry {0}{1}{3}{11}{Aut\IeC {\^o}matos Finitos}}\headcommand {\beamer@subsectionpages {8}{10}}}
\citation{2}
\@writefile{nav}{\headcommand {\slideentry {1}{3}{1}{11/12}{Aut\IeC {\^o}matos Finitos}{0}}}
\@writefile{nav}{\headcommand {\beamer@framepages {11}{12}}}
\citation{3}
\citation{3}
\citation{3}
\citation{3}
\citation{3}
\citation{3}
\citation{3}
\@writefile{nav}{\headcommand {\slideentry {1}{3}{2}{13/19}{Aut\IeC {\^o}matos Finitos}{0}}}
\@writefile{nav}{\headcommand {\beamer@framepages {13}{19}}}
\@writefile{nav}{\headcommand {\slideentry {1}{3}{3}{20/29}{Aut\IeC {\^o}matos Finitos}{0}}}
\@writefile{nav}{\headcommand {\beamer@framepages {20}{29}}}
\citation{3}
\@writefile{toc}{\beamer@subsectionintoc {1}{4}{Aut\IeC {\^o}mato Finito Determin\IeC {\'\i }stico}{30}{0}{1}}
\@writefile{nav}{\headcommand {\beamer@subsectionentry {0}{1}{4}{30}{Aut\IeC {\^o}mato Finito Determin\IeC {\'\i }stico}}\headcommand {\beamer@subsectionpages {11}{29}}}
\citation{3}
\citation{3}
\citation{3}
\@writefile{nav}{\headcommand {\slideentry {1}{4}{1}{30/33}{Aut\IeC {\^o}mato Finito Determin\IeC {\'\i }stico}{0}}}
\@writefile{nav}{\headcommand {\beamer@framepages {30}{33}}}
\citation{3}
\@writefile{toc}{\beamer@subsectionintoc {1}{5}{Aut\IeC {\^o}mato Finito N\IeC {\~a}o-determin\IeC {\'\i }stico}{34}{0}{1}}
\@writefile{nav}{\headcommand {\beamer@subsectionentry {0}{1}{5}{34}{Aut\IeC {\^o}mato Finito N\IeC {\~a}o-determin\IeC {\'\i }stico}}\headcommand {\beamer@subsectionpages {30}{33}}}
\citation{3}
\citation{3}
\citation{3}
\@writefile{nav}{\headcommand {\slideentry {1}{5}{1}{34/37}{Aut\IeC {\^o}mato Finito N\IeC {\~a}o-determin\IeC {\'\i }stico}{0}}}
\@writefile{nav}{\headcommand {\beamer@framepages {34}{37}}}
\citation{5}
\@writefile{toc}{\beamer@subsectionintoc {1}{6}{AFN x AFND}{38}{0}{1}}
\@writefile{nav}{\headcommand {\beamer@subsectionentry {0}{1}{6}{38}{AFN x AFND}}\headcommand {\beamer@subsectionpages {34}{37}}}
\citation{5}
\citation{5}
\@writefile{nav}{\headcommand {\slideentry {1}{6}{1}{38/40}{AFN x AFND}{0}}}
\@writefile{nav}{\headcommand {\beamer@framepages {38}{40}}}
\@writefile{toc}{\beamer@subsectionintoc {1}{7}{Exerc\IeC {\'\i }cio}{41}{0}{1}}
\@writefile{nav}{\headcommand {\beamer@subsectionentry {0}{1}{7}{41}{Exerc\IeC {\'\i }cio}}\headcommand {\beamer@subsectionpages {38}{40}}}
\@writefile{nav}{\headcommand {\slideentry {1}{7}{1}{41/42}{Exerc\IeC {\'\i }cio}{0}}}
\@writefile{nav}{\headcommand {\beamer@framepages {41}{42}}}
\bibdata{talk}
\bibcite{1}{\hyperlink {beamerbib1}{AHO and Sethi, 2013}}
\bibcite{4}{\hyperlink {beamerbib4}{Louden, 2016}}
\bibcite{3}{\hyperlink {beamerbib3}{Prince and Toscani, 2015}}
\bibcite{2}{\hyperlink {beamerbib2}{Sebesta, 2014}}
\bibcite{5}{\hyperlink {beamerbib5}{Toscani, 2016}}
\bibstyle{apalike}
\@writefile{toc}{\beamer@sectionintoc {2}{Refer\IeC {\^e}ncias}{43}{0}{2}}
\@writefile{nav}{\headcommand {\sectionentry {2}{Refer\IeC {\^e}ncias}{43}{Refer\IeC {\^e}ncias}{0}}}
\@writefile{nav}{\headcommand {\beamer@sectionpages {3}{42}}}
\@writefile{nav}{\headcommand {\beamer@subsectionpages {41}{42}}}
\@writefile{nav}{\headcommand {\slideentry {2}{0}{1}{43/43}{}{0}}}
\@writefile{nav}{\headcommand {\beamer@framepages {43}{43}}}
\@writefile{toc}{\beamer@sectionintoc {3}{Fim}{44}{0}{3}}
\@writefile{nav}{\headcommand {\sectionentry {3}{Fim}{44}{Fim}{0}}}
\@writefile{nav}{\headcommand {\beamer@sectionpages {43}{43}}}
\@writefile{nav}{\headcommand {\beamer@subsectionpages {43}{43}}}
\@writefile{nav}{\headcommand {\slideentry {3}{0}{1}{44/44}{}{0}}}
\@writefile{nav}{\headcommand {\beamer@framepages {44}{44}}}
\@writefile{nav}{\headcommand {\beamer@partpages {1}{44}}}
\@writefile{nav}{\headcommand {\beamer@subsectionpages {44}{44}}}
\@writefile{nav}{\headcommand {\beamer@sectionpages {44}{44}}}
\@writefile{nav}{\headcommand {\beamer@documentpages {44}}}
\@writefile{nav}{\headcommand {\def \inserttotalframenumber {13}}}
