\relax 
\providecommand\hyper@newdestlabel[2]{}
\providecommand\HyperFirstAtBeginDocument{\AtBeginDocument}
\HyperFirstAtBeginDocument{\ifx\hyper@anchor\@undefined
\global\let\oldcontentsline\contentsline
\gdef\contentsline#1#2#3#4{\oldcontentsline{#1}{#2}{#3}}
\global\let\oldnewlabel\newlabel
\gdef\newlabel#1#2{\newlabelxx{#1}#2}
\gdef\newlabelxx#1#2#3#4#5#6{\oldnewlabel{#1}{{#2}{#3}}}
\AtEndDocument{\ifx\hyper@anchor\@undefined
\let\contentsline\oldcontentsline
\let\newlabel\oldnewlabel
\fi}
\fi}
\global\let\hyper@last\relax 
\gdef\HyperFirstAtBeginDocument#1{#1}
\providecommand\HyField@AuxAddToFields[1]{}
\providecommand\HyField@AuxAddToCoFields[2]{}
\catcode `"\active 
\@writefile{toc}{\beamer@endinputifotherversion {3.36pt}}
\@writefile{nav}{\beamer@endinputifotherversion {3.36pt}}
\select@language{brazilian}
\@writefile{toc}{\select@language{brazilian}}
\@writefile{lof}{\select@language{brazilian}}
\@writefile{lot}{\select@language{brazilian}}
\@writefile{nav}{\headcommand {\slideentry {0}{0}{1}{1/1}{}{0}}}
\@writefile{nav}{\headcommand {\beamer@framepages {1}{1}}}
\@writefile{nav}{\headcommand {\slideentry {0}{0}{2}{2/2}{}{0}}}
\@writefile{nav}{\headcommand {\beamer@framepages {2}{2}}}
\@writefile{nav}{\headcommand {\slideentry {0}{0}{2}{2/3}{}{0}}}
\@writefile{nav}{\headcommand {\beamer@framepages {2}{3}}}
\citation{1}
\@writefile{toc}{\beamer@sectionintoc {1}{Criptografia}{4}{0}{1}}
\@writefile{nav}{\headcommand {\sectionentry {1}{Criptografia}{4}{Criptografia}{0}}}
\@writefile{nav}{\headcommand {\beamer@sectionpages {1}{3}}}
\@writefile{nav}{\headcommand {\beamer@subsectionpages {1}{3}}}
\@writefile{toc}{\beamer@subsectionintoc {1}{1}{Fun\IeC {\c c}\IeC {\~o}es de hash criptogr\IeC {\'a}ficos}{4}{0}{1}}
\@writefile{nav}{\headcommand {\beamer@subsectionentry {0}{1}{1}{4}{Fun\IeC {\c c}\IeC {\~o}es de hash criptogr\IeC {\'a}ficos}}\headcommand {\beamer@subsectionpages {4}{3}}}
\citation{1}
\citation{1}
\citation{1}
\citation{1}
\citation{1}
\@writefile{nav}{\headcommand {\slideentry {1}{1}{1}{4/9}{Fun\IeC {\c c}\IeC {\~o}es de hash criptogr\IeC {\'a}ficos}{0}}}
\@writefile{nav}{\headcommand {\beamer@framepages {4}{9}}}
\@writefile{nav}{\headcommand {\slideentry {1}{1}{2}{10/11}{Fun\IeC {\c c}\IeC {\~o}es de hash criptogr\IeC {\'a}ficos}{0}}}
\@writefile{nav}{\headcommand {\beamer@framepages {10}{11}}}
\@writefile{toc}{\beamer@subsectionintoc {1}{2}{Ponteiro de hash e estruturas de dados}{12}{0}{1}}
\@writefile{nav}{\headcommand {\beamer@subsectionentry {0}{1}{2}{12}{Ponteiro de hash e estruturas de dados}}\headcommand {\beamer@subsectionpages {4}{11}}}
\@writefile{nav}{\headcommand {\slideentry {1}{2}{1}{12/17}{Ponteiro de hash e estruturas de dados}{0}}}
\@writefile{nav}{\headcommand {\beamer@framepages {12}{17}}}
\@writefile{nav}{\headcommand {\slideentry {1}{2}{2}{18/19}{Ponteiro de hash e estruturas de dados}{0}}}
\@writefile{nav}{\headcommand {\beamer@framepages {18}{19}}}
\@writefile{toc}{\beamer@subsectionintoc {1}{3}{Assinaturas digitais}{20}{0}{1}}
\@writefile{nav}{\headcommand {\beamer@subsectionentry {0}{1}{3}{20}{Assinaturas digitais}}\headcommand {\beamer@subsectionpages {12}{19}}}
\@writefile{nav}{\headcommand {\slideentry {1}{3}{1}{20/23}{Assinaturas digitais}{0}}}
\@writefile{nav}{\headcommand {\beamer@framepages {20}{23}}}
\@writefile{nav}{\headcommand {\slideentry {1}{3}{2}{24/27}{Assinaturas digitais}{0}}}
\@writefile{nav}{\headcommand {\beamer@framepages {24}{27}}}
\@writefile{nav}{\headcommand {\slideentry {1}{3}{3}{28/29}{Assinaturas digitais}{0}}}
\@writefile{nav}{\headcommand {\beamer@framepages {28}{29}}}
\@writefile{toc}{\beamer@subsectionintoc {1}{4}{Chaves p\IeC {\'u}blicas como identidades}{30}{0}{1}}
\@writefile{nav}{\headcommand {\beamer@subsectionentry {0}{1}{4}{30}{Chaves p\IeC {\'u}blicas como identidades}}\headcommand {\beamer@subsectionpages {20}{29}}}
\@writefile{nav}{\headcommand {\slideentry {1}{4}{1}{30/32}{Chaves p\IeC {\'u}blicas como identidades}{0}}}
\@writefile{nav}{\headcommand {\beamer@framepages {30}{32}}}
\@writefile{nav}{\headcommand {\slideentry {1}{4}{2}{33/37}{Chaves p\IeC {\'u}blicas como identidades}{0}}}
\@writefile{nav}{\headcommand {\beamer@framepages {33}{37}}}
\@writefile{nav}{\headcommand {\slideentry {1}{4}{3}{38/41}{Chaves p\IeC {\'u}blicas como identidades}{0}}}
\@writefile{nav}{\headcommand {\beamer@framepages {38}{41}}}
\@writefile{nav}{\headcommand {\slideentry {1}{4}{4}{42/44}{Chaves p\IeC {\'u}blicas como identidades}{0}}}
\@writefile{nav}{\headcommand {\beamer@framepages {42}{44}}}
\@writefile{toc}{\beamer@sectionintoc {2}{Decentraliza\IeC {\c c}\IeC {\~a}o}{45}{0}{2}}
\@writefile{nav}{\headcommand {\sectionentry {2}{Decentraliza\IeC {\c c}\IeC {\~a}o}{45}{Decentraliza\IeC {\c c}\IeC {\~a}o}{0}}}
\@writefile{nav}{\headcommand {\beamer@sectionpages {4}{44}}}
\@writefile{nav}{\headcommand {\beamer@subsectionpages {30}{44}}}
\@writefile{toc}{\beamer@subsectionintoc {2}{1}{Decentraliza\IeC {\c c}\IeC {\~a}o de arquivos Bitcoin}{45}{0}{2}}
\@writefile{nav}{\headcommand {\beamer@subsectionentry {0}{2}{1}{45}{Decentraliza\IeC {\c c}\IeC {\~a}o de arquivos Bitcoin}}\headcommand {\beamer@subsectionpages {45}{44}}}
\@writefile{nav}{\headcommand {\slideentry {2}{1}{1}{45/48}{Decentraliza\IeC {\c c}\IeC {\~a}o de arquivos Bitcoin}{0}}}
\@writefile{nav}{\headcommand {\beamer@framepages {45}{48}}}
\@writefile{toc}{\beamer@subsectionintoc {2}{2}{Concenso distribu\IeC {\'\i }do}{49}{0}{2}}
\@writefile{nav}{\headcommand {\beamer@subsectionentry {0}{2}{2}{49}{Concenso distribu\IeC {\'\i }do}}\headcommand {\beamer@subsectionpages {45}{48}}}
\@writefile{nav}{\headcommand {\slideentry {2}{2}{1}{49/51}{Concenso distribu\IeC {\'\i }do}{0}}}
\@writefile{nav}{\headcommand {\beamer@framepages {49}{51}}}
\@writefile{nav}{\headcommand {\slideentry {2}{2}{2}{52/54}{Concenso distribu\IeC {\'\i }do}{0}}}
\@writefile{nav}{\headcommand {\beamer@framepages {52}{54}}}
\@writefile{nav}{\headcommand {\slideentry {2}{2}{3}{55/56}{Concenso distribu\IeC {\'\i }do}{0}}}
\@writefile{nav}{\headcommand {\beamer@framepages {55}{56}}}
\@writefile{nav}{\headcommand {\slideentry {2}{2}{4}{57/62}{Concenso distribu\IeC {\'\i }do}{0}}}
\@writefile{nav}{\headcommand {\beamer@framepages {57}{62}}}
\@writefile{nav}{\headcommand {\slideentry {2}{2}{5}{63/65}{Concenso distribu\IeC {\'\i }do}{0}}}
\@writefile{nav}{\headcommand {\beamer@framepages {63}{65}}}
\@writefile{nav}{\headcommand {\slideentry {2}{2}{6}{66/68}{Concenso distribu\IeC {\'\i }do}{0}}}
\@writefile{nav}{\headcommand {\beamer@framepages {66}{68}}}
\@writefile{toc}{\beamer@subsectionintoc {2}{3}{Consensos sem identidade: o block chain}{69}{0}{2}}
\@writefile{nav}{\headcommand {\beamer@subsectionentry {0}{2}{3}{69}{Consensos sem identidade: o block chain}}\headcommand {\beamer@subsectionpages {49}{68}}}
\@writefile{nav}{\headcommand {\slideentry {2}{3}{1}{69/71}{Consensos sem identidade: o block chain}{0}}}
\@writefile{nav}{\headcommand {\beamer@framepages {69}{71}}}
\@writefile{nav}{\headcommand {\slideentry {2}{3}{2}{72/74}{Consensos sem identidade: o block chain}{0}}}
\@writefile{nav}{\headcommand {\beamer@framepages {72}{74}}}
\@writefile{nav}{\headcommand {\slideentry {2}{3}{3}{75/79}{Consensos sem identidade: o block chain}{0}}}
\@writefile{nav}{\headcommand {\beamer@framepages {75}{79}}}
\@writefile{nav}{\headcommand {\slideentry {2}{3}{4}{80/85}{Consensos sem identidade: o block chain}{0}}}
\@writefile{nav}{\headcommand {\beamer@framepages {80}{85}}}
\@writefile{nav}{\headcommand {\slideentry {2}{3}{5}{86/87}{Consensos sem identidade: o block chain}{0}}}
\@writefile{nav}{\headcommand {\beamer@framepages {86}{87}}}
\@writefile{nav}{\headcommand {\slideentry {2}{3}{6}{88/91}{Consensos sem identidade: o block chain}{0}}}
\@writefile{nav}{\headcommand {\beamer@framepages {88}{91}}}
\@writefile{toc}{\beamer@sectionintoc {3}{Proof of Work}{92}{0}{3}}
\@writefile{nav}{\headcommand {\sectionentry {3}{Proof of Work}{92}{Proof of Work}{0}}}
\@writefile{nav}{\headcommand {\beamer@sectionpages {45}{91}}}
\@writefile{nav}{\headcommand {\beamer@subsectionpages {69}{91}}}
\@writefile{toc}{\beamer@subsectionintoc {3}{1}{Incentivos e Proof of Work}{92}{0}{3}}
\@writefile{nav}{\headcommand {\beamer@subsectionentry {0}{3}{1}{92}{Incentivos e Proof of Work}}\headcommand {\beamer@subsectionpages {92}{91}}}
\@writefile{nav}{\headcommand {\slideentry {3}{1}{1}{92/97}{Incentivos e Proof of Work}{0}}}
\@writefile{nav}{\headcommand {\beamer@framepages {92}{97}}}
\@writefile{nav}{\headcommand {\slideentry {3}{1}{2}{98/101}{Incentivos e Proof of Work}{0}}}
\@writefile{nav}{\headcommand {\beamer@framepages {98}{101}}}
\@writefile{nav}{\headcommand {\slideentry {3}{1}{3}{102/105}{Incentivos e Proof of Work}{0}}}
\@writefile{nav}{\headcommand {\beamer@framepages {102}{105}}}
\@writefile{nav}{\headcommand {\slideentry {3}{1}{4}{106/109}{Incentivos e Proof of Work}{0}}}
\@writefile{nav}{\headcommand {\beamer@framepages {106}{109}}}
\@writefile{nav}{\headcommand {\slideentry {3}{1}{5}{110/113}{Incentivos e Proof of Work}{0}}}
\@writefile{nav}{\headcommand {\beamer@framepages {110}{113}}}
\@writefile{nav}{\headcommand {\slideentry {3}{1}{6}{114/115}{Incentivos e Proof of Work}{0}}}
\@writefile{nav}{\headcommand {\beamer@framepages {114}{115}}}
\@writefile{nav}{\headcommand {\slideentry {3}{1}{7}{116/119}{Incentivos e Proof of Work}{0}}}
\@writefile{nav}{\headcommand {\beamer@framepages {116}{119}}}
\@writefile{nav}{\headcommand {\slideentry {3}{1}{8}{120/123}{Incentivos e Proof of Work}{0}}}
\@writefile{nav}{\headcommand {\beamer@framepages {120}{123}}}
\@writefile{nav}{\headcommand {\slideentry {3}{1}{9}{124/126}{Incentivos e Proof of Work}{0}}}
\@writefile{nav}{\headcommand {\beamer@framepages {124}{126}}}
\@writefile{toc}{\beamer@sectionintoc {4}{Mecanismos}{127}{0}{4}}
\@writefile{nav}{\headcommand {\sectionentry {4}{Mecanismos}{127}{Mecanismos}{0}}}
\@writefile{nav}{\headcommand {\beamer@sectionpages {92}{126}}}
\@writefile{nav}{\headcommand {\beamer@subsectionpages {92}{126}}}
\@writefile{toc}{\beamer@subsectionintoc {4}{1}{Transa\IeC {\c c}\IeC {\~o}es Bitcoin}{127}{0}{4}}
\@writefile{nav}{\headcommand {\beamer@subsectionentry {0}{4}{1}{127}{Transa\IeC {\c c}\IeC {\~o}es Bitcoin}}\headcommand {\beamer@subsectionpages {127}{126}}}
\@writefile{nav}{\headcommand {\slideentry {4}{1}{1}{127/130}{Transa\IeC {\c c}\IeC {\~o}es Bitcoin}{0}}}
\@writefile{nav}{\headcommand {\beamer@framepages {127}{130}}}
\@writefile{nav}{\headcommand {\slideentry {4}{1}{2}{131/135}{Transa\IeC {\c c}\IeC {\~o}es Bitcoin}{0}}}
\@writefile{nav}{\headcommand {\beamer@framepages {131}{135}}}
\citation{1}
\@writefile{nav}{\headcommand {\slideentry {4}{1}{3}{136/137}{Transa\IeC {\c c}\IeC {\~o}es Bitcoin}{0}}}
\@writefile{nav}{\headcommand {\beamer@framepages {136}{137}}}
\@writefile{nav}{\headcommand {\slideentry {4}{1}{4}{138/141}{Transa\IeC {\c c}\IeC {\~o}es Bitcoin}{0}}}
\@writefile{nav}{\headcommand {\beamer@framepages {138}{141}}}
\@writefile{toc}{\beamer@subsectionintoc {4}{2}{Scripts Bitcoin}{142}{0}{4}}
\@writefile{nav}{\headcommand {\beamer@subsectionentry {0}{4}{2}{142}{Scripts Bitcoin}}\headcommand {\beamer@subsectionpages {127}{141}}}
\@writefile{nav}{\headcommand {\slideentry {4}{2}{1}{142/144}{Scripts Bitcoin}{0}}}
\@writefile{nav}{\headcommand {\beamer@framepages {142}{144}}}
\@writefile{nav}{\headcommand {\slideentry {4}{2}{2}{145/151}{Scripts Bitcoin}{0}}}
\@writefile{nav}{\headcommand {\beamer@framepages {145}{151}}}
\@writefile{nav}{\headcommand {\slideentry {4}{2}{3}{152/156}{Scripts Bitcoin}{0}}}
\@writefile{nav}{\headcommand {\beamer@framepages {152}{156}}}
\@writefile{nav}{\headcommand {\slideentry {4}{2}{4}{157/162}{Scripts Bitcoin}{0}}}
\@writefile{nav}{\headcommand {\beamer@framepages {157}{162}}}
\@writefile{toc}{\beamer@subsectionintoc {4}{3}{Blocos Bitcoin}{163}{0}{4}}
\@writefile{nav}{\headcommand {\beamer@subsectionentry {0}{4}{3}{163}{Blocos Bitcoin}}\headcommand {\beamer@subsectionpages {142}{162}}}
\@writefile{nav}{\headcommand {\slideentry {4}{3}{1}{163/165}{Blocos Bitcoin}{0}}}
\@writefile{nav}{\headcommand {\beamer@framepages {163}{165}}}
\@writefile{nav}{\headcommand {\slideentry {4}{3}{2}{166/167}{Blocos Bitcoin}{0}}}
\@writefile{nav}{\headcommand {\beamer@framepages {166}{167}}}
\@writefile{nav}{\headcommand {\slideentry {4}{3}{3}{168/170}{Blocos Bitcoin}{0}}}
\@writefile{nav}{\headcommand {\beamer@framepages {168}{170}}}
\@writefile{nav}{\headcommand {\slideentry {4}{3}{4}{171/172}{Blocos Bitcoin}{0}}}
\@writefile{nav}{\headcommand {\beamer@framepages {171}{172}}}
\@writefile{toc}{\beamer@subsectionintoc {4}{4}{Rede Bitcoin}{173}{0}{4}}
\@writefile{nav}{\headcommand {\beamer@subsectionentry {0}{4}{4}{173}{Rede Bitcoin}}\headcommand {\beamer@subsectionpages {163}{172}}}
\@writefile{nav}{\headcommand {\slideentry {4}{4}{1}{173/178}{Rede Bitcoin}{0}}}
\@writefile{nav}{\headcommand {\beamer@framepages {173}{178}}}
\@writefile{nav}{\headcommand {\slideentry {4}{4}{2}{179/182}{Rede Bitcoin}{0}}}
\@writefile{nav}{\headcommand {\beamer@framepages {179}{182}}}
\@writefile{nav}{\headcommand {\slideentry {4}{4}{3}{183/184}{Rede Bitcoin}{0}}}
\@writefile{nav}{\headcommand {\beamer@framepages {183}{184}}}
\@writefile{nav}{\headcommand {\slideentry {4}{4}{4}{185/189}{Rede Bitcoin}{0}}}
\@writefile{nav}{\headcommand {\beamer@framepages {185}{189}}}
\@writefile{nav}{\headcommand {\slideentry {4}{4}{5}{190/193}{Rede Bitcoin}{0}}}
\@writefile{nav}{\headcommand {\beamer@framepages {190}{193}}}
\@writefile{nav}{\headcommand {\slideentry {4}{4}{6}{194/197}{Rede Bitcoin}{0}}}
\@writefile{nav}{\headcommand {\beamer@framepages {194}{197}}}
\@writefile{toc}{\beamer@subsectionintoc {4}{5}{Limita\IeC {\c c}\IeC {\~o}es e melhorias}{198}{0}{4}}
\@writefile{nav}{\headcommand {\beamer@subsectionentry {0}{4}{5}{198}{Limita\IeC {\c c}\IeC {\~o}es e melhorias}}\headcommand {\beamer@subsectionpages {173}{197}}}
\@writefile{nav}{\headcommand {\slideentry {4}{5}{1}{198/204}{Limita\IeC {\c c}\IeC {\~o}es e melhorias}{0}}}
\@writefile{nav}{\headcommand {\beamer@framepages {198}{204}}}
\@writefile{nav}{\headcommand {\slideentry {4}{5}{2}{205/208}{Limita\IeC {\c c}\IeC {\~o}es e melhorias}{0}}}
\@writefile{nav}{\headcommand {\beamer@framepages {205}{208}}}
\citation{2}
\citation{3}
\citation{2}
\citation{3}
\citation{2}
\citation{3}
\citation{2}
\citation{3}
\@writefile{nav}{\headcommand {\slideentry {4}{5}{3}{209/212}{Limita\IeC {\c c}\IeC {\~o}es e melhorias}{0}}}
\@writefile{nav}{\headcommand {\beamer@framepages {209}{212}}}
\@writefile{toc}{\beamer@sectionintoc {5}{Armazenamento}{213}{0}{5}}
\@writefile{nav}{\headcommand {\sectionentry {5}{Armazenamento}{213}{Armazenamento}{0}}}
\@writefile{nav}{\headcommand {\beamer@sectionpages {127}{212}}}
\@writefile{nav}{\headcommand {\beamer@subsectionpages {198}{212}}}
\@writefile{toc}{\beamer@subsectionintoc {5}{1}{Armazenamento local}{213}{0}{5}}
\@writefile{nav}{\headcommand {\beamer@subsectionentry {0}{5}{1}{213}{Armazenamento local}}\headcommand {\beamer@subsectionpages {213}{212}}}
\@writefile{nav}{\headcommand {\slideentry {5}{1}{1}{213/216}{Armazenamento local}{0}}}
\@writefile{nav}{\headcommand {\beamer@framepages {213}{216}}}
\@writefile{nav}{\headcommand {\slideentry {5}{1}{2}{217/220}{Armazenamento local}{0}}}
\@writefile{nav}{\headcommand {\beamer@framepages {217}{220}}}
\@writefile{nav}{\headcommand {\slideentry {5}{1}{3}{221/224}{Armazenamento local}{0}}}
\@writefile{nav}{\headcommand {\beamer@framepages {221}{224}}}
\@writefile{nav}{\headcommand {\slideentry {5}{1}{4}{225/227}{Armazenamento local}{0}}}
\@writefile{nav}{\headcommand {\beamer@framepages {225}{227}}}
\@writefile{toc}{\beamer@subsectionintoc {5}{2}{Armazenamento quente ou frio}{228}{0}{5}}
\@writefile{nav}{\headcommand {\beamer@subsectionentry {0}{5}{2}{228}{Armazenamento quente ou frio}}\headcommand {\beamer@subsectionpages {213}{227}}}
\@writefile{nav}{\headcommand {\slideentry {5}{2}{1}{228/231}{Armazenamento quente ou frio}{0}}}
\@writefile{nav}{\headcommand {\beamer@framepages {228}{231}}}
\@writefile{nav}{\headcommand {\slideentry {5}{2}{2}{232/235}{Armazenamento quente ou frio}{0}}}
\@writefile{nav}{\headcommand {\beamer@framepages {232}{235}}}
\@writefile{toc}{\beamer@subsectionintoc {5}{3}{Wallet online e interc\IeC {\^a}mbios}{236}{0}{5}}
\@writefile{nav}{\headcommand {\beamer@subsectionentry {0}{5}{3}{236}{Wallet online e interc\IeC {\^a}mbios}}\headcommand {\beamer@subsectionpages {228}{235}}}
\@writefile{nav}{\headcommand {\slideentry {5}{3}{1}{236/238}{Wallet online e interc\IeC {\^a}mbios}{0}}}
\@writefile{nav}{\headcommand {\beamer@framepages {236}{238}}}
\@writefile{nav}{\headcommand {\slideentry {5}{3}{2}{239/241}{Wallet online e interc\IeC {\^a}mbios}{0}}}
\@writefile{nav}{\headcommand {\beamer@framepages {239}{241}}}
\@writefile{nav}{\headcommand {\slideentry {5}{3}{3}{242/246}{Wallet online e interc\IeC {\^a}mbios}{0}}}
\@writefile{nav}{\headcommand {\beamer@framepages {242}{246}}}
\@writefile{nav}{\headcommand {\slideentry {5}{3}{4}{247/249}{Wallet online e interc\IeC {\^a}mbios}{0}}}
\@writefile{nav}{\headcommand {\beamer@framepages {247}{249}}}
\@writefile{toc}{\beamer@subsectionintoc {5}{4}{Servi\IeC {\c c}os de pagamentos}{250}{0}{5}}
\@writefile{nav}{\headcommand {\beamer@subsectionentry {0}{5}{4}{250}{Servi\IeC {\c c}os de pagamentos}}\headcommand {\beamer@subsectionpages {236}{249}}}
\@writefile{nav}{\headcommand {\slideentry {5}{4}{1}{250/253}{Servi\IeC {\c c}os de pagamentos}{0}}}
\@writefile{nav}{\headcommand {\beamer@framepages {250}{253}}}
\@writefile{nav}{\headcommand {\slideentry {5}{4}{2}{254/258}{Servi\IeC {\c c}os de pagamentos}{0}}}
\@writefile{nav}{\headcommand {\beamer@framepages {254}{258}}}
\citation{3}
\citation{4}
\citation{3}
\citation{4}
\citation{3}
\citation{4}
\citation{3}
\citation{4}
\citation{3}
\citation{4}
\citation{3}
\citation{4}
\citation{3}
\citation{4}
\@writefile{nav}{\headcommand {\slideentry {5}{4}{3}{259/265}{Servi\IeC {\c c}os de pagamentos}{0}}}
\@writefile{nav}{\headcommand {\beamer@framepages {259}{265}}}
\@writefile{toc}{\beamer@subsectionintoc {5}{5}{Atual mercado de interc\IeC {\^a}mbio}{266}{0}{5}}
\@writefile{nav}{\headcommand {\beamer@subsectionentry {0}{5}{5}{266}{Atual mercado de interc\IeC {\^a}mbio}}\headcommand {\beamer@subsectionpages {250}{265}}}
\@writefile{nav}{\headcommand {\slideentry {5}{5}{1}{266/269}{Atual mercado de interc\IeC {\^a}mbio}{0}}}
\@writefile{nav}{\headcommand {\beamer@framepages {266}{269}}}
\@writefile{nav}{\headcommand {\slideentry {5}{5}{2}{270/271}{Atual mercado de interc\IeC {\^a}mbio}{0}}}
\@writefile{nav}{\headcommand {\beamer@framepages {270}{271}}}
\@writefile{nav}{\headcommand {\slideentry {5}{5}{3}{272/278}{Atual mercado de interc\IeC {\^a}mbio}{0}}}
\@writefile{nav}{\headcommand {\beamer@framepages {272}{278}}}
\bibdata{talk}
\bibcite{3}{\hyperlink {beamerbib3}{Biryukov et~al., 2014}}
\bibcite{1}{\hyperlink {beamerbib1}{Hobson, 2013}}
\bibcite{4}{\hyperlink {beamerbib4}{Karame, 2012}}
\bibcite{2}{\hyperlink {beamerbib2}{Nakamoto, 2015}}
\bibstyle{apalike}
\@writefile{toc}{\beamer@sectionintoc {6}{Fim}{279}{0}{6}}
\@writefile{nav}{\headcommand {\sectionentry {6}{Fim}{279}{Fim}{0}}}
\@writefile{nav}{\headcommand {\beamer@sectionpages {213}{278}}}
\@writefile{nav}{\headcommand {\beamer@subsectionpages {266}{278}}}
\@writefile{nav}{\headcommand {\slideentry {6}{0}{1}{279/279}{}{0}}}
\@writefile{nav}{\headcommand {\beamer@framepages {279}{279}}}
\@writefile{nav}{\headcommand {\slideentry {6}{0}{2}{280/280}{}{0}}}
\@writefile{nav}{\headcommand {\beamer@framepages {280}{280}}}
\@writefile{nav}{\headcommand {\beamer@partpages {1}{280}}}
\@writefile{nav}{\headcommand {\beamer@subsectionpages {279}{280}}}
\@writefile{nav}{\headcommand {\beamer@sectionpages {279}{280}}}
\@writefile{nav}{\headcommand {\beamer@documentpages {280}}}
\@writefile{nav}{\headcommand {\def \inserttotalframenumber {75}}}
