This is pdfTeX, Version 3.14159265-2.6-1.40.17 (TeX Live 2016) (preloaded format=pdflatex 2017.7.7)  26 JUL 2017 15:08
entering extended mode
 restricted \write18 enabled.
 %&-line parsing enabled.
**talk
(./talk.tex
LaTeX2e <2016/03/31>
Babel <3.9r> and hyphenation patterns for 83 language(s) loaded.

(/gnu/store/94yjdjy5845ig22wk4nch2964hh3vh3y-texlive-texmf-2016/share/texmf-dis
t/tex/latex/beamer/beamer.cls
(/gnu/store/94yjdjy5845ig22wk4nch2964hh3vh3y-texlive-texmf-2016/share/texmf-dis
t/tex/latex/beamer/beamerbasercs.sty
Package: beamerbasercs 2015/03/08 (rcs-revision 368aa9ba9d38)
)
Document Class: beamer 2015/01/05 3.36 A class for typesetting presentations (r
cs-revision 8a39122e1f63)

(/gnu/store/94yjdjy5845ig22wk4nch2964hh3vh3y-texlive-texmf-2016/share/texmf-dis
t/tex/latex/beamer/beamerbasemodes.sty
Package: beamerbasemodes 2013/09/03 (rcs-revision 768f2d98ca64)
\beamer@tempbox=\box26
\beamer@tempcount=\count79
\c@beamerpauses=\count80

(/gnu/store/94yjdjy5845ig22wk4nch2964hh3vh3y-texlive-texmf-2016/share/texmf-dis
t/tex/latex/beamer/beamerbasedecode.sty
Package: beamerbasedecode 2010/05/01 (rcs-revision efa082c6111d)
\beamer@slideinframe=\count81
\beamer@minimum=\count82
)
\beamer@commentbox=\box27
\beamer@modecount=\count83
)
(/gnu/store/94yjdjy5845ig22wk4nch2964hh3vh3y-texlive-texmf-2016/share/texmf-dis
t/tex/generic/oberdiek/ifpdf.sty
Package: ifpdf 2016/05/14 v3.1 Provides the ifpdf switch
)
\headheight=\dimen102
\headdp=\dimen103
\footheight=\dimen104
\sidebarheight=\dimen105
\beamer@tempdim=\dimen106
\beamer@finalheight=\dimen107
\beamer@animht=\dimen108
\beamer@animdp=\dimen109
\beamer@animwd=\dimen110
\beamer@leftmargin=\dimen111
\beamer@rightmargin=\dimen112
\beamer@leftsidebar=\dimen113
\beamer@rightsidebar=\dimen114
\beamer@boxsize=\dimen115
\beamer@vboxoffset=\dimen116
\beamer@descdefault=\dimen117
\beamer@descriptionwidth=\dimen118
\beamer@lastskip=\skip41
\beamer@areabox=\box28
\beamer@animcurrent=\box29
\beamer@animshowbox=\box30
\beamer@sectionbox=\box31
\beamer@logobox=\box32
\beamer@linebox=\box33
\beamer@sectioncount=\count84
\beamer@subsubsectionmax=\count85
\beamer@subsectionmax=\count86
\beamer@sectionmax=\count87
\beamer@totalheads=\count88
\beamer@headcounter=\count89
\beamer@partstartpage=\count90
\beamer@sectionstartpage=\count91
\beamer@subsectionstartpage=\count92
\beamer@animationtempa=\count93
\beamer@animationtempb=\count94
\beamer@xpos=\count95
\beamer@ypos=\count96
\beamer@showpartnumber=\count97
\beamer@currentsubsection=\count98
\beamer@coveringdepth=\count99
\beamer@sectionadjust=\count100
\beamer@tocsectionnumber=\count101

(/gnu/store/94yjdjy5845ig22wk4nch2964hh3vh3y-texlive-texmf-2016/share/texmf-dis
t/tex/latex/beamer/beamerbaseoptions.sty
Package: beamerbaseoptions 2013/03/10 (rcs-revision 47431932db0d)

(/gnu/store/94yjdjy5845ig22wk4nch2964hh3vh3y-texlive-texmf-2016/share/texmf-dis
t/tex/latex/graphics/keyval.sty
Package: keyval 2014/10/28 v1.15 key=value parser (DPC)
\KV@toks@=\toks14
))
\beamer@paperwidth=\skip42
\beamer@paperheight=\skip43

(/gnu/store/94yjdjy5845ig22wk4nch2964hh3vh3y-texlive-texmf-2016/share/texmf-dis
t/tex/latex/geometry/geometry.sty
Package: geometry 2010/09/12 v5.6 Page Geometry

(/gnu/store/94yjdjy5845ig22wk4nch2964hh3vh3y-texlive-texmf-2016/share/texmf-dis
t/tex/generic/oberdiek/ifvtex.sty
Package: ifvtex 2016/05/16 v1.6 Detect VTeX and its facilities (HO)
Package ifvtex Info: VTeX not detected.
)
(/gnu/store/94yjdjy5845ig22wk4nch2964hh3vh3y-texlive-texmf-2016/share/texmf-dis
t/tex/generic/ifxetex/ifxetex.sty
Package: ifxetex 2010/09/12 v0.6 Provides ifxetex conditional
)
\Gm@cnth=\count102
\Gm@cntv=\count103
\c@Gm@tempcnt=\count104
\Gm@bindingoffset=\dimen119
\Gm@wd@mp=\dimen120
\Gm@odd@mp=\dimen121
\Gm@even@mp=\dimen122
\Gm@layoutwidth=\dimen123
\Gm@layoutheight=\dimen124
\Gm@layouthoffset=\dimen125
\Gm@layoutvoffset=\dimen126
\Gm@dimlist=\toks15
)
(/gnu/store/94yjdjy5845ig22wk4nch2964hh3vh3y-texlive-texmf-2016/share/texmf-dis
t/tex/latex/base/size11.clo
File: size11.clo 2014/09/29 v1.4h Standard LaTeX file (size option)
)
(/gnu/store/94yjdjy5845ig22wk4nch2964hh3vh3y-texlive-texmf-2016/share/texmf-dis
t/tex/latex/pgf/basiclayer/pgfcore.sty
(/gnu/store/94yjdjy5845ig22wk4nch2964hh3vh3y-texlive-texmf-2016/share/texmf-dis
t/tex/latex/graphics/graphicx.sty
Package: graphicx 2014/10/28 v1.0g Enhanced LaTeX Graphics (DPC,SPQR)

(/gnu/store/94yjdjy5845ig22wk4nch2964hh3vh3y-texlive-texmf-2016/share/texmf-dis
t/tex/latex/graphics/graphics.sty
Package: graphics 2016/05/09 v1.0r Standard LaTeX Graphics (DPC,SPQR)

(/gnu/store/94yjdjy5845ig22wk4nch2964hh3vh3y-texlive-texmf-2016/share/texmf-dis
t/tex/latex/graphics/trig.sty
Package: trig 2016/01/03 v1.10 sin cos tan (DPC)
)
(/gnu/store/94yjdjy5845ig22wk4nch2964hh3vh3y-texlive-texmf-2016/share/texmf-dis
t/tex/latex/graphics-cfg/graphics.cfg
File: graphics.cfg 2016/01/02 v1.10 sample graphics configuration
)
Package graphics Info: Driver file: pdftex.def on input line 96.

(/gnu/store/94yjdjy5845ig22wk4nch2964hh3vh3y-texlive-texmf-2016/share/texmf-dis
t/tex/latex/pdftex-def/pdftex.def
File: pdftex.def 2011/05/27 v0.06d Graphics/color for pdfTeX

(/gnu/store/94yjdjy5845ig22wk4nch2964hh3vh3y-texlive-texmf-2016/share/texmf-dis
t/tex/generic/oberdiek/infwarerr.sty
Package: infwarerr 2016/05/16 v1.4 Providing info/warning/error messages (HO)
)
(/gnu/store/94yjdjy5845ig22wk4nch2964hh3vh3y-texlive-texmf-2016/share/texmf-dis
t/tex/generic/oberdiek/ltxcmds.sty
Package: ltxcmds 2016/05/16 v1.23 LaTeX kernel commands for general use (HO)
)
\Gread@gobject=\count105
))
\Gin@req@height=\dimen127
\Gin@req@width=\dimen128
)
(/gnu/store/94yjdjy5845ig22wk4nch2964hh3vh3y-texlive-texmf-2016/share/texmf-dis
t/tex/latex/pgf/systemlayer/pgfsys.sty
(/gnu/store/94yjdjy5845ig22wk4nch2964hh3vh3y-texlive-texmf-2016/share/texmf-dis
t/tex/latex/pgf/utilities/pgfrcs.sty
(/gnu/store/94yjdjy5845ig22wk4nch2964hh3vh3y-texlive-texmf-2016/share/texmf-dis
t/tex/generic/pgf/utilities/pgfutil-common.tex
\pgfutil@everybye=\toks16
\pgfutil@tempdima=\dimen129
\pgfutil@tempdimb=\dimen130

(/gnu/store/94yjdjy5845ig22wk4nch2964hh3vh3y-texlive-texmf-2016/share/texmf-dis
t/tex/generic/pgf/utilities/pgfutil-common-lists.tex))
(/gnu/store/94yjdjy5845ig22wk4nch2964hh3vh3y-texlive-texmf-2016/share/texmf-dis
t/tex/generic/pgf/utilities/pgfutil-latex.def
\pgfutil@abb=\box34

(/gnu/store/94yjdjy5845ig22wk4nch2964hh3vh3y-texlive-texmf-2016/share/texmf-dis
t/tex/latex/ms/everyshi.sty
Package: everyshi 2001/05/15 v3.00 EveryShipout Package (MS)
))
(/gnu/store/94yjdjy5845ig22wk4nch2964hh3vh3y-texlive-texmf-2016/share/texmf-dis
t/tex/generic/pgf/utilities/pgfrcs.code.tex
Package: pgfrcs 2015/08/07 v3.0.1a (rcs-revision 1.31)
))
(/gnu/store/94yjdjy5845ig22wk4nch2964hh3vh3y-texlive-texmf-2016/share/texmf-dis
t/tex/generic/pgf/systemlayer/pgfsys.code.tex
Package: pgfsys 2014/07/09 v3.0.1a (rcs-revision 1.48)

(/gnu/store/94yjdjy5845ig22wk4nch2964hh3vh3y-texlive-texmf-2016/share/texmf-dis
t/tex/generic/pgf/utilities/pgfkeys.code.tex
\pgfkeys@pathtoks=\toks17
\pgfkeys@temptoks=\toks18

(/gnu/store/94yjdjy5845ig22wk4nch2964hh3vh3y-texlive-texmf-2016/share/texmf-dis
t/tex/generic/pgf/utilities/pgfkeysfiltered.code.tex
\pgfkeys@tmptoks=\toks19
))
\pgf@x=\dimen131
\pgf@y=\dimen132
\pgf@xa=\dimen133
\pgf@ya=\dimen134
\pgf@xb=\dimen135
\pgf@yb=\dimen136
\pgf@xc=\dimen137
\pgf@yc=\dimen138
\w@pgf@writea=\write3
\r@pgf@reada=\read1
\c@pgf@counta=\count106
\c@pgf@countb=\count107
\c@pgf@countc=\count108
\c@pgf@countd=\count109
\t@pgf@toka=\toks20
\t@pgf@tokb=\toks21
\t@pgf@tokc=\toks22

(/gnu/store/94yjdjy5845ig22wk4nch2964hh3vh3y-texlive-texmf-2016/share/texmf-dis
t/tex/generic/pgf/systemlayer/pgf.cfg
File: pgf.cfg 2008/05/14  (rcs-revision 1.7)
)
Driver file for pgf: pgfsys-pdftex.def

(/gnu/store/94yjdjy5845ig22wk4nch2964hh3vh3y-texlive-texmf-2016/share/texmf-dis
t/tex/generic/pgf/systemlayer/pgfsys-pdftex.def
File: pgfsys-pdftex.def 2014/10/11  (rcs-revision 1.35)

(/gnu/store/94yjdjy5845ig22wk4nch2964hh3vh3y-texlive-texmf-2016/share/texmf-dis
t/tex/generic/pgf/systemlayer/pgfsys-common-pdf.def
File: pgfsys-common-pdf.def 2013/10/10  (rcs-revision 1.13)
)))
(/gnu/store/94yjdjy5845ig22wk4nch2964hh3vh3y-texlive-texmf-2016/share/texmf-dis
t/tex/generic/pgf/systemlayer/pgfsyssoftpath.code.tex
File: pgfsyssoftpath.code.tex 2013/09/09  (rcs-revision 1.9)
\pgfsyssoftpath@smallbuffer@items=\count110
\pgfsyssoftpath@bigbuffer@items=\count111
)
(/gnu/store/94yjdjy5845ig22wk4nch2964hh3vh3y-texlive-texmf-2016/share/texmf-dis
t/tex/generic/pgf/systemlayer/pgfsysprotocol.code.tex
File: pgfsysprotocol.code.tex 2006/10/16  (rcs-revision 1.4)
))
(/gnu/store/94yjdjy5845ig22wk4nch2964hh3vh3y-texlive-texmf-2016/share/texmf-dis
t/tex/latex/xcolor/xcolor.sty
Package: xcolor 2016/05/11 v2.12 LaTeX color extensions (UK)

(/gnu/store/94yjdjy5845ig22wk4nch2964hh3vh3y-texlive-texmf-2016/share/texmf-dis
t/tex/latex/graphics-cfg/color.cfg
File: color.cfg 2016/01/02 v1.6 sample color configuration
)
Package xcolor Info: Driver file: pdftex.def on input line 225.
Package xcolor Info: Model `cmy' substituted by `cmy0' on input line 1348.
Package xcolor Info: Model `hsb' substituted by `rgb' on input line 1352.
Package xcolor Info: Model `RGB' extended on input line 1364.
Package xcolor Info: Model `HTML' substituted by `rgb' on input line 1366.
Package xcolor Info: Model `Hsb' substituted by `hsb' on input line 1367.
Package xcolor Info: Model `tHsb' substituted by `hsb' on input line 1368.
Package xcolor Info: Model `HSB' substituted by `hsb' on input line 1369.
Package xcolor Info: Model `Gray' substituted by `gray' on input line 1370.
Package xcolor Info: Model `wave' substituted by `hsb' on input line 1371.
)
(/gnu/store/94yjdjy5845ig22wk4nch2964hh3vh3y-texlive-texmf-2016/share/texmf-dis
t/tex/generic/pgf/basiclayer/pgfcore.code.tex
Package: pgfcore 2010/04/11 v3.0.1a (rcs-revision 1.7)

(/gnu/store/94yjdjy5845ig22wk4nch2964hh3vh3y-texlive-texmf-2016/share/texmf-dis
t/tex/generic/pgf/math/pgfmath.code.tex
(/gnu/store/94yjdjy5845ig22wk4nch2964hh3vh3y-texlive-texmf-2016/share/texmf-dis
t/tex/generic/pgf/math/pgfmathcalc.code.tex
(/gnu/store/94yjdjy5845ig22wk4nch2964hh3vh3y-texlive-texmf-2016/share/texmf-dis
t/tex/generic/pgf/math/pgfmathutil.code.tex)
(/gnu/store/94yjdjy5845ig22wk4nch2964hh3vh3y-texlive-texmf-2016/share/texmf-dis
t/tex/generic/pgf/math/pgfmathparser.code.tex
\pgfmath@dimen=\dimen139
\pgfmath@count=\count112
\pgfmath@box=\box35
\pgfmath@toks=\toks23
\pgfmath@stack@operand=\toks24
\pgfmath@stack@operation=\toks25
)
(/gnu/store/94yjdjy5845ig22wk4nch2964hh3vh3y-texlive-texmf-2016/share/texmf-dis
t/tex/generic/pgf/math/pgfmathfunctions.code.tex
(/gnu/store/94yjdjy5845ig22wk4nch2964hh3vh3y-texlive-texmf-2016/share/texmf-dis
t/tex/generic/pgf/math/pgfmathfunctions.basic.code.tex)
(/gnu/store/94yjdjy5845ig22wk4nch2964hh3vh3y-texlive-texmf-2016/share/texmf-dis
t/tex/generic/pgf/math/pgfmathfunctions.trigonometric.code.tex)
(/gnu/store/94yjdjy5845ig22wk4nch2964hh3vh3y-texlive-texmf-2016/share/texmf-dis
t/tex/generic/pgf/math/pgfmathfunctions.random.code.tex)
(/gnu/store/94yjdjy5845ig22wk4nch2964hh3vh3y-texlive-texmf-2016/share/texmf-dis
t/tex/generic/pgf/math/pgfmathfunctions.comparison.code.tex)
(/gnu/store/94yjdjy5845ig22wk4nch2964hh3vh3y-texlive-texmf-2016/share/texmf-dis
t/tex/generic/pgf/math/pgfmathfunctions.base.code.tex)
(/gnu/store/94yjdjy5845ig22wk4nch2964hh3vh3y-texlive-texmf-2016/share/texmf-dis
t/tex/generic/pgf/math/pgfmathfunctions.round.code.tex)
(/gnu/store/94yjdjy5845ig22wk4nch2964hh3vh3y-texlive-texmf-2016/share/texmf-dis
t/tex/generic/pgf/math/pgfmathfunctions.misc.code.tex)
(/gnu/store/94yjdjy5845ig22wk4nch2964hh3vh3y-texlive-texmf-2016/share/texmf-dis
t/tex/generic/pgf/math/pgfmathfunctions.integerarithmetics.code.tex)))
(/gnu/store/94yjdjy5845ig22wk4nch2964hh3vh3y-texlive-texmf-2016/share/texmf-dis
t/tex/generic/pgf/math/pgfmathfloat.code.tex
\c@pgfmathroundto@lastzeros=\count113
))
(/gnu/store/94yjdjy5845ig22wk4nch2964hh3vh3y-texlive-texmf-2016/share/texmf-dis
t/tex/generic/pgf/basiclayer/pgfcorepoints.code.tex
File: pgfcorepoints.code.tex 2013/10/07  (rcs-revision 1.27)
\pgf@picminx=\dimen140
\pgf@picmaxx=\dimen141
\pgf@picminy=\dimen142
\pgf@picmaxy=\dimen143
\pgf@pathminx=\dimen144
\pgf@pathmaxx=\dimen145
\pgf@pathminy=\dimen146
\pgf@pathmaxy=\dimen147
\pgf@xx=\dimen148
\pgf@xy=\dimen149
\pgf@yx=\dimen150
\pgf@yy=\dimen151
\pgf@zx=\dimen152
\pgf@zy=\dimen153
)
(/gnu/store/94yjdjy5845ig22wk4nch2964hh3vh3y-texlive-texmf-2016/share/texmf-dis
t/tex/generic/pgf/basiclayer/pgfcorepathconstruct.code.tex
File: pgfcorepathconstruct.code.tex 2013/10/07  (rcs-revision 1.29)
\pgf@path@lastx=\dimen154
\pgf@path@lasty=\dimen155
)
(/gnu/store/94yjdjy5845ig22wk4nch2964hh3vh3y-texlive-texmf-2016/share/texmf-dis
t/tex/generic/pgf/basiclayer/pgfcorepathusage.code.tex
File: pgfcorepathusage.code.tex 2014/11/02  (rcs-revision 1.24)
\pgf@shorten@end@additional=\dimen156
\pgf@shorten@start@additional=\dimen157
)
(/gnu/store/94yjdjy5845ig22wk4nch2964hh3vh3y-texlive-texmf-2016/share/texmf-dis
t/tex/generic/pgf/basiclayer/pgfcorescopes.code.tex
File: pgfcorescopes.code.tex 2015/05/08  (rcs-revision 1.46)
\pgfpic=\box36
\pgf@hbox=\box37
\pgf@layerbox@main=\box38
\pgf@picture@serial@count=\count114
)
(/gnu/store/94yjdjy5845ig22wk4nch2964hh3vh3y-texlive-texmf-2016/share/texmf-dis
t/tex/generic/pgf/basiclayer/pgfcoregraphicstate.code.tex
File: pgfcoregraphicstate.code.tex 2014/11/02  (rcs-revision 1.12)
\pgflinewidth=\dimen158
)
(/gnu/store/94yjdjy5845ig22wk4nch2964hh3vh3y-texlive-texmf-2016/share/texmf-dis
t/tex/generic/pgf/basiclayer/pgfcoretransformations.code.tex
File: pgfcoretransformations.code.tex 2015/08/07  (rcs-revision 1.20)
\pgf@pt@x=\dimen159
\pgf@pt@y=\dimen160
\pgf@pt@temp=\dimen161
)
(/gnu/store/94yjdjy5845ig22wk4nch2964hh3vh3y-texlive-texmf-2016/share/texmf-dis
t/tex/generic/pgf/basiclayer/pgfcorequick.code.tex
File: pgfcorequick.code.tex 2008/10/09  (rcs-revision 1.3)
)
(/gnu/store/94yjdjy5845ig22wk4nch2964hh3vh3y-texlive-texmf-2016/share/texmf-dis
t/tex/generic/pgf/basiclayer/pgfcoreobjects.code.tex
File: pgfcoreobjects.code.tex 2006/10/11  (rcs-revision 1.2)
)
(/gnu/store/94yjdjy5845ig22wk4nch2964hh3vh3y-texlive-texmf-2016/share/texmf-dis
t/tex/generic/pgf/basiclayer/pgfcorepathprocessing.code.tex
File: pgfcorepathprocessing.code.tex 2013/09/09  (rcs-revision 1.9)
)
(/gnu/store/94yjdjy5845ig22wk4nch2964hh3vh3y-texlive-texmf-2016/share/texmf-dis
t/tex/generic/pgf/basiclayer/pgfcorearrows.code.tex
File: pgfcorearrows.code.tex 2015/05/14  (rcs-revision 1.43)
\pgfarrowsep=\dimen162
)
(/gnu/store/94yjdjy5845ig22wk4nch2964hh3vh3y-texlive-texmf-2016/share/texmf-dis
t/tex/generic/pgf/basiclayer/pgfcoreshade.code.tex
File: pgfcoreshade.code.tex 2013/07/15  (rcs-revision 1.15)
\pgf@max=\dimen163
\pgf@sys@shading@range@num=\count115
)
(/gnu/store/94yjdjy5845ig22wk4nch2964hh3vh3y-texlive-texmf-2016/share/texmf-dis
t/tex/generic/pgf/basiclayer/pgfcoreimage.code.tex
File: pgfcoreimage.code.tex 2013/07/15  (rcs-revision 1.18)

(/gnu/store/94yjdjy5845ig22wk4nch2964hh3vh3y-texlive-texmf-2016/share/texmf-dis
t/tex/generic/pgf/basiclayer/pgfcoreexternal.code.tex
File: pgfcoreexternal.code.tex 2014/07/09  (rcs-revision 1.21)
\pgfexternal@startupbox=\box39
))
(/gnu/store/94yjdjy5845ig22wk4nch2964hh3vh3y-texlive-texmf-2016/share/texmf-dis
t/tex/generic/pgf/basiclayer/pgfcorelayers.code.tex
File: pgfcorelayers.code.tex 2013/07/18  (rcs-revision 1.7)
)
(/gnu/store/94yjdjy5845ig22wk4nch2964hh3vh3y-texlive-texmf-2016/share/texmf-dis
t/tex/generic/pgf/basiclayer/pgfcoretransparency.code.tex
File: pgfcoretransparency.code.tex 2013/09/30  (rcs-revision 1.5)
)
(/gnu/store/94yjdjy5845ig22wk4nch2964hh3vh3y-texlive-texmf-2016/share/texmf-dis
t/tex/generic/pgf/basiclayer/pgfcorepatterns.code.tex
File: pgfcorepatterns.code.tex 2013/11/07  (rcs-revision 1.5)
)))
(/gnu/store/94yjdjy5845ig22wk4nch2964hh3vh3y-texlive-texmf-2016/share/texmf-dis
t/tex/latex/pgf/utilities/xxcolor.sty
Package: xxcolor 2003/10/24 ver 0.1
\XC@nummixins=\count116
\XC@countmixins=\count117
)
(/gnu/store/94yjdjy5845ig22wk4nch2964hh3vh3y-texlive-texmf-2016/share/texmf-dis
t/tex/generic/oberdiek/atbegshi.sty
Package: atbegshi 2016/05/16 v1.17 At begin shipout hook (HO)
)
(/gnu/store/94yjdjy5845ig22wk4nch2964hh3vh3y-texlive-texmf-2016/share/texmf-dis
t/tex/latex/hyperref/hyperref.sty
Package: hyperref 2016/05/05 v6.83n Hypertext links for LaTeX

(/gnu/store/94yjdjy5845ig22wk4nch2964hh3vh3y-texlive-texmf-2016/share/texmf-dis
t/tex/generic/oberdiek/hobsub-hyperref.sty
Package: hobsub-hyperref 2016/05/16 v1.14 Bundle oberdiek, subset hyperref (HO)


(/gnu/store/94yjdjy5845ig22wk4nch2964hh3vh3y-texlive-texmf-2016/share/texmf-dis
t/tex/generic/oberdiek/hobsub-generic.sty
Package: hobsub-generic 2016/05/16 v1.14 Bundle oberdiek, subset generic (HO)
Package: hobsub 2016/05/16 v1.14 Construct package bundles (HO)
Package hobsub Info: Skipping package `infwarerr' (already loaded).
Package hobsub Info: Skipping package `ltxcmds' (already loaded).
Package: ifluatex 2016/05/16 v1.4 Provides the ifluatex switch (HO)
Package ifluatex Info: LuaTeX not detected.
Package hobsub Info: Skipping package `ifvtex' (already loaded).
Package: intcalc 2016/05/16 v1.2 Expandable calculations with integers (HO)
Package hobsub Info: Skipping package `ifpdf' (already loaded).
Package: etexcmds 2016/05/16 v1.6 Avoid name clashes with e-TeX commands (HO)
Package etexcmds Info: Could not find \expanded.
(etexcmds)             That can mean that you are not using pdfTeX 1.50 or
(etexcmds)             that some package has redefined \expanded.
(etexcmds)             In the latter case, load this package earlier.
Package: kvsetkeys 2016/05/16 v1.17 Key value parser (HO)
Package: kvdefinekeys 2016/05/16 v1.4 Define keys (HO)
Package: pdftexcmds 2016/05/10 v0.21 Utility functions of pdfTeX for LuaTeX (HO
)
Package pdftexcmds Info: LuaTeX not detected.
Package pdftexcmds Info: \pdf@primitive is available.
Package pdftexcmds Info: \pdf@ifprimitive is available.
Package pdftexcmds Info: \pdfdraftmode found.
Package: pdfescape 2016/05/16 v1.14 Implements pdfTeX's escape features (HO)
Package: bigintcalc 2016/05/16 v1.4 Expandable calculations on big integers (HO
)
Package: bitset 2016/05/16 v1.2 Handle bit-vector datatype (HO)
Package: uniquecounter 2016/05/16 v1.3 Provide unlimited unique counter (HO)
)
Package hobsub Info: Skipping package `hobsub' (already loaded).
Package: letltxmacro 2016/05/16 v1.5 Let assignment for LaTeX macros (HO)
Package: hopatch 2016/05/16 v1.3 Wrapper for package hooks (HO)
Package: xcolor-patch 2016/05/16 xcolor patch
Package: atveryend 2016/05/16 v1.9 Hooks at the very end of document (HO)
Package atveryend Info: \enddocument detected (standard20110627).
Package hobsub Info: Skipping package `atbegshi' (already loaded).
Package: refcount 2016/05/16 v3.5 Data extraction from label references (HO)
Package: hycolor 2016/05/16 v1.8 Color options for hyperref/bookmark (HO)
)
(/gnu/store/94yjdjy5845ig22wk4nch2964hh3vh3y-texlive-texmf-2016/share/texmf-dis
t/tex/latex/oberdiek/auxhook.sty
Package: auxhook 2016/05/16 v1.4 Hooks for auxiliary files (HO)
)
(/gnu/store/94yjdjy5845ig22wk4nch2964hh3vh3y-texlive-texmf-2016/share/texmf-dis
t/tex/latex/oberdiek/kvoptions.sty
Package: kvoptions 2016/05/16 v3.12 Key value format for package options (HO)
)
\@linkdim=\dimen164
\Hy@linkcounter=\count118
\Hy@pagecounter=\count119

(/gnu/store/94yjdjy5845ig22wk4nch2964hh3vh3y-texlive-texmf-2016/share/texmf-dis
t/tex/latex/hyperref/pd1enc.def
File: pd1enc.def 2016/05/05 v6.83n Hyperref: PDFDocEncoding definition (HO)
)
\Hy@SavedSpaceFactor=\count120

(/gnu/store/94yjdjy5845ig22wk4nch2964hh3vh3y-texlive-texmf-2016/share/texmf-dis
t/tex/latex/latexconfig/hyperref.cfg
File: hyperref.cfg 2002/06/06 v1.2 hyperref configuration of TeXLive
)
Package hyperref Info: Option `bookmarks' set `true' on input line 4322.
Package hyperref Info: Option `bookmarksopen' set `true' on input line 4322.
Package hyperref Info: Option `implicit' set `false' on input line 4322.
Package hyperref Info: Hyper figures OFF on input line 4446.
Package hyperref Info: Link nesting OFF on input line 4451.
Package hyperref Info: Hyper index ON on input line 4454.
Package hyperref Info: Plain pages OFF on input line 4461.
Package hyperref Info: Backreferencing OFF on input line 4466.
Package hyperref Info: Implicit mode OFF; no redefinition of LaTeX internals.
Package hyperref Info: Bookmarks ON on input line 4691.
\c@Hy@tempcnt=\count121

(/gnu/store/94yjdjy5845ig22wk4nch2964hh3vh3y-texlive-texmf-2016/share/texmf-dis
t/tex/latex/url/url.sty
\Urlmuskip=\muskip10
Package: url 2013/09/16  ver 3.4  Verb mode for urls, etc.
)
LaTeX Info: Redefining \url on input line 5044.
\XeTeXLinkMargin=\dimen165
\Fld@menulength=\count122
\Field@Width=\dimen166
\Fld@charsize=\dimen167
Package hyperref Info: Hyper figures OFF on input line 6298.
Package hyperref Info: Link nesting OFF on input line 6303.
Package hyperref Info: Hyper index ON on input line 6306.
Package hyperref Info: backreferencing OFF on input line 6313.
Package hyperref Info: Link coloring OFF on input line 6318.
Package hyperref Info: Link coloring with OCG OFF on input line 6323.
Package hyperref Info: PDF/A mode OFF on input line 6328.
LaTeX Info: Redefining \ref on input line 6368.
LaTeX Info: Redefining \pageref on input line 6372.
\Hy@abspage=\count123


Package hyperref Message: Stopped early.

)

Package hyperref Message: Driver (autodetected): hpdftex.


(/gnu/store/94yjdjy5845ig22wk4nch2964hh3vh3y-texlive-texmf-2016/share/texmf-dis
t/tex/latex/hyperref/hpdftex.def
File: hpdftex.def 2016/05/05 v6.83n Hyperref driver for pdfTeX
\Fld@listcount=\count124
\c@bookmark@seq@number=\count125

(/gnu/store/94yjdjy5845ig22wk4nch2964hh3vh3y-texlive-texmf-2016/share/texmf-dis
t/tex/latex/oberdiek/rerunfilecheck.sty
Package: rerunfilecheck 2016/05/16 v1.8 Rerun checks for auxiliary files (HO)
Package uniquecounter Info: New unique counter `rerunfilecheck' on input line 2
82.
))
(/gnu/store/94yjdjy5845ig22wk4nch2964hh3vh3y-texlive-texmf-2016/share/texmf-dis
t/tex/latex/beamer/beamerbaserequires.sty
Package: beamerbaserequires 2010/05/01  (rcs-revision efa082c6111d)

(/gnu/store/94yjdjy5845ig22wk4nch2964hh3vh3y-texlive-texmf-2016/share/texmf-dis
t/tex/latex/beamer/beamerbasecompatibility.sty
Package: beamerbasecompatibility 2012/05/01  (rcs-revision 67c48b3b652d)
)
(/gnu/store/94yjdjy5845ig22wk4nch2964hh3vh3y-texlive-texmf-2016/share/texmf-dis
t/tex/latex/beamer/beamerbasefont.sty
Package: beamerbasefont 2015/01/05  (rcs-revision b4b4bee242e2)

(/gnu/store/94yjdjy5845ig22wk4nch2964hh3vh3y-texlive-texmf-2016/share/texmf-dis
t/tex/latex/amsfonts/amssymb.sty
Package: amssymb 2013/01/14 v3.01 AMS font symbols

(/gnu/store/94yjdjy5845ig22wk4nch2964hh3vh3y-texlive-texmf-2016/share/texmf-dis
t/tex/latex/amsfonts/amsfonts.sty
Package: amsfonts 2013/01/14 v3.01 Basic AMSFonts support
\@emptytoks=\toks26
\symAMSa=\mathgroup4
\symAMSb=\mathgroup5
LaTeX Font Info:    Overwriting math alphabet `\mathfrak' in version `bold'
(Font)                  U/euf/m/n --> U/euf/b/n on input line 106.
))
(/gnu/store/94yjdjy5845ig22wk4nch2964hh3vh3y-texlive-texmf-2016/share/texmf-dis
t/tex/latex/sansmathaccent/sansmathaccent.sty
Package: sansmathaccent 2013/03/28

(/gnu/store/94yjdjy5845ig22wk4nch2964hh3vh3y-texlive-texmf-2016/share/texmf-dis
t/tex/latex/filehook/filehook.sty
Package: filehook 2011/10/12 v0.5d Hooks for input files
)))
(/gnu/store/94yjdjy5845ig22wk4nch2964hh3vh3y-texlive-texmf-2016/share/texmf-dis
t/tex/latex/beamer/beamerbasetranslator.sty
Package: beamerbasetranslator 2010/06/11  (rcs-revision 85fd1cc7fc42)

(/gnu/store/94yjdjy5845ig22wk4nch2964hh3vh3y-texlive-texmf-2016/share/texmf-dis
t/tex/latex/beamer/translator/translator.sty
Package: translator 2010/06/12 ver 1.10

(/gnu/store/94yjdjy5845ig22wk4nch2964hh3vh3y-texlive-texmf-2016/share/texmf-dis
t/tex/latex/beamer/translator/translator-language-mappings.tex)))
(/gnu/store/94yjdjy5845ig22wk4nch2964hh3vh3y-texlive-texmf-2016/share/texmf-dis
t/tex/latex/beamer/beamerbasemisc.sty
Package: beamerbasemisc 2013/09/03  (rcs-revision a55719c41d85)
)
(/gnu/store/94yjdjy5845ig22wk4nch2964hh3vh3y-texlive-texmf-2016/share/texmf-dis
t/tex/latex/beamer/beamerbasetwoscreens.sty
Package: beamerbasetwoscreens 2010/05/01  (rcs-revision efa082c6111d)
)
(/gnu/store/94yjdjy5845ig22wk4nch2964hh3vh3y-texlive-texmf-2016/share/texmf-dis
t/tex/latex/beamer/beamerbaseoverlay.sty
Package: beamerbaseoverlay 2013/12/25  (rcs-revision f6bd5e3805da)
\beamer@argscount=\count126
\beamer@lastskipcover=\skip44
\beamer@trivlistdepth=\count127
)
(/gnu/store/94yjdjy5845ig22wk4nch2964hh3vh3y-texlive-texmf-2016/share/texmf-dis
t/tex/latex/beamer/beamerbasetitle.sty
Package: beamerbasetitle 2010/09/21  (rcs-revision f0446ed0b6ae)
)
(/gnu/store/94yjdjy5845ig22wk4nch2964hh3vh3y-texlive-texmf-2016/share/texmf-dis
t/tex/latex/beamer/beamerbasesection.sty
Package: beamerbasesection 2013/06/07  (rcs-revision 60b9fe0f342f)
\c@lecture=\count128
\c@part=\count129
\c@section=\count130
\c@subsection=\count131
\c@subsubsection=\count132
)
(/gnu/store/94yjdjy5845ig22wk4nch2964hh3vh3y-texlive-texmf-2016/share/texmf-dis
t/tex/latex/beamer/beamerbaseframe.sty
Package: beamerbaseframe 2014/02/20  (rcs-revision 4b8ceeeff434)
\beamer@framebox=\box40
\beamer@frametitlebox=\box41
\beamer@zoombox=\box42
\beamer@zoomcount=\count133
\beamer@zoomframecount=\count134
\beamer@frametextheight=\dimen168
\c@subsectionslide=\count135
\beamer@frametopskip=\skip45
\beamer@framebottomskip=\skip46
\beamer@frametopskipautobreak=\skip47
\beamer@framebottomskipautobreak=\skip48
\beamer@envbody=\toks27
\framewidth=\dimen169
\c@framenumber=\count136
)
(/gnu/store/94yjdjy5845ig22wk4nch2964hh3vh3y-texlive-texmf-2016/share/texmf-dis
t/tex/latex/beamer/beamerbaseverbatim.sty
Package: beamerbaseverbatim 2015/01/05  (rcs-revision 431510bb5890)
\beamer@verbatimfileout=\write4
)
(/gnu/store/94yjdjy5845ig22wk4nch2964hh3vh3y-texlive-texmf-2016/share/texmf-dis
t/tex/latex/beamer/beamerbaseframesize.sty
Package: beamerbaseframesize 2011/09/12  (rcs-revision 70f9d8411e54)
\beamer@splitbox=\box43
\beamer@autobreakcount=\count137
\beamer@autobreaklastheight=\dimen170
\beamer@frametitletoks=\toks28
\beamer@framesubtitletoks=\toks29
)
(/gnu/store/94yjdjy5845ig22wk4nch2964hh3vh3y-texlive-texmf-2016/share/texmf-dis
t/tex/latex/beamer/beamerbaseframecomponents.sty
Package: beamerbaseframecomponents 2013/10/18  (rcs-revision 5cf6c5555a45)
\beamer@footins=\box44
)
(/gnu/store/94yjdjy5845ig22wk4nch2964hh3vh3y-texlive-texmf-2016/share/texmf-dis
t/tex/latex/beamer/beamerbasecolor.sty
Package: beamerbasecolor 2015/02/21  (rcs-revision d944b04ee2d5)
)
(/gnu/store/94yjdjy5845ig22wk4nch2964hh3vh3y-texlive-texmf-2016/share/texmf-dis
t/tex/latex/beamer/beamerbasenotes.sty
Package: beamerbasenotes 2012/12/19  (rcs-revision 1686da3db3c9)
\beamer@frameboxcopy=\box45
)
(/gnu/store/94yjdjy5845ig22wk4nch2964hh3vh3y-texlive-texmf-2016/share/texmf-dis
t/tex/latex/beamer/beamerbasetoc.sty
Package: beamerbasetoc 2015/03/08  (rcs-revision 7270298bbaae)
)
(/gnu/store/94yjdjy5845ig22wk4nch2964hh3vh3y-texlive-texmf-2016/share/texmf-dis
t/tex/latex/beamer/beamerbasetemplates.sty
Package: beamerbasetemplates 2010/05/01  (rcs-revision efa082c6111d)
\beamer@sbttoks=\toks30

(/gnu/store/94yjdjy5845ig22wk4nch2964hh3vh3y-texlive-texmf-2016/share/texmf-dis
t/tex/latex/beamer/beamerbaseauxtemplates.sty
Package: beamerbaseauxtemplates 2014/06/30  (rcs-revision 580088513a67)

(/gnu/store/94yjdjy5845ig22wk4nch2964hh3vh3y-texlive-texmf-2016/share/texmf-dis
t/tex/latex/beamer/beamerbaseboxes.sty
Package: beamerbaseboxes 2012/05/13  (rcs-revision 56972908a390)
\bmb@box=\box46
\bmb@colorbox=\box47
\bmb@boxshadow=\box48
\bmb@boxshadowball=\box49
\bmb@boxshadowballlarge=\box50
\bmb@temp=\dimen171
\bmb@dima=\dimen172
\bmb@dimb=\dimen173
\bmb@prevheight=\dimen174
)
\beamer@blockheadheight=\dimen175
))
(/gnu/store/94yjdjy5845ig22wk4nch2964hh3vh3y-texlive-texmf-2016/share/texmf-dis
t/tex/latex/beamer/beamerbaselocalstructure.sty
Package: beamerbaselocalstructure 2014/09/10  (rcs-revision 393f6dcff371)

(/gnu/store/94yjdjy5845ig22wk4nch2964hh3vh3y-texlive-texmf-2016/share/texmf-dis
t/tex/latex/tools/enumerate.sty
Package: enumerate 2015/07/23 v3.00 enumerate extensions (DPC)
\@enLab=\toks31
)
\c@figure=\count138
\c@table=\count139
\abovecaptionskip=\skip49
\belowcaptionskip=\skip50
)
(/gnu/store/94yjdjy5845ig22wk4nch2964hh3vh3y-texlive-texmf-2016/share/texmf-dis
t/tex/latex/beamer/beamerbasenavigation.sty
Package: beamerbasenavigation 2015/02/27  (rcs-revision 923f4bf87efa)
\beamer@section@min@dim=\dimen176
)
(/gnu/store/94yjdjy5845ig22wk4nch2964hh3vh3y-texlive-texmf-2016/share/texmf-dis
t/tex/latex/beamer/beamerbasetheorems.sty
Package: beamerbasetheorems 2010/06/06  (rcs-revision 7e7cc5e53e9d)

(/gnu/store/94yjdjy5845ig22wk4nch2964hh3vh3y-texlive-texmf-2016/share/texmf-dis
t/tex/latex/amsmath/amsmath.sty
Package: amsmath 2016/03/10 v2.15b AMS math features
\@mathmargin=\skip51

For additional information on amsmath, use the `?' option.

(/gnu/store/94yjdjy5845ig22wk4nch2964hh3vh3y-texlive-texmf-2016/share/texmf-dis
t/tex/latex/amsmath/amstext.sty
Package: amstext 2000/06/29 v2.01 AMS text

(/gnu/store/94yjdjy5845ig22wk4nch2964hh3vh3y-texlive-texmf-2016/share/texmf-dis
t/tex/latex/amsmath/amsgen.sty
File: amsgen.sty 1999/11/30 v2.0 generic functions
\@emptytoks=\toks32
\ex@=\dimen177
))
(/gnu/store/94yjdjy5845ig22wk4nch2964hh3vh3y-texlive-texmf-2016/share/texmf-dis
t/tex/latex/amsmath/amsbsy.sty
Package: amsbsy 1999/11/29 v1.2d Bold Symbols
\pmbraise@=\dimen178
)
(/gnu/store/94yjdjy5845ig22wk4nch2964hh3vh3y-texlive-texmf-2016/share/texmf-dis
t/tex/latex/amsmath/amsopn.sty
Package: amsopn 2016/03/08 v2.02 operator names
)
\inf@bad=\count140
LaTeX Info: Redefining \frac on input line 199.
\uproot@=\count141
\leftroot@=\count142
LaTeX Info: Redefining \overline on input line 297.
\classnum@=\count143
\DOTSCASE@=\count144
LaTeX Info: Redefining \ldots on input line 394.
LaTeX Info: Redefining \dots on input line 397.
LaTeX Info: Redefining \cdots on input line 518.
\Mathstrutbox@=\box51
\strutbox@=\box52
\big@size=\dimen179
LaTeX Font Info:    Redeclaring font encoding OML on input line 634.
LaTeX Font Info:    Redeclaring font encoding OMS on input line 635.
\macc@depth=\count145
\c@MaxMatrixCols=\count146
\dotsspace@=\muskip11
\c@parentequation=\count147
\dspbrk@lvl=\count148
\tag@help=\toks33
\row@=\count149
\column@=\count150
\maxfields@=\count151
\andhelp@=\toks34
\eqnshift@=\dimen180
\alignsep@=\dimen181
\tagshift@=\dimen182
\tagwidth@=\dimen183
\totwidth@=\dimen184
\lineht@=\dimen185
\@envbody=\toks35
\multlinegap=\skip52
\multlinetaggap=\skip53
\mathdisplay@stack=\toks36
LaTeX Info: Redefining \[ on input line 2739.
LaTeX Info: Redefining \] on input line 2740.
)
(/gnu/store/94yjdjy5845ig22wk4nch2964hh3vh3y-texlive-texmf-2016/share/texmf-dis
t/tex/latex/amscls/amsthm.sty
Package: amsthm 2015/03/04 v2.20.2
\thm@style=\toks37
\thm@bodyfont=\toks38
\thm@headfont=\toks39
\thm@notefont=\toks40
\thm@headpunct=\toks41
\thm@preskip=\skip54
\thm@postskip=\skip55
\thm@headsep=\skip56
\dth@everypar=\toks42
)
\c@theorem=\count152
)
(/gnu/store/94yjdjy5845ig22wk4nch2964hh3vh3y-texlive-texmf-2016/share/texmf-dis
t/tex/latex/beamer/beamerbasethemes.sty
Package: beamerbasethemes 2010/05/01  (rcs-revision efa082c6111d)
))
(/gnu/store/94yjdjy5845ig22wk4nch2964hh3vh3y-texlive-texmf-2016/share/texmf-dis
t/tex/latex/beamer/themes/theme/beamerthemedefault.sty
Package: beamerthemedefault 2010/06/17  (rcs-revision d02a7cf4d8ae)

(/gnu/store/94yjdjy5845ig22wk4nch2964hh3vh3y-texlive-texmf-2016/share/texmf-dis
t/tex/latex/beamer/themes/font/beamerfontthemedefault.sty
Package: beamerfontthemedefault 2012/12/19  (rcs-revision 1686da3db3c9)
)
(/gnu/store/94yjdjy5845ig22wk4nch2964hh3vh3y-texlive-texmf-2016/share/texmf-dis
t/tex/latex/beamer/themes/color/beamercolorthemedefault.sty
Package: beamercolorthemedefault 2012/12/19  (rcs-revision 1686da3db3c9)
)
(/gnu/store/94yjdjy5845ig22wk4nch2964hh3vh3y-texlive-texmf-2016/share/texmf-dis
t/tex/latex/beamer/themes/inner/beamerinnerthemedefault.sty
Package: beamerinnerthemedefault 2014/06/30  (rcs-revision 580088513a67)
\beamer@dima=\dimen186
\beamer@dimb=\dimen187
)
(/gnu/store/94yjdjy5845ig22wk4nch2964hh3vh3y-texlive-texmf-2016/share/texmf-dis
t/tex/latex/beamer/themes/outer/beamerouterthemedefault.sty
Package: beamerouterthemedefault 2012/12/19  (rcs-revision 1686da3db3c9)
)))
(/gnu/store/94yjdjy5845ig22wk4nch2964hh3vh3y-texlive-texmf-2016/share/texmf-dis
t/tex/latex/beamer/themes/theme/beamerthemeLuebeck.sty
Package: beamerthemeLuebeck 2010/06/17  (rcs-revision d02a7cf4d8ae)

(/gnu/store/94yjdjy5845ig22wk4nch2964hh3vh3y-texlive-texmf-2016/share/texmf-dis
t/tex/latex/beamer/themes/outer/beamerouterthemesplit.sty
Package: beamerouterthemesplit 2012/10/16  (rcs-revision 51a8c72084af)
)
(/gnu/store/94yjdjy5845ig22wk4nch2964hh3vh3y-texlive-texmf-2016/share/texmf-dis
t/tex/latex/beamer/themes/inner/beamerinnerthemerectangles.sty
Package: beamerinnerthemerectangles 2010/06/17  (rcs-revision d02a7cf4d8ae)
)
(/gnu/store/94yjdjy5845ig22wk4nch2964hh3vh3y-texlive-texmf-2016/share/texmf-dis
t/tex/latex/beamer/themes/color/beamercolorthemewhale.sty
Package: beamercolorthemewhale 2010/06/17  (rcs-revision d02a7cf4d8ae)
)
(/gnu/store/94yjdjy5845ig22wk4nch2964hh3vh3y-texlive-texmf-2016/share/texmf-dis
t/tex/latex/beamer/themes/color/beamercolorthemeorchid.sty
Package: beamercolorthemeorchid 2010/06/17  (rcs-revision d02a7cf4d8ae)
))
(/gnu/store/94yjdjy5845ig22wk4nch2964hh3vh3y-texlive-texmf-2016/share/texmf-dis
t/tex/latex/beamer/themes/color/beamercolorthemebeaver.sty
Package: beamercolorthemebeaver 2010/06/17  (rcs-revision d02a7cf4d8ae)
)
(/gnu/store/94yjdjy5845ig22wk4nch2964hh3vh3y-texlive-texmf-2016/share/texmf-dis
t/tex/latex/booktabs/booktabs.sty
Package: booktabs 2016/04/27 v1.618033 publication quality tables
\heavyrulewidth=\dimen188
\lightrulewidth=\dimen189
\cmidrulewidth=\dimen190
\belowrulesep=\dimen191
\belowbottomsep=\dimen192
\aboverulesep=\dimen193
\abovetopsep=\dimen194
\cmidrulesep=\dimen195
\cmidrulekern=\dimen196
\defaultaddspace=\dimen197
\@cmidla=\count153
\@cmidlb=\count154
\@aboverulesep=\dimen198
\@belowrulesep=\dimen199
\@thisruleclass=\count155
\@lastruleclass=\count156
\@thisrulewidth=\dimen256
)
(/gnu/store/94yjdjy5845ig22wk4nch2964hh3vh3y-texlive-texmf-2016/share/texmf-dis
t/tex/latex/base/inputenc.sty
Package: inputenc 2015/03/17 v1.2c Input encoding file
\inpenc@prehook=\toks43
\inpenc@posthook=\toks44

(/gnu/store/94yjdjy5845ig22wk4nch2964hh3vh3y-texlive-texmf-2016/share/texmf-dis
t/tex/latex/base/utf8.def
File: utf8.def 2016/02/28 v1.1s UTF-8 support for inputenc
Now handling font encoding OML ...
... no UTF-8 mapping file for font encoding OML
Now handling font encoding T1 ...
... processing UTF-8 mapping file for font encoding T1

(/gnu/store/94yjdjy5845ig22wk4nch2964hh3vh3y-texlive-texmf-2016/share/texmf-dis
t/tex/latex/base/t1enc.dfu
File: t1enc.dfu 2016/02/28 v1.1s UTF-8 support for inputenc
   defining Unicode char U+00A0 (decimal 160)
   defining Unicode char U+00A1 (decimal 161)
   defining Unicode char U+00A3 (decimal 163)
   defining Unicode char U+00AB (decimal 171)
   defining Unicode char U+00AD (decimal 173)
   defining Unicode char U+00BB (decimal 187)
   defining Unicode char U+00BF (decimal 191)
   defining Unicode char U+00C0 (decimal 192)
   defining Unicode char U+00C1 (decimal 193)
   defining Unicode char U+00C2 (decimal 194)
   defining Unicode char U+00C3 (decimal 195)
   defining Unicode char U+00C4 (decimal 196)
   defining Unicode char U+00C5 (decimal 197)
   defining Unicode char U+00C6 (decimal 198)
   defining Unicode char U+00C7 (decimal 199)
   defining Unicode char U+00C8 (decimal 200)
   defining Unicode char U+00C9 (decimal 201)
   defining Unicode char U+00CA (decimal 202)
   defining Unicode char U+00CB (decimal 203)
   defining Unicode char U+00CC (decimal 204)
   defining Unicode char U+00CD (decimal 205)
   defining Unicode char U+00CE (decimal 206)
   defining Unicode char U+00CF (decimal 207)
   defining Unicode char U+00D0 (decimal 208)
   defining Unicode char U+00D1 (decimal 209)
   defining Unicode char U+00D2 (decimal 210)
   defining Unicode char U+00D3 (decimal 211)
   defining Unicode char U+00D4 (decimal 212)
   defining Unicode char U+00D5 (decimal 213)
   defining Unicode char U+00D6 (decimal 214)
   defining Unicode char U+00D8 (decimal 216)
   defining Unicode char U+00D9 (decimal 217)
   defining Unicode char U+00DA (decimal 218)
   defining Unicode char U+00DB (decimal 219)
   defining Unicode char U+00DC (decimal 220)
   defining Unicode char U+00DD (decimal 221)
   defining Unicode char U+00DE (decimal 222)
   defining Unicode char U+00DF (decimal 223)
   defining Unicode char U+00E0 (decimal 224)
   defining Unicode char U+00E1 (decimal 225)
   defining Unicode char U+00E2 (decimal 226)
   defining Unicode char U+00E3 (decimal 227)
   defining Unicode char U+00E4 (decimal 228)
   defining Unicode char U+00E5 (decimal 229)
   defining Unicode char U+00E6 (decimal 230)
   defining Unicode char U+00E7 (decimal 231)
   defining Unicode char U+00E8 (decimal 232)
   defining Unicode char U+00E9 (decimal 233)
   defining Unicode char U+00EA (decimal 234)
   defining Unicode char U+00EB (decimal 235)
   defining Unicode char U+00EC (decimal 236)
   defining Unicode char U+00ED (decimal 237)
   defining Unicode char U+00EE (decimal 238)
   defining Unicode char U+00EF (decimal 239)
   defining Unicode char U+00F0 (decimal 240)
   defining Unicode char U+00F1 (decimal 241)
   defining Unicode char U+00F2 (decimal 242)
   defining Unicode char U+00F3 (decimal 243)
   defining Unicode char U+00F4 (decimal 244)
   defining Unicode char U+00F5 (decimal 245)
   defining Unicode char U+00F6 (decimal 246)
   defining Unicode char U+00F8 (decimal 248)
   defining Unicode char U+00F9 (decimal 249)
   defining Unicode char U+00FA (decimal 250)
   defining Unicode char U+00FB (decimal 251)
   defining Unicode char U+00FC (decimal 252)
   defining Unicode char U+00FD (decimal 253)
   defining Unicode char U+00FE (decimal 254)
   defining Unicode char U+00FF (decimal 255)
   defining Unicode char U+0100 (decimal 256)
   defining Unicode char U+0101 (decimal 257)
   defining Unicode char U+0102 (decimal 258)
   defining Unicode char U+0103 (decimal 259)
   defining Unicode char U+0104 (decimal 260)
   defining Unicode char U+0105 (decimal 261)
   defining Unicode char U+0106 (decimal 262)
   defining Unicode char U+0107 (decimal 263)
   defining Unicode char U+0108 (decimal 264)
   defining Unicode char U+0109 (decimal 265)
   defining Unicode char U+010A (decimal 266)
   defining Unicode char U+010B (decimal 267)
   defining Unicode char U+010C (decimal 268)
   defining Unicode char U+010D (decimal 269)
   defining Unicode char U+010E (decimal 270)
   defining Unicode char U+010F (decimal 271)
   defining Unicode char U+0110 (decimal 272)
   defining Unicode char U+0111 (decimal 273)
   defining Unicode char U+0112 (decimal 274)
   defining Unicode char U+0113 (decimal 275)
   defining Unicode char U+0114 (decimal 276)
   defining Unicode char U+0115 (decimal 277)
   defining Unicode char U+0116 (decimal 278)
   defining Unicode char U+0117 (decimal 279)
   defining Unicode char U+0118 (decimal 280)
   defining Unicode char U+0119 (decimal 281)
   defining Unicode char U+011A (decimal 282)
   defining Unicode char U+011B (decimal 283)
   defining Unicode char U+011C (decimal 284)
   defining Unicode char U+011D (decimal 285)
   defining Unicode char U+011E (decimal 286)
   defining Unicode char U+011F (decimal 287)
   defining Unicode char U+0120 (decimal 288)
   defining Unicode char U+0121 (decimal 289)
   defining Unicode char U+0122 (decimal 290)
   defining Unicode char U+0123 (decimal 291)
   defining Unicode char U+0124 (decimal 292)
   defining Unicode char U+0125 (decimal 293)
   defining Unicode char U+0128 (decimal 296)
   defining Unicode char U+0129 (decimal 297)
   defining Unicode char U+012A (decimal 298)
   defining Unicode char U+012B (decimal 299)
   defining Unicode char U+012C (decimal 300)
   defining Unicode char U+012D (decimal 301)
   defining Unicode char U+012E (decimal 302)
   defining Unicode char U+012F (decimal 303)
   defining Unicode char U+0130 (decimal 304)
   defining Unicode char U+0131 (decimal 305)
   defining Unicode char U+0132 (decimal 306)
   defining Unicode char U+0133 (decimal 307)
   defining Unicode char U+0134 (decimal 308)
   defining Unicode char U+0135 (decimal 309)
   defining Unicode char U+0136 (decimal 310)
   defining Unicode char U+0137 (decimal 311)
   defining Unicode char U+0139 (decimal 313)
   defining Unicode char U+013A (decimal 314)
   defining Unicode char U+013B (decimal 315)
   defining Unicode char U+013C (decimal 316)
   defining Unicode char U+013D (decimal 317)
   defining Unicode char U+013E (decimal 318)
   defining Unicode char U+0141 (decimal 321)
   defining Unicode char U+0142 (decimal 322)
   defining Unicode char U+0143 (decimal 323)
   defining Unicode char U+0144 (decimal 324)
   defining Unicode char U+0145 (decimal 325)
   defining Unicode char U+0146 (decimal 326)
   defining Unicode char U+0147 (decimal 327)
   defining Unicode char U+0148 (decimal 328)
   defining Unicode char U+014A (decimal 330)
   defining Unicode char U+014B (decimal 331)
   defining Unicode char U+014C (decimal 332)
   defining Unicode char U+014D (decimal 333)
   defining Unicode char U+014E (decimal 334)
   defining Unicode char U+014F (decimal 335)
   defining Unicode char U+0150 (decimal 336)
   defining Unicode char U+0151 (decimal 337)
   defining Unicode char U+0152 (decimal 338)
   defining Unicode char U+0153 (decimal 339)
   defining Unicode char U+0154 (decimal 340)
   defining Unicode char U+0155 (decimal 341)
   defining Unicode char U+0156 (decimal 342)
   defining Unicode char U+0157 (decimal 343)
   defining Unicode char U+0158 (decimal 344)
   defining Unicode char U+0159 (decimal 345)
   defining Unicode char U+015A (decimal 346)
   defining Unicode char U+015B (decimal 347)
   defining Unicode char U+015C (decimal 348)
   defining Unicode char U+015D (decimal 349)
   defining Unicode char U+015E (decimal 350)
   defining Unicode char U+015F (decimal 351)
   defining Unicode char U+0160 (decimal 352)
   defining Unicode char U+0161 (decimal 353)
   defining Unicode char U+0162 (decimal 354)
   defining Unicode char U+0163 (decimal 355)
   defining Unicode char U+0164 (decimal 356)
   defining Unicode char U+0165 (decimal 357)
   defining Unicode char U+0168 (decimal 360)
   defining Unicode char U+0169 (decimal 361)
   defining Unicode char U+016A (decimal 362)
   defining Unicode char U+016B (decimal 363)
   defining Unicode char U+016C (decimal 364)
   defining Unicode char U+016D (decimal 365)
   defining Unicode char U+016E (decimal 366)
   defining Unicode char U+016F (decimal 367)
   defining Unicode char U+0170 (decimal 368)
   defining Unicode char U+0171 (decimal 369)
   defining Unicode char U+0172 (decimal 370)
   defining Unicode char U+0173 (decimal 371)
   defining Unicode char U+0174 (decimal 372)
   defining Unicode char U+0175 (decimal 373)
   defining Unicode char U+0176 (decimal 374)
   defining Unicode char U+0177 (decimal 375)
   defining Unicode char U+0178 (decimal 376)
   defining Unicode char U+0179 (decimal 377)
   defining Unicode char U+017A (decimal 378)
   defining Unicode char U+017B (decimal 379)
   defining Unicode char U+017C (decimal 380)
   defining Unicode char U+017D (decimal 381)
   defining Unicode char U+017E (decimal 382)
   defining Unicode char U+01CD (decimal 461)
   defining Unicode char U+01CE (decimal 462)
   defining Unicode char U+01CF (decimal 463)
   defining Unicode char U+01D0 (decimal 464)
   defining Unicode char U+01D1 (decimal 465)
   defining Unicode char U+01D2 (decimal 466)
   defining Unicode char U+01D3 (decimal 467)
   defining Unicode char U+01D4 (decimal 468)
   defining Unicode char U+01E2 (decimal 482)
   defining Unicode char U+01E3 (decimal 483)
   defining Unicode char U+01E6 (decimal 486)
   defining Unicode char U+01E7 (decimal 487)
   defining Unicode char U+01E8 (decimal 488)
   defining Unicode char U+01E9 (decimal 489)
   defining Unicode char U+01EA (decimal 490)
   defining Unicode char U+01EB (decimal 491)
   defining Unicode char U+01F0 (decimal 496)
   defining Unicode char U+01F4 (decimal 500)
   defining Unicode char U+01F5 (decimal 501)
   defining Unicode char U+0218 (decimal 536)
   defining Unicode char U+0219 (decimal 537)
   defining Unicode char U+021A (decimal 538)
   defining Unicode char U+021B (decimal 539)
   defining Unicode char U+1E02 (decimal 7682)
   defining Unicode char U+1E03 (decimal 7683)
   defining Unicode char U+200C (decimal 8204)
   defining Unicode char U+2010 (decimal 8208)
   defining Unicode char U+2011 (decimal 8209)
   defining Unicode char U+2012 (decimal 8210)
   defining Unicode char U+2013 (decimal 8211)
   defining Unicode char U+2014 (decimal 8212)
   defining Unicode char U+2015 (decimal 8213)
   defining Unicode char U+2018 (decimal 8216)
   defining Unicode char U+2019 (decimal 8217)
   defining Unicode char U+201A (decimal 8218)
   defining Unicode char U+201C (decimal 8220)
   defining Unicode char U+201D (decimal 8221)
   defining Unicode char U+201E (decimal 8222)
   defining Unicode char U+2030 (decimal 8240)
   defining Unicode char U+2031 (decimal 8241)
   defining Unicode char U+2039 (decimal 8249)
   defining Unicode char U+203A (decimal 8250)
   defining Unicode char U+2423 (decimal 9251)
)
Now handling font encoding OT1 ...
... processing UTF-8 mapping file for font encoding OT1

(/gnu/store/94yjdjy5845ig22wk4nch2964hh3vh3y-texlive-texmf-2016/share/texmf-dis
t/tex/latex/base/ot1enc.dfu
File: ot1enc.dfu 2016/02/28 v1.1s UTF-8 support for inputenc
   defining Unicode char U+00A0 (decimal 160)
   defining Unicode char U+00A1 (decimal 161)
   defining Unicode char U+00A3 (decimal 163)
   defining Unicode char U+00AD (decimal 173)
   defining Unicode char U+00B8 (decimal 184)
   defining Unicode char U+00BF (decimal 191)
   defining Unicode char U+00C5 (decimal 197)
   defining Unicode char U+00C6 (decimal 198)
   defining Unicode char U+00D8 (decimal 216)
   defining Unicode char U+00DF (decimal 223)
   defining Unicode char U+00E6 (decimal 230)
   defining Unicode char U+00EC (decimal 236)
   defining Unicode char U+00ED (decimal 237)
   defining Unicode char U+00EE (decimal 238)
   defining Unicode char U+00EF (decimal 239)
   defining Unicode char U+00F8 (decimal 248)
   defining Unicode char U+0131 (decimal 305)
   defining Unicode char U+0141 (decimal 321)
   defining Unicode char U+0142 (decimal 322)
   defining Unicode char U+0152 (decimal 338)
   defining Unicode char U+0153 (decimal 339)
   defining Unicode char U+0174 (decimal 372)
   defining Unicode char U+0175 (decimal 373)
   defining Unicode char U+0176 (decimal 374)
   defining Unicode char U+0177 (decimal 375)
   defining Unicode char U+0218 (decimal 536)
   defining Unicode char U+0219 (decimal 537)
   defining Unicode char U+021A (decimal 538)
   defining Unicode char U+021B (decimal 539)
   defining Unicode char U+2013 (decimal 8211)
   defining Unicode char U+2014 (decimal 8212)
   defining Unicode char U+2018 (decimal 8216)
   defining Unicode char U+2019 (decimal 8217)
   defining Unicode char U+201C (decimal 8220)
   defining Unicode char U+201D (decimal 8221)
)
Now handling font encoding OMS ...
... processing UTF-8 mapping file for font encoding OMS

(/gnu/store/94yjdjy5845ig22wk4nch2964hh3vh3y-texlive-texmf-2016/share/texmf-dis
t/tex/latex/base/omsenc.dfu
File: omsenc.dfu 2016/02/28 v1.1s UTF-8 support for inputenc
   defining Unicode char U+00A7 (decimal 167)
   defining Unicode char U+00B6 (decimal 182)
   defining Unicode char U+00B7 (decimal 183)
   defining Unicode char U+2020 (decimal 8224)
   defining Unicode char U+2021 (decimal 8225)
   defining Unicode char U+2022 (decimal 8226)
)
Now handling font encoding OMX ...
... no UTF-8 mapping file for font encoding OMX
Now handling font encoding U ...
... no UTF-8 mapping file for font encoding U
Now handling font encoding PD1 ...
... no UTF-8 mapping file for font encoding PD1
   defining Unicode char U+00A9 (decimal 169)
   defining Unicode char U+00AA (decimal 170)
   defining Unicode char U+00AE (decimal 174)
   defining Unicode char U+00BA (decimal 186)
   defining Unicode char U+02C6 (decimal 710)
   defining Unicode char U+02DC (decimal 732)
   defining Unicode char U+200C (decimal 8204)
   defining Unicode char U+2026 (decimal 8230)
   defining Unicode char U+2122 (decimal 8482)
   defining Unicode char U+2423 (decimal 9251)
))
(/gnu/store/94yjdjy5845ig22wk4nch2964hh3vh3y-texlive-texmf-2016/share/texmf-dis
t/tex/generic/babel/babel.sty
Package: babel 2016/04/23 3.9r The Babel package

(/gnu/store/94yjdjy5845ig22wk4nch2964hh3vh3y-texlive-texmf-2016/share/texmf-dis
t/tex/generic/babel-portuges/portuges.ldf
Language: portuges 2008/03/18 v1.2q Portuguese support from the babel system

(/gnu/store/94yjdjy5845ig22wk4nch2964hh3vh3y-texlive-texmf-2016/share/texmf-dis
t/tex/generic/babel/babel.def
File: babel.def 2016/04/23 3.9r Babel common definitions
\babel@savecnt=\count157
\U@D=\dimen257
LaTeX Info: Redefining \textlatin on input line 1448.
)
\l@brazilian = a dialect from \language\l@portuges 
Package babel Info: Making " an active character on input line 145.
))
(/gnu/store/94yjdjy5845ig22wk4nch2964hh3vh3y-texlive-texmf-2016/share/texmf-dis
t/tex/latex/base/fontenc.sty
Package: fontenc 2005/09/27 v1.99g Standard LaTeX package

(/gnu/store/94yjdjy5845ig22wk4nch2964hh3vh3y-texlive-texmf-2016/share/texmf-dis
t/tex/latex/base/t1enc.def
File: t1enc.def 2005/09/27 v1.99g Standard LaTeX file
LaTeX Font Info:    Redeclaring font encoding T1 on input line 48.
))
(/gnu/store/94yjdjy5845ig22wk4nch2964hh3vh3y-texlive-texmf-2016/share/texmf-dis
t/tex/latex/listings/listings.sty
\lst@mode=\count158
\lst@gtempboxa=\box53
\lst@token=\toks45
\lst@length=\count159
\lst@currlwidth=\dimen258
\lst@column=\count160
\lst@pos=\count161
\lst@lostspace=\dimen259
\lst@width=\dimen260
\lst@newlines=\count162
\lst@lineno=\count163
\lst@maxwidth=\dimen261

(/gnu/store/94yjdjy5845ig22wk4nch2964hh3vh3y-texlive-texmf-2016/share/texmf-dis
t/tex/latex/listings/lstmisc.sty
File: lstmisc.sty 2015/06/04 1.6 (Carsten Heinz)
\c@lstnumber=\count164
\lst@skipnumbers=\count165
\lst@framebox=\box54
)
(/gnu/store/94yjdjy5845ig22wk4nch2964hh3vh3y-texlive-texmf-2016/share/texmf-dis
t/tex/latex/listings/listings.cfg
File: listings.cfg 2015/06/04 1.6 listings configuration
))
Package: listings 2015/06/04 1.6 (Carsten Heinz)

(/gnu/store/94yjdjy5845ig22wk4nch2964hh3vh3y-texlive-texmf-2016/share/texmf-dis
t/tex/latex/tools/multicol.sty
Package: multicol 2016/04/07 v1.8p multicolumn formatting (FMi)
\c@tracingmulticols=\count166
\mult@box=\box55
\multicol@leftmargin=\dimen262
\c@unbalance=\count167
\c@collectmore=\count168
\doublecol@number=\count169
\multicoltolerance=\count170
\multicolpretolerance=\count171
\full@width=\dimen263
\page@free=\dimen264
\premulticols=\dimen265
\postmulticols=\dimen266
\multicolsep=\skip57
\multicolbaselineskip=\skip58
\partial@page=\box56
\last@line=\box57
\maxbalancingoverflow=\dimen267
\mult@rightbox=\box58
\mult@grightbox=\box59
\mult@gfirstbox=\box60
\mult@firstbox=\box61
\@tempa=\box62
\@tempa=\box63
\@tempa=\box64
\@tempa=\box65
\@tempa=\box66
\@tempa=\box67
\@tempa=\box68
\@tempa=\box69
\@tempa=\box70
\@tempa=\box71
\@tempa=\box72
\@tempa=\box73
\@tempa=\box74
\@tempa=\box75
\@tempa=\box76
\@tempa=\box77
\@tempa=\box78
\c@columnbadness=\count172
\c@finalcolumnbadness=\count173
\last@try=\dimen268
\multicolovershoot=\dimen269
\multicolundershoot=\dimen270
\mult@nat@firstbox=\box79
\colbreak@box=\box80
\mc@col@check@num=\count174
)
(/gnu/store/94yjdjy5845ig22wk4nch2964hh3vh3y-texlive-texmf-2016/share/texmf-dis
t/tex/latex/pgf/frontendlayer/tikz.sty
(/gnu/store/94yjdjy5845ig22wk4nch2964hh3vh3y-texlive-texmf-2016/share/texmf-dis
t/tex/latex/pgf/basiclayer/pgf.sty
Package: pgf 2015/08/07 v3.0.1a (rcs-revision 1.15)

(/gnu/store/94yjdjy5845ig22wk4nch2964hh3vh3y-texlive-texmf-2016/share/texmf-dis
t/tex/generic/pgf/modules/pgfmoduleshapes.code.tex
File: pgfmoduleshapes.code.tex 2014/03/21  (rcs-revision 1.35)
\pgfnodeparttextbox=\box81
)
(/gnu/store/94yjdjy5845ig22wk4nch2964hh3vh3y-texlive-texmf-2016/share/texmf-dis
t/tex/generic/pgf/modules/pgfmoduleplot.code.tex
File: pgfmoduleplot.code.tex 2015/08/03  (rcs-revision 1.13)
)
(/gnu/store/94yjdjy5845ig22wk4nch2964hh3vh3y-texlive-texmf-2016/share/texmf-dis
t/tex/latex/pgf/compatibility/pgfcomp-version-0-65.sty
Package: pgfcomp-version-0-65 2007/07/03 v3.0.1a (rcs-revision 1.7)
\pgf@nodesepstart=\dimen271
\pgf@nodesepend=\dimen272
)
(/gnu/store/94yjdjy5845ig22wk4nch2964hh3vh3y-texlive-texmf-2016/share/texmf-dis
t/tex/latex/pgf/compatibility/pgfcomp-version-1-18.sty
Package: pgfcomp-version-1-18 2007/07/23 v3.0.1a (rcs-revision 1.1)
))
(/gnu/store/94yjdjy5845ig22wk4nch2964hh3vh3y-texlive-texmf-2016/share/texmf-dis
t/tex/latex/pgf/utilities/pgffor.sty
(/gnu/store/94yjdjy5845ig22wk4nch2964hh3vh3y-texlive-texmf-2016/share/texmf-dis
t/tex/latex/pgf/utilities/pgfkeys.sty
(/gnu/store/94yjdjy5845ig22wk4nch2964hh3vh3y-texlive-texmf-2016/share/texmf-dis
t/tex/generic/pgf/utilities/pgfkeys.code.tex))
(/gnu/store/94yjdjy5845ig22wk4nch2964hh3vh3y-texlive-texmf-2016/share/texmf-dis
t/tex/latex/pgf/math/pgfmath.sty
(/gnu/store/94yjdjy5845ig22wk4nch2964hh3vh3y-texlive-texmf-2016/share/texmf-dis
t/tex/generic/pgf/math/pgfmath.code.tex))
(/gnu/store/94yjdjy5845ig22wk4nch2964hh3vh3y-texlive-texmf-2016/share/texmf-dis
t/tex/generic/pgf/utilities/pgffor.code.tex
Package: pgffor 2013/12/13 v3.0.1a (rcs-revision 1.25)

(/gnu/store/94yjdjy5845ig22wk4nch2964hh3vh3y-texlive-texmf-2016/share/texmf-dis
t/tex/generic/pgf/math/pgfmath.code.tex)
\pgffor@iter=\dimen273
\pgffor@skip=\dimen274
\pgffor@stack=\toks46
\pgffor@toks=\toks47
))
(/gnu/store/94yjdjy5845ig22wk4nch2964hh3vh3y-texlive-texmf-2016/share/texmf-dis
t/tex/generic/pgf/frontendlayer/tikz/tikz.code.tex
Package: tikz 2015/08/07 v3.0.1a (rcs-revision 1.151)

(/gnu/store/94yjdjy5845ig22wk4nch2964hh3vh3y-texlive-texmf-2016/share/texmf-dis
t/tex/generic/pgf/libraries/pgflibraryplothandlers.code.tex
File: pgflibraryplothandlers.code.tex 2013/08/31 v3.0.1a (rcs-revision 1.20)
\pgf@plot@mark@count=\count175
\pgfplotmarksize=\dimen275
)
\tikz@lastx=\dimen276
\tikz@lasty=\dimen277
\tikz@lastxsaved=\dimen278
\tikz@lastysaved=\dimen279
\tikzleveldistance=\dimen280
\tikzsiblingdistance=\dimen281
\tikz@figbox=\box82
\tikz@figbox@bg=\box83
\tikz@tempbox=\box84
\tikz@tempbox@bg=\box85
\tikztreelevel=\count176
\tikznumberofchildren=\count177
\tikznumberofcurrentchild=\count178
\tikz@fig@count=\count179

(/gnu/store/94yjdjy5845ig22wk4nch2964hh3vh3y-texlive-texmf-2016/share/texmf-dis
t/tex/generic/pgf/modules/pgfmodulematrix.code.tex
File: pgfmodulematrix.code.tex 2013/09/17  (rcs-revision 1.8)
\pgfmatrixcurrentrow=\count180
\pgfmatrixcurrentcolumn=\count181
\pgf@matrix@numberofcolumns=\count182
)
\tikz@expandcount=\count183

(/gnu/store/94yjdjy5845ig22wk4nch2964hh3vh3y-texlive-texmf-2016/share/texmf-dis
t/tex/generic/pgf/frontendlayer/tikz/libraries/tikzlibrarytopaths.code.tex
File: tikzlibrarytopaths.code.tex 2008/06/17 v3.0.1a (rcs-revision 1.2)
)))
(/gnu/store/94yjdjy5845ig22wk4nch2964hh3vh3y-texlive-texmf-2016/share/texmf-dis
t/tex/generic/pgf/frontendlayer/tikz/libraries/tikzlibraryshapes.code.tex
File: tikzlibraryshapes.code.tex 2008/01/09 v3.0.1a (rcs-revision 1.1)

(/gnu/store/94yjdjy5845ig22wk4nch2964hh3vh3y-texlive-texmf-2016/share/texmf-dis
t/tex/generic/pgf/frontendlayer/tikz/libraries/tikzlibraryshapes.geometric.code
.tex
File: tikzlibraryshapes.geometric.code.tex 2008/01/09 v3.0.1a (rcs-revision 1.1
)

(/gnu/store/94yjdjy5845ig22wk4nch2964hh3vh3y-texlive-texmf-2016/share/texmf-dis
t/tex/generic/pgf/libraries/shapes/pgflibraryshapes.geometric.code.tex
File: pgflibraryshapes.geometric.code.tex 2008/06/26 v3.0.1a (rcs-revision 1.1)

))
(/gnu/store/94yjdjy5845ig22wk4nch2964hh3vh3y-texlive-texmf-2016/share/texmf-dis
t/tex/generic/pgf/frontendlayer/tikz/libraries/tikzlibraryshapes.misc.code.tex
File: tikzlibraryshapes.misc.code.tex 2008/01/09 v3.0.1a (rcs-revision 1.1)

(/gnu/store/94yjdjy5845ig22wk4nch2964hh3vh3y-texlive-texmf-2016/share/texmf-dis
t/tex/generic/pgf/libraries/shapes/pgflibraryshapes.misc.code.tex
File: pgflibraryshapes.misc.code.tex 2013/07/18 v3.0.1a (rcs-revision 1.5)
))
(/gnu/store/94yjdjy5845ig22wk4nch2964hh3vh3y-texlive-texmf-2016/share/texmf-dis
t/tex/generic/pgf/frontendlayer/tikz/libraries/tikzlibraryshapes.symbols.code.t
ex
File: tikzlibraryshapes.symbols.code.tex 2008/01/09 v3.0.1a (rcs-revision 1.1)

(/gnu/store/94yjdjy5845ig22wk4nch2964hh3vh3y-texlive-texmf-2016/share/texmf-dis
t/tex/generic/pgf/libraries/shapes/pgflibraryshapes.symbols.code.tex
File: pgflibraryshapes.symbols.code.tex 2013/09/11 v3.0.1a (rcs-revision 1.6)
))
(/gnu/store/94yjdjy5845ig22wk4nch2964hh3vh3y-texlive-texmf-2016/share/texmf-dis
t/tex/generic/pgf/frontendlayer/tikz/libraries/tikzlibraryshapes.arrows.code.te
x
File: tikzlibraryshapes.arrows.code.tex 2008/01/09 v3.0.1a (rcs-revision 1.1)

(/gnu/store/94yjdjy5845ig22wk4nch2964hh3vh3y-texlive-texmf-2016/share/texmf-dis
t/tex/generic/pgf/libraries/shapes/pgflibraryshapes.arrows.code.tex
File: pgflibraryshapes.arrows.code.tex 2008/06/26 v3.0.1a (rcs-revision 1.1)
))
(/gnu/store/94yjdjy5845ig22wk4nch2964hh3vh3y-texlive-texmf-2016/share/texmf-dis
t/tex/generic/pgf/frontendlayer/tikz/libraries/tikzlibraryshapes.callouts.code.
tex
(/gnu/store/94yjdjy5845ig22wk4nch2964hh3vh3y-texlive-texmf-2016/share/texmf-dis
t/tex/generic/pgf/libraries/shapes/pgflibraryshapes.callouts.code.tex))
(/gnu/store/94yjdjy5845ig22wk4nch2964hh3vh3y-texlive-texmf-2016/share/texmf-dis
t/tex/generic/pgf/frontendlayer/tikz/libraries/tikzlibraryshapes.multipart.code
.tex
File: tikzlibraryshapes.multipart.code.tex 2008/01/09 v3.0.1a (rcs-revision 1.1
)

(/gnu/store/94yjdjy5845ig22wk4nch2964hh3vh3y-texlive-texmf-2016/share/texmf-dis
t/tex/generic/pgf/libraries/shapes/pgflibraryshapes.multipart.code.tex
File: pgflibraryshapes.multipart.code.tex 2010/01/07 v3.0.1a (rcs-revision 1.2)

\pgfnodepartlowerbox=\box86
\pgfnodeparttwobox=\box87
\pgfnodepartthreebox=\box88
\pgfnodepartfourbox=\box89
\pgfnodeparttwentybox=\box90
\pgfnodepartnineteenbox=\box91
\pgfnodeparteighteenbox=\box92
\pgfnodepartseventeenbox=\box93
\pgfnodepartsixteenbox=\box94
\pgfnodepartfifteenbox=\box95
\pgfnodepartfourteenbox=\box96
\pgfnodepartthirteenbox=\box97
\pgfnodeparttwelvebox=\box98
\pgfnodepartelevenbox=\box99
\pgfnodeparttenbox=\box100
\pgfnodepartninebox=\box101
\pgfnodeparteightbox=\box102
\pgfnodepartsevenbox=\box103
\pgfnodepartsixbox=\box104
\pgfnodepartfivebox=\box105
)))
(/gnu/store/94yjdjy5845ig22wk4nch2964hh3vh3y-texlive-texmf-2016/share/texmf-dis
t/tex/generic/pgf/frontendlayer/tikz/libraries/tikzlibraryarrows.code.tex
File: tikzlibraryarrows.code.tex 2008/01/09 v3.0.1a (rcs-revision 1.1)

(/gnu/store/94yjdjy5845ig22wk4nch2964hh3vh3y-texlive-texmf-2016/share/texmf-dis
t/tex/generic/pgf/libraries/pgflibraryarrows.code.tex
File: pgflibraryarrows.code.tex 2013/09/23 v3.0.1a (rcs-revision 1.16)
\arrowsize=\dimen282
)) (./talk.aux)
\openout1 = `talk.aux'.

LaTeX Font Info:    Checking defaults for OML/cmm/m/it on input line 30.
LaTeX Font Info:    ... okay on input line 30.
LaTeX Font Info:    Checking defaults for T1/cmr/m/n on input line 30.
LaTeX Font Info:    ... okay on input line 30.
LaTeX Font Info:    Checking defaults for OT1/cmr/m/n on input line 30.
LaTeX Font Info:    ... okay on input line 30.
LaTeX Font Info:    Checking defaults for OMS/cmsy/m/n on input line 30.
LaTeX Font Info:    ... okay on input line 30.
LaTeX Font Info:    Checking defaults for OMX/cmex/m/n on input line 30.
LaTeX Font Info:    ... okay on input line 30.
LaTeX Font Info:    Checking defaults for U/cmr/m/n on input line 30.
LaTeX Font Info:    ... okay on input line 30.
LaTeX Font Info:    Checking defaults for PD1/pdf/m/n on input line 30.
LaTeX Font Info:    ... okay on input line 30.

*geometry* driver: auto-detecting
*geometry* detected driver: pdftex
*geometry* verbose mode - [ preamble ] result:
* driver: pdftex
* paper: custom
* layout: <same size as paper>
* layoutoffset:(h,v)=(0.0pt,0.0pt)
* modes: includehead includefoot 
* h-part:(L,W,R)=(28.45274pt, 307.28987pt, 28.45274pt)
* v-part:(T,H,B)=(0.0pt, 273.14662pt, 0.0pt)
* \paperwidth=364.19536pt
* \paperheight=273.14662pt
* \textwidth=307.28987pt
* \textheight=244.6939pt
* \oddsidemargin=-43.81725pt
* \evensidemargin=-43.81725pt
* \topmargin=-72.26999pt
* \headheight=14.22636pt
* \headsep=0.0pt
* \topskip=11.0pt
* \footskip=14.22636pt
* \marginparwidth=4.0pt
* \marginparsep=10.0pt
* \columnsep=10.0pt
* \skip\footins=10.0pt plus 4.0pt minus 2.0pt
* \hoffset=0.0pt
* \voffset=0.0pt
* \mag=1000
* \@twocolumnfalse
* \@twosidefalse
* \@mparswitchfalse
* \@reversemarginfalse
* (1in=72.27pt=25.4mm, 1cm=28.453pt)


(/gnu/store/94yjdjy5845ig22wk4nch2964hh3vh3y-texlive-texmf-2016/share/texmf-dis
t/tex/context/base/mkii/supp-pdf.mkii
[Loading MPS to PDF converter (version 2006.09.02).]
\scratchcounter=\count184
\scratchdimen=\dimen283
\scratchbox=\box106
\nofMPsegments=\count185
\nofMParguments=\count186
\everyMPshowfont=\toks48
\MPscratchCnt=\count187
\MPscratchDim=\dimen284
\MPnumerator=\count188
\makeMPintoPDFobject=\count189
\everyMPtoPDFconversion=\toks49
)
(/gnu/store/94yjdjy5845ig22wk4nch2964hh3vh3y-texlive-texmf-2016/share/texmf-dis
t/tex/latex/oberdiek/epstopdf-base.sty
Package: epstopdf-base 2016/05/15 v2.6 Base part for package epstopdf

(/gnu/store/94yjdjy5845ig22wk4nch2964hh3vh3y-texlive-texmf-2016/share/texmf-dis
t/tex/latex/oberdiek/grfext.sty
Package: grfext 2016/05/16 v1.2 Manage graphics extensions (HO)
)
Package grfext Info: Graphics extension search list:
(grfext)             [.png,.pdf,.jpg,.mps,.jpeg,.jbig2,.jb2,.PNG,.PDF,.JPG,.JPE
G,.JBIG2,.JB2,.eps]
(grfext)             \AppendGraphicsExtensions on input line 456.

(/gnu/store/94yjdjy5845ig22wk4nch2964hh3vh3y-texlive-texmf-2016/share/texmf-dis
t/tex/latex/latexconfig/epstopdf-sys.cfg
File: epstopdf-sys.cfg 2010/07/13 v1.3 Configuration of (r)epstopdf for TeX Liv
e
))
ABD: EveryShipout initializing macros
\AtBeginShipoutBox=\box107
Package hyperref Info: Link coloring OFF on input line 30.

(/gnu/store/94yjdjy5845ig22wk4nch2964hh3vh3y-texlive-texmf-2016/share/texmf-dis
t/tex/latex/hyperref/nameref.sty
Package: nameref 2012/10/27 v2.43 Cross-referencing by name of section

(/gnu/store/94yjdjy5845ig22wk4nch2964hh3vh3y-texlive-texmf-2016/share/texmf-dis
t/tex/generic/oberdiek/gettitlestring.sty
Package: gettitlestring 2016/05/16 v1.5 Cleanup title references (HO)
)
\c@section@level=\count190
)
LaTeX Info: Redefining \ref on input line 30.
LaTeX Info: Redefining \pageref on input line 30.
LaTeX Info: Redefining \nameref on input line 30.
 (./talk.out) (./talk.out)
\@outlinefile=\write5
\openout5 = `talk.out'.

LaTeX Font Info:    Overwriting symbol font `operators' in version `normal'
(Font)                  OT1/cmr/m/n --> OT1/cmss/m/n on input line 30.
LaTeX Font Info:    Overwriting symbol font `operators' in version `bold'
(Font)                  OT1/cmr/bx/n --> OT1/cmss/bx/n on input line 30.
\symnumbers=\mathgroup6
\sympureletters=\mathgroup7
LaTeX Font Info:    Overwriting math alphabet `\mathrm' in version `normal'
(Font)                  OT1/cmss/m/n --> T1/cmr/m/n on input line 30.
LaTeX Font Info:    Redeclaring math alphabet \mathbf on input line 30.
LaTeX Font Info:    Overwriting math alphabet `\mathbf' in version `normal'
(Font)                  OT1/cmr/bx/n --> T1/cmss/bx/n on input line 30.
LaTeX Font Info:    Overwriting math alphabet `\mathbf' in version `bold'
(Font)                  OT1/cmr/bx/n --> T1/cmss/bx/n on input line 30.
LaTeX Font Info:    Redeclaring math alphabet \mathsf on input line 30.
LaTeX Font Info:    Overwriting math alphabet `\mathsf' in version `normal'
(Font)                  OT1/cmss/m/n --> T1/cmss/m/n on input line 30.
LaTeX Font Info:    Overwriting math alphabet `\mathsf' in version `bold'
(Font)                  OT1/cmss/bx/n --> T1/cmss/m/n on input line 30.
LaTeX Font Info:    Redeclaring math alphabet \mathit on input line 30.
LaTeX Font Info:    Overwriting math alphabet `\mathit' in version `normal'
(Font)                  OT1/cmr/m/it --> T1/cmss/m/it on input line 30.
LaTeX Font Info:    Overwriting math alphabet `\mathit' in version `bold'
(Font)                  OT1/cmr/bx/it --> T1/cmss/m/it on input line 30.
LaTeX Font Info:    Redeclaring math alphabet \mathtt on input line 30.
LaTeX Font Info:    Overwriting math alphabet `\mathtt' in version `normal'
(Font)                  OT1/cmtt/m/n --> T1/cmtt/m/n on input line 30.
LaTeX Font Info:    Overwriting math alphabet `\mathtt' in version `bold'
(Font)                  OT1/cmtt/m/n --> T1/cmtt/m/n on input line 30.
LaTeX Font Info:    Overwriting symbol font `numbers' in version `bold'
(Font)                  T1/cmss/m/n --> T1/cmss/bx/n on input line 30.
LaTeX Font Info:    Overwriting symbol font `pureletters' in version `bold'
(Font)                  T1/cmss/m/it --> T1/cmss/bx/it on input line 30.
LaTeX Font Info:    Overwriting math alphabet `\mathrm' in version `bold'
(Font)                  OT1/cmss/bx/n --> T1/cmr/bx/n on input line 30.
LaTeX Font Info:    Overwriting math alphabet `\mathbf' in version `bold'
(Font)                  T1/cmss/bx/n --> T1/cmss/bx/n on input line 30.
LaTeX Font Info:    Overwriting math alphabet `\mathsf' in version `bold'
(Font)                  T1/cmss/m/n --> T1/cmss/bx/n on input line 30.
LaTeX Font Info:    Overwriting math alphabet `\mathit' in version `bold'
(Font)                  T1/cmss/m/it --> T1/cmss/bx/it on input line 30.
LaTeX Font Info:    Overwriting math alphabet `\mathtt' in version `bold'
(Font)                  T1/cmtt/m/n --> T1/cmtt/bx/n on input line 30.
LaTeX Font Info:    Redeclaring symbol font `pureletters' on input line 30.
LaTeX Font Info:    Encoding `T1' has changed to `OT1' for symbol font
(Font)              `pureletters' in the math version `normal' on input line 30
.
LaTeX Font Info:    Overwriting symbol font `pureletters' in version `normal'
(Font)                  T1/cmss/m/it --> OT1/mathkerncmss/m/sl on input line 30
.
LaTeX Font Info:    Encoding `T1' has changed to `OT1' for symbol font
(Font)              `pureletters' in the math version `bold' on input line 30.
LaTeX Font Info:    Overwriting symbol font `pureletters' in version `bold'
(Font)                  T1/cmss/bx/it --> OT1/mathkerncmss/m/sl on input line 3
0.
LaTeX Font Info:    Overwriting symbol font `pureletters' in version `bold'
(Font)                  OT1/mathkerncmss/m/sl --> OT1/mathkerncmss/bx/sl on inp
ut line 30.

(/gnu/store/94yjdjy5845ig22wk4nch2964hh3vh3y-texlive-texmf-2016/share/texmf-dis
t/tex/latex/beamer/translator/dicts/translator-basic-dictionary/translator-basi
c-dictionary-English.dict
Dictionary: translator-basic-dictionary, Language: English 
)
(/gnu/store/94yjdjy5845ig22wk4nch2964hh3vh3y-texlive-texmf-2016/share/texmf-dis
t/tex/latex/beamer/translator/dicts/translator-bibliography-dictionary/translat
or-bibliography-dictionary-English.dict
Dictionary: translator-bibliography-dictionary, Language: English 
)
(/gnu/store/94yjdjy5845ig22wk4nch2964hh3vh3y-texlive-texmf-2016/share/texmf-dis
t/tex/latex/beamer/translator/dicts/translator-environment-dictionary/translato
r-environment-dictionary-English.dict
Dictionary: translator-environment-dictionary, Language: English 
)
(/gnu/store/94yjdjy5845ig22wk4nch2964hh3vh3y-texlive-texmf-2016/share/texmf-dis
t/tex/latex/beamer/translator/dicts/translator-months-dictionary/translator-mon
ths-dictionary-English.dict
Dictionary: translator-months-dictionary, Language: English 
)
(/gnu/store/94yjdjy5845ig22wk4nch2964hh3vh3y-texlive-texmf-2016/share/texmf-dis
t/tex/latex/beamer/translator/dicts/translator-numbers-dictionary/translator-nu
mbers-dictionary-English.dict
Dictionary: translator-numbers-dictionary, Language: English 
)
(/gnu/store/94yjdjy5845ig22wk4nch2964hh3vh3y-texlive-texmf-2016/share/texmf-dis
t/tex/latex/beamer/translator/dicts/translator-theorem-dictionary/translator-th
eorem-dictionary-English.dict
Dictionary: translator-theorem-dictionary, Language: English 
)
LaTeX Info: Redefining \includegraphics on input line 30.
\c@lstlisting=\count191
 (./talk.nav)
<static/img/ifal.png, id=14, 120.45pt x 33.0033pt>
File: static/img/ifal.png Graphic file (type png)
 <use static/img/ifal.png>
Package pdftex.def Info: static/img/ifal.png used on input line 34.
(pdftex.def)             Requested size: 72.27054pt x 19.80212pt.


LaTeX Font Warning: Font shape `T1/cmss/m/n' in size <4> not available
(Font)              size <5> substituted on input line 34.

[1

{/gnu/store/94yjdjy5845ig22wk4nch2964hh3vh3y-texlive-texmf-2016/share/texmf-dis
t/fonts/map/pdftex/updmap/pdftex.map} <./static/img/ifal.png>] [2

] [3

]
[4

] [5

] [6

]
\openout4 = `talk.vrb'.

 (./talk.vrb
(/gnu/store/94yjdjy5845ig22wk4nch2964hh3vh3y-texlive-texmf-2016/share/texmf-dis
t/tex/latex/listings/lstlang1.sty
File: lstlang1.sty 2015/06/04 1.6 listings language file
)
(/gnu/store/94yjdjy5845ig22wk4nch2964hh3vh3y-texlive-texmf-2016/share/texmf-dis
t/tex/latex/listings/lstmisc.sty
File: lstmisc.sty 2015/06/04 1.6 (Carsten Heinz)
)
LaTeX Font Info:    Try loading font information for U+msa on input line 19.

(/gnu/store/94yjdjy5845ig22wk4nch2964hh3vh3y-texlive-texmf-2016/share/texmf-dis
t/tex/latex/amsfonts/umsa.fd
File: umsa.fd 2013/01/14 v3.01 AMS symbols A
)
LaTeX Font Info:    Try loading font information for U+msb on input line 19.

(/gnu/store/94yjdjy5845ig22wk4nch2964hh3vh3y-texlive-texmf-2016/share/texmf-dis
t/tex/latex/amsfonts/umsb.fd
File: umsb.fd 2013/01/14 v3.01 AMS symbols B
)
LaTeX Font Info:    Try loading font information for OT1+mathkerncmss on input 
line 19.

(/gnu/store/94yjdjy5845ig22wk4nch2964hh3vh3y-texlive-texmf-2016/share/texmf-dis
t/tex/latex/sansmathaccent/ot1mathkerncmss.fd
File: ot1mathkerncmss.fd 2013/03/27 Fontinst v1.933 font definitions for OT1/ma
thkerncmss.
)
LaTeX Font Info:    Try loading font information for OMS+cmss on input line 19.

LaTeX Font Info:    No file OMScmss.fd. on input line 19.


LaTeX Font Warning: Font shape `OMS/cmss/m/n' undefined
(Font)              using `OMS/cmsy/m/n' instead
(Font)              for symbol `textasteriskcentered' on input line 19.

) [7

] [8


] [9

] [10

] [11

] [12

] [13

] [14

] [15

] [16

] [17

] [18

] [19

] [20

] [21

]
[22

] [23

] [24

] (./talk.bbl) [25

 </gnu/store/94yjdjy5845ig22wk4nch2964hh3vh3y-texlive-texmf-2016/share/texmf-di
st/tex/latex/beamer/art/beamericonarticle.pdf>]
<static/img/logo.png, id=697, 44.37144pt x 44.20506pt>
File: static/img/logo.png Graphic file (type png)

<use static/img/logo.png>
Package pdftex.def Info: static/img/logo.png used on input line 109.
(pdftex.def)             Requested size: 177.48523pt x 176.81976pt.
 [26

 <./static/img/logo.png>]
\tf@nav=\write6
\openout6 = `talk.nav'.

\tf@toc=\write7
\openout7 = `talk.toc'.

\tf@snm=\write8
\openout8 = `talk.snm'.

Package atveryend Info: Empty hook `BeforeClearDocument' on input line 111.
Package atveryend Info: Empty hook `AfterLastShipout' on input line 111.
 (./talk.aux)
Package atveryend Info: Executing hook `AtVeryEndDocument' on input line 111.
Package atveryend Info: Executing hook `AtEndAfterFileList' on input line 111.
Package rerunfilecheck Info: File `talk.out' has not changed.
(rerunfilecheck)             Checksum: D41D8CD98F00B204E9800998ECF8427E;0.


LaTeX Font Warning: Size substitutions with differences
(Font)              up to 1.0pt have occurred.


LaTeX Font Warning: Some font shapes were not available, defaults substituted.

Package atveryend Info: Empty hook `AtVeryVeryEnd' on input line 111.
 ) 
Here is how much of TeX's memory you used:
 24835 strings out of 493014
 516132 string characters out of 6112682
 623146 words of memory out of 5000000
 27749 multiletter control sequences out of 15000+600000
 15999 words of font info for 44 fonts, out of 8000000 for 9000
 1141 hyphenation exceptions out of 8191
 56i,16n,67p,380b,1461s stack positions out of 5000i,500n,10000p,200000b,80000s
{/gnu/store/94yjdjy5845ig22wk4nch2964hh3vh3y-texlive-texmf-2016/share/texmf-d
ist/fonts/enc/dvips/cm-super/cm-super-t1.enc}</gnu/store/94yjdjy5845ig22wk4nch2
964hh3vh3y-texlive-texmf-2016/share/texmf-dist/fonts/type1/public/amsfonts/cm/c
msy10.pfb></gnu/store/94yjdjy5845ig22wk4nch2964hh3vh3y-texlive-texmf-2016/share
/texmf-dist/fonts/type1/public/cm-super/sfsi0900.pfb></gnu/store/94yjdjy5845ig2
2wk4nch2964hh3vh3y-texlive-texmf-2016/share/texmf-dist/fonts/type1/public/cm-su
per/sfss0600.pfb></gnu/store/94yjdjy5845ig22wk4nch2964hh3vh3y-texlive-texmf-201
6/share/texmf-dist/fonts/type1/public/cm-super/sfss0800.pfb></gnu/store/94yjdjy
5845ig22wk4nch2964hh3vh3y-texlive-texmf-2016/share/texmf-dist/fonts/type1/publi
c/cm-super/sfss0900.pfb></gnu/store/94yjdjy5845ig22wk4nch2964hh3vh3y-texlive-te
xmf-2016/share/texmf-dist/fonts/type1/public/cm-super/sfss1095.pfb></gnu/store/
94yjdjy5845ig22wk4nch2964hh3vh3y-texlive-texmf-2016/share/texmf-dist/fonts/type
1/public/cm-super/sfss1440.pfb></gnu/store/94yjdjy5845ig22wk4nch2964hh3vh3y-tex
live-texmf-2016/share/texmf-dist/fonts/type1/public/cm-super/sfsx1095.pfb>
Output written on talk.pdf (26 pages, 161654 bytes).
PDF statistics:
 767 PDF objects out of 1000 (max. 8388607)
 709 compressed objects within 8 object streams
 56 named destinations out of 1000 (max. 500000)
 53 words of extra memory for PDF output out of 10000 (max. 10000000)

