\relax 
\providecommand\hyper@newdestlabel[2]{}
\providecommand\HyperFirstAtBeginDocument{\AtBeginDocument}
\HyperFirstAtBeginDocument{\ifx\hyper@anchor\@undefined
\global\let\oldcontentsline\contentsline
\gdef\contentsline#1#2#3#4{\oldcontentsline{#1}{#2}{#3}}
\global\let\oldnewlabel\newlabel
\gdef\newlabel#1#2{\newlabelxx{#1}#2}
\gdef\newlabelxx#1#2#3#4#5#6{\oldnewlabel{#1}{{#2}{#3}}}
\AtEndDocument{\ifx\hyper@anchor\@undefined
\let\contentsline\oldcontentsline
\let\newlabel\oldnewlabel
\fi}
\fi}
\global\let\hyper@last\relax 
\gdef\HyperFirstAtBeginDocument#1{#1}
\providecommand\HyField@AuxAddToFields[1]{}
\providecommand\HyField@AuxAddToCoFields[2]{}
\catcode `"\active 
\@writefile{toc}{\beamer@endinputifotherversion {3.36pt}}
\@writefile{nav}{\beamer@endinputifotherversion {3.36pt}}
\select@language{brazilian}
\@writefile{toc}{\select@language{brazilian}}
\@writefile{lof}{\select@language{brazilian}}
\@writefile{lot}{\select@language{brazilian}}
\@writefile{nav}{\headcommand {\slideentry {0}{0}{1}{1/1}{}{0}}}
\@writefile{nav}{\headcommand {\beamer@framepages {1}{1}}}
\@writefile{nav}{\headcommand {\slideentry {0}{0}{2}{2/2}{}{0}}}
\@writefile{nav}{\headcommand {\beamer@framepages {2}{2}}}
\@writefile{nav}{\headcommand {\slideentry {0}{0}{2}{2/3}{}{0}}}
\@writefile{nav}{\headcommand {\beamer@framepages {2}{3}}}
\@writefile{toc}{\beamer@sectionintoc {1}{Eu}{4}{0}{1}}
\@writefile{nav}{\headcommand {\sectionentry {1}{Eu}{4}{Eu}{0}}}
\@writefile{nav}{\headcommand {\beamer@sectionpages {1}{3}}}
\@writefile{nav}{\headcommand {\beamer@subsectionpages {1}{3}}}
\@writefile{toc}{\beamer@subsectionintoc {1}{1}{Eu}{4}{0}{1}}
\@writefile{nav}{\headcommand {\beamer@subsectionentry {0}{1}{1}{4}{Eu}}\headcommand {\beamer@subsectionpages {4}{3}}}
\@writefile{nav}{\headcommand {\slideentry {1}{1}{1}{4/12}{Eu}{0}}}
\@writefile{nav}{\headcommand {\beamer@framepages {4}{12}}}
\citation{1}
\@writefile{toc}{\beamer@sectionintoc {2}{Criptomoedas}{13}{0}{2}}
\@writefile{nav}{\headcommand {\sectionentry {2}{Criptomoedas}{13}{Criptomoedas}{0}}}
\@writefile{nav}{\headcommand {\beamer@sectionpages {4}{12}}}
\@writefile{nav}{\headcommand {\beamer@subsectionpages {4}{12}}}
\@writefile{toc}{\beamer@subsectionintoc {2}{1}{Cryptomoedas?}{13}{0}{2}}
\@writefile{nav}{\headcommand {\beamer@subsectionentry {0}{2}{1}{13}{Cryptomoedas?}}\headcommand {\beamer@subsectionpages {13}{12}}}
\citation{1}
\@writefile{nav}{\headcommand {\slideentry {2}{1}{1}{13/14}{Cryptomoedas?}{0}}}
\@writefile{nav}{\headcommand {\beamer@framepages {13}{14}}}
\@writefile{toc}{\beamer@subsectionintoc {2}{2}{Caracter\IeC {\'\i }sticas}{15}{0}{2}}
\@writefile{nav}{\headcommand {\beamer@subsectionentry {0}{2}{2}{15}{Caracter\IeC {\'\i }sticas}}\headcommand {\beamer@subsectionpages {13}{14}}}
\@writefile{nav}{\headcommand {\slideentry {2}{2}{1}{15/20}{Caracter\IeC {\'\i }sticas}{0}}}
\@writefile{nav}{\headcommand {\beamer@framepages {15}{20}}}
\citation{2}
\citation{3}
\citation{4}
\citation{5}
\@writefile{toc}{\beamer@subsectionintoc {2}{3}{Hist\IeC {\'o}ria}{21}{0}{2}}
\@writefile{nav}{\headcommand {\beamer@subsectionentry {0}{2}{3}{21}{Hist\IeC {\'o}ria}}\headcommand {\beamer@subsectionpages {15}{20}}}
\citation{2}
\citation{3}
\citation{4}
\citation{5}
\citation{2}
\citation{3}
\citation{4}
\citation{5}
\citation{2}
\citation{3}
\citation{4}
\citation{5}
\citation{2}
\citation{3}
\citation{4}
\citation{5}
\@writefile{nav}{\headcommand {\slideentry {2}{3}{1}{21/25}{Hist\IeC {\'o}ria}{0}}}
\@writefile{nav}{\headcommand {\beamer@framepages {21}{25}}}
\@writefile{toc}{\beamer@subsectionintoc {2}{4}{Legalidade}{26}{0}{2}}
\@writefile{nav}{\headcommand {\beamer@subsectionentry {0}{2}{4}{26}{Legalidade}}\headcommand {\beamer@subsectionpages {21}{25}}}
\@writefile{nav}{\headcommand {\slideentry {2}{4}{1}{26/31}{Legalidade}{0}}}
\@writefile{nav}{\headcommand {\beamer@framepages {26}{31}}}
\citation{1}
\@writefile{toc}{\beamer@sectionintoc {3}{Bitcoin}{32}{0}{3}}
\@writefile{nav}{\headcommand {\sectionentry {3}{Bitcoin}{32}{Bitcoin}{0}}}
\@writefile{nav}{\headcommand {\beamer@sectionpages {13}{31}}}
\@writefile{nav}{\headcommand {\beamer@subsectionpages {26}{31}}}
\@writefile{toc}{\beamer@subsectionintoc {3}{1}{Bitcoin?}{32}{0}{3}}
\@writefile{nav}{\headcommand {\beamer@subsectionentry {0}{3}{1}{32}{Bitcoin?}}\headcommand {\beamer@subsectionpages {32}{31}}}
\citation{1}
\@writefile{nav}{\headcommand {\slideentry {3}{1}{1}{32/33}{Bitcoin?}{0}}}
\@writefile{nav}{\headcommand {\beamer@framepages {32}{33}}}
\@writefile{toc}{\beamer@subsectionintoc {3}{2}{Caracteristicas}{34}{0}{3}}
\@writefile{nav}{\headcommand {\beamer@subsectionentry {0}{3}{2}{34}{Caracteristicas}}\headcommand {\beamer@subsectionpages {32}{33}}}
\@writefile{nav}{\headcommand {\slideentry {3}{2}{1}{34/41}{Caracteristicas}{0}}}
\@writefile{nav}{\headcommand {\beamer@framepages {34}{41}}}
\@writefile{toc}{\beamer@subsectionintoc {3}{3}{Bitcoin para Todos}{42}{0}{3}}
\@writefile{nav}{\headcommand {\beamer@subsectionentry {0}{3}{3}{42}{Bitcoin para Todos}}\headcommand {\beamer@subsectionpages {34}{41}}}
\@writefile{nav}{\headcommand {\slideentry {3}{3}{1}{42/55}{Bitcoin para Todos}{0}}}
\@writefile{nav}{\headcommand {\beamer@framepages {42}{55}}}
\@writefile{toc}{\beamer@subsectionintoc {3}{4}{Quantidade de Clientes}{56}{0}{3}}
\@writefile{nav}{\headcommand {\beamer@subsectionentry {0}{3}{4}{56}{Quantidade de Clientes}}\headcommand {\beamer@subsectionpages {42}{55}}}
\citation{6}
\@writefile{nav}{\headcommand {\slideentry {3}{4}{1}{56/57}{Quantidade de Clientes}{0}}}
\@writefile{nav}{\headcommand {\beamer@framepages {56}{57}}}
\@writefile{toc}{\beamer@subsectionintoc {3}{5}{Quantidade de Transa\IeC {\c c}\IeC {\~o}es}{58}{0}{3}}
\@writefile{nav}{\headcommand {\beamer@subsectionentry {0}{3}{5}{58}{Quantidade de Transa\IeC {\c c}\IeC {\~o}es}}\headcommand {\beamer@subsectionpages {56}{57}}}
\citation{7}
\@writefile{nav}{\headcommand {\slideentry {3}{5}{1}{58/59}{Quantidade de Transa\IeC {\c c}\IeC {\~o}es}{0}}}
\@writefile{nav}{\headcommand {\beamer@framepages {58}{59}}}
\@writefile{toc}{\beamer@subsectionintoc {3}{6}{Sistema}{60}{0}{3}}
\@writefile{nav}{\headcommand {\beamer@subsectionentry {0}{3}{6}{60}{Sistema}}\headcommand {\beamer@subsectionpages {58}{59}}}
\citation{9}
\@writefile{nav}{\headcommand {\slideentry {3}{6}{1}{60/61}{Sistema}{0}}}
\@writefile{nav}{\headcommand {\beamer@framepages {60}{61}}}
\@writefile{toc}{\beamer@sectionintoc {4}{Elementos Bitcoin}{62}{0}{4}}
\@writefile{nav}{\headcommand {\sectionentry {4}{Elementos Bitcoin}{62}{Elementos Bitcoin}{0}}}
\@writefile{nav}{\headcommand {\beamer@sectionpages {32}{61}}}
\@writefile{nav}{\headcommand {\beamer@subsectionpages {60}{61}}}
\@writefile{toc}{\beamer@subsectionintoc {4}{1}{Wallet}{62}{0}{4}}
\@writefile{nav}{\headcommand {\beamer@subsectionentry {0}{4}{1}{62}{Wallet}}\headcommand {\beamer@subsectionpages {62}{61}}}
\@writefile{nav}{\headcommand {\slideentry {4}{1}{1}{62/70}{Wallet}{0}}}
\@writefile{nav}{\headcommand {\beamer@framepages {62}{70}}}
\@writefile{toc}{\beamer@subsectionintoc {4}{2}{Miner}{71}{0}{4}}
\@writefile{nav}{\headcommand {\beamer@subsectionentry {0}{4}{2}{71}{Miner}}\headcommand {\beamer@subsectionpages {62}{70}}}
\@writefile{nav}{\headcommand {\slideentry {4}{2}{1}{71/79}{Miner}{0}}}
\@writefile{nav}{\headcommand {\beamer@framepages {71}{79}}}
\@writefile{toc}{\beamer@subsectionintoc {4}{3}{Block chain}{80}{0}{4}}
\@writefile{nav}{\headcommand {\beamer@subsectionentry {0}{4}{3}{80}{Block chain}}\headcommand {\beamer@subsectionpages {71}{79}}}
\citation{8}
\@writefile{nav}{\headcommand {\slideentry {4}{3}{1}{80/81}{Block chain}{0}}}
\@writefile{nav}{\headcommand {\beamer@framepages {80}{81}}}
\citation{10}
\citation{11}
\@writefile{toc}{\beamer@sectionintoc {5}{Cracking}{82}{0}{5}}
\@writefile{nav}{\headcommand {\sectionentry {5}{Cracking}{82}{Cracking}{0}}}
\@writefile{nav}{\headcommand {\beamer@sectionpages {62}{81}}}
\@writefile{nav}{\headcommand {\beamer@subsectionpages {80}{81}}}
\@writefile{toc}{\beamer@subsectionintoc {5}{1}{Cracking}{82}{0}{5}}
\@writefile{nav}{\headcommand {\beamer@subsectionentry {0}{5}{1}{82}{Cracking}}\headcommand {\beamer@subsectionpages {82}{81}}}
\citation{10}
\citation{11}
\citation{10}
\citation{11}
\citation{10}
\citation{11}
\citation{10}
\citation{11}
\@writefile{nav}{\headcommand {\slideentry {5}{1}{1}{82/86}{Cracking}{0}}}
\@writefile{nav}{\headcommand {\beamer@framepages {82}{86}}}
\@writefile{toc}{\beamer@sectionintoc {6}{Hacking}{87}{0}{6}}
\@writefile{nav}{\headcommand {\sectionentry {6}{Hacking}{87}{Hacking}{0}}}
\@writefile{nav}{\headcommand {\beamer@sectionpages {82}{86}}}
\@writefile{nav}{\headcommand {\beamer@subsectionpages {82}{86}}}
\@writefile{toc}{\beamer@subsectionintoc {6}{1}{Hacking}{87}{0}{6}}
\@writefile{nav}{\headcommand {\beamer@subsectionentry {0}{6}{1}{87}{Hacking}}\headcommand {\beamer@subsectionpages {87}{86}}}
\@writefile{nav}{\headcommand {\slideentry {6}{1}{1}{87/95}{Hacking}{0}}}
\@writefile{nav}{\headcommand {\beamer@framepages {87}{95}}}
\bibdata{talk}
\bibcite{11}{\hyperlink {beamerbib11}{Biryukov et~al., 2014}}
\bibcite{10}{\hyperlink {beamerbib10}{Bradbury, 2015}}
\bibcite{5}{\hyperlink {beamerbib5}{CoinMarketCap, 2016}}
\bibcite{2}{\hyperlink {beamerbib2}{Dai, 2016}}
\bibcite{4}{\hyperlink {beamerbib4}{Evans-Pughe et~al., 2014}}
\bibcite{1}{\hyperlink {beamerbib1}{Nakamoto, 2016a}}
\bibcite{8}{\hyperlink {beamerbib8}{Nakamoto, 2016b}}
\bibcite{3}{\hyperlink {beamerbib3}{Peck, 2016}}
\bibcite{6}{\hyperlink {beamerbib6}{Smith, 2016a}}
\bibcite{7}{\hyperlink {beamerbib7}{Smith, 2016b}}
\bibcite{9}{\hyperlink {beamerbib9}{Times, 2016}}
\bibstyle{apalike}
\@writefile{toc}{\beamer@sectionintoc {7}{Refer\IeC {\^e}ncias}{96}{0}{7}}
\@writefile{nav}{\headcommand {\sectionentry {7}{Refer\IeC {\^e}ncias}{96}{Refer\IeC {\^e}ncias}{0}}}
\@writefile{nav}{\headcommand {\beamer@sectionpages {87}{95}}}
\@writefile{nav}{\headcommand {\beamer@subsectionpages {87}{95}}}
\@writefile{toc}{\beamer@subsectionintoc {7}{1}{Refer\IeC {\^e}ncias}{96}{0}{7}}
\@writefile{nav}{\headcommand {\beamer@subsectionentry {0}{7}{1}{96}{Refer\IeC {\^e}ncias}}\headcommand {\beamer@subsectionpages {96}{95}}}
\@writefile{nav}{\headcommand {\slideentry {7}{1}{1}{96/96}{Refer\IeC {\^e}ncias}{0}}}
\@writefile{nav}{\headcommand {\beamer@framepages {96}{96}}}
\@writefile{nav}{\headcommand {\slideentry {7}{1}{1}{96/97}{Refer\IeC {\^e}ncias}{0}}}
\@writefile{nav}{\headcommand {\beamer@framepages {96}{97}}}
\@writefile{nav}{\headcommand {\slideentry {7}{1}{1}{96/98}{Refer\IeC {\^e}ncias}{0}}}
\@writefile{nav}{\headcommand {\beamer@framepages {96}{98}}}
\@writefile{toc}{\beamer@sectionintoc {8}{Fim}{99}{0}{8}}
\@writefile{nav}{\headcommand {\sectionentry {8}{Fim}{99}{Fim}{0}}}
\@writefile{nav}{\headcommand {\beamer@sectionpages {96}{98}}}
\@writefile{nav}{\headcommand {\beamer@subsectionpages {96}{98}}}
\@writefile{toc}{\beamer@subsectionintoc {8}{1}{Fim}{99}{0}{8}}
\@writefile{nav}{\headcommand {\beamer@subsectionentry {0}{8}{1}{99}{Fim}}\headcommand {\beamer@subsectionpages {99}{98}}}
\@writefile{nav}{\headcommand {\slideentry {8}{1}{1}{99/99}{Fim}{0}}}
\@writefile{nav}{\headcommand {\beamer@framepages {99}{99}}}
\@writefile{nav}{\headcommand {\beamer@partpages {1}{99}}}
\@writefile{nav}{\headcommand {\beamer@subsectionpages {99}{99}}}
\@writefile{nav}{\headcommand {\beamer@sectionpages {99}{99}}}
\@writefile{nav}{\headcommand {\beamer@documentpages {99}}}
\@writefile{nav}{\headcommand {\def \inserttotalframenumber {23}}}
