\relax 
\providecommand\hyper@newdestlabel[2]{}
\providecommand\HyperFirstAtBeginDocument{\AtBeginDocument}
\HyperFirstAtBeginDocument{\ifx\hyper@anchor\@undefined
\global\let\oldcontentsline\contentsline
\gdef\contentsline#1#2#3#4{\oldcontentsline{#1}{#2}{#3}}
\global\let\oldnewlabel\newlabel
\gdef\newlabel#1#2{\newlabelxx{#1}#2}
\gdef\newlabelxx#1#2#3#4#5#6{\oldnewlabel{#1}{{#2}{#3}}}
\AtEndDocument{\ifx\hyper@anchor\@undefined
\let\contentsline\oldcontentsline
\let\newlabel\oldnewlabel
\fi}
\fi}
\global\let\hyper@last\relax 
\gdef\HyperFirstAtBeginDocument#1{#1}
\providecommand\HyField@AuxAddToFields[1]{}
\providecommand\HyField@AuxAddToCoFields[2]{}
\@writefile{toc}{\beamer@endinputifotherversion {3.36pt}}
\@writefile{nav}{\beamer@endinputifotherversion {3.36pt}}
\@writefile{nav}{\headcommand {\slideentry {0}{0}{1}{1/1}{}{0}}}
\@writefile{nav}{\headcommand {\beamer@framepages {1}{1}}}
\@writefile{nav}{\headcommand {\slideentry {0}{0}{2}{2/2}{}{0}}}
\@writefile{nav}{\headcommand {\beamer@framepages {2}{2}}}
\@writefile{toc}{\beamer@sectionintoc {1}{Me}{3}{0}{1}}
\@writefile{nav}{\headcommand {\sectionentry {1}{Me}{3}{Me}{0}}}
\@writefile{nav}{\headcommand {\beamer@sectionpages {1}{2}}}
\@writefile{nav}{\headcommand {\beamer@subsectionpages {1}{2}}}
\@writefile{nav}{\headcommand {\slideentry {1}{0}{1}{3/15}{}{0}}}
\@writefile{nav}{\headcommand {\beamer@framepages {3}{15}}}
\@writefile{toc}{\beamer@sectionintoc {2}{GNU Guile}{16}{0}{2}}
\@writefile{nav}{\headcommand {\sectionentry {2}{GNU Guile}{16}{GNU Guile}{0}}}
\@writefile{nav}{\headcommand {\beamer@sectionpages {3}{15}}}
\@writefile{nav}{\headcommand {\beamer@subsectionpages {3}{15}}}
\@writefile{toc}{\beamer@subsectionintoc {2}{1}{Guile?}{16}{0}{2}}
\@writefile{nav}{\headcommand {\beamer@subsectionentry {0}{2}{1}{16}{Guile?}}\headcommand {\beamer@subsectionpages {16}{15}}}
\citation{1}
\@writefile{nav}{\headcommand {\slideentry {2}{1}{1}{16/17}{Guile?}{0}}}
\@writefile{nav}{\headcommand {\beamer@framepages {16}{17}}}
\@writefile{toc}{\beamer@subsectionintoc {2}{2}{Guile}{18}{0}{2}}
\@writefile{nav}{\headcommand {\beamer@subsectionentry {0}{2}{2}{18}{Guile}}\headcommand {\beamer@subsectionpages {16}{17}}}
\citation{2}
\@writefile{nav}{\headcommand {\slideentry {2}{2}{1}{18/19}{Guile}{0}}}
\@writefile{nav}{\headcommand {\beamer@framepages {18}{19}}}
\@writefile{toc}{\beamer@subsectionintoc {2}{3}{Features}{20}{0}{2}}
\@writefile{nav}{\headcommand {\beamer@subsectionentry {0}{2}{3}{20}{Features}}\headcommand {\beamer@subsectionpages {18}{19}}}
\@writefile{nav}{\headcommand {\slideentry {2}{3}{1}{20/25}{Features}{0}}}
\@writefile{nav}{\headcommand {\beamer@framepages {20}{25}}}
\@writefile{toc}{\beamer@subsectionintoc {2}{4}{Programming Languages Supported}{26}{0}{2}}
\@writefile{nav}{\headcommand {\beamer@subsectionentry {0}{2}{4}{26}{Programming Languages Supported}}\headcommand {\beamer@subsectionpages {20}{25}}}
\@writefile{nav}{\headcommand {\slideentry {2}{4}{1}{26/32}{Programming Languages Supported}{0}}}
\@writefile{nav}{\headcommand {\beamer@framepages {26}{32}}}
\@writefile{toc}{\beamer@subsectionintoc {2}{5}{Projects}{33}{0}{2}}
\@writefile{nav}{\headcommand {\beamer@subsectionentry {0}{2}{5}{33}{Projects}}\headcommand {\beamer@subsectionpages {26}{32}}}
\@writefile{nav}{\headcommand {\slideentry {2}{5}{1}{33/38}{Projects}{0}}}
\@writefile{nav}{\headcommand {\beamer@framepages {33}{38}}}
\@writefile{toc}{\beamer@subsectionintoc {2}{6}{Help}{39}{0}{2}}
\@writefile{nav}{\headcommand {\beamer@subsectionentry {0}{2}{6}{39}{Help}}\headcommand {\beamer@subsectionpages {33}{38}}}
\@writefile{nav}{\headcommand {\slideentry {2}{6}{1}{39/42}{Help}{0}}}
\@writefile{nav}{\headcommand {\beamer@framepages {39}{42}}}
\@writefile{toc}{\beamer@subsectionintoc {2}{7}{Coding}{43}{0}{2}}
\@writefile{nav}{\headcommand {\beamer@subsectionentry {0}{2}{7}{43}{Coding}}\headcommand {\beamer@subsectionpages {39}{42}}}
\@writefile{nav}{\headcommand {\slideentry {2}{7}{1}{43/43}{Coding}{0}}}
\@writefile{nav}{\headcommand {\beamer@framepages {43}{43}}}
\bibdata{talk}
\bibcite{2}{\hyperlink {beamerbib2}{FSF, 2016}}
\bibcite{1}{\hyperlink {beamerbib1}{Sirlin, 2016}}
\bibstyle{apalike}
\@writefile{toc}{\beamer@sectionintoc {3}{References}{44}{0}{3}}
\@writefile{nav}{\headcommand {\sectionentry {3}{References}{44}{References}{0}}}
\@writefile{nav}{\headcommand {\beamer@sectionpages {16}{43}}}
\@writefile{nav}{\headcommand {\beamer@subsectionpages {43}{43}}}
\@writefile{nav}{\headcommand {\slideentry {3}{0}{1}{44/44}{}{0}}}
\@writefile{nav}{\headcommand {\beamer@framepages {44}{44}}}
\@writefile{toc}{\beamer@sectionintoc {4}{End}{45}{0}{4}}
\@writefile{nav}{\headcommand {\sectionentry {4}{End}{45}{End}{0}}}
\@writefile{nav}{\headcommand {\beamer@sectionpages {44}{44}}}
\@writefile{nav}{\headcommand {\beamer@subsectionpages {44}{44}}}
\@writefile{nav}{\headcommand {\slideentry {4}{0}{1}{45/45}{}{0}}}
\@writefile{nav}{\headcommand {\beamer@framepages {45}{45}}}
\@writefile{nav}{\headcommand {\beamer@partpages {1}{45}}}
\@writefile{nav}{\headcommand {\beamer@subsectionpages {45}{45}}}
\@writefile{nav}{\headcommand {\beamer@sectionpages {45}{45}}}
\@writefile{nav}{\headcommand {\beamer@documentpages {45}}}
\@writefile{nav}{\headcommand {\def \inserttotalframenumber {12}}}
