\beamer@endinputifotherversion {3.36pt}
\beamer@sectionintoc {1}{Me}{3}{0}{1}
\beamer@sectionintoc {2}{GNU Guile}{16}{0}{2}
\beamer@subsectionintoc {2}{1}{Guile?}{16}{0}{2}
\beamer@subsectionintoc {2}{2}{Guile}{18}{0}{2}
\beamer@subsectionintoc {2}{3}{Features}{20}{0}{2}
\beamer@subsectionintoc {2}{4}{Programming Languages Supported}{26}{0}{2}
\beamer@subsectionintoc {2}{5}{Projects}{33}{0}{2}
\beamer@subsectionintoc {2}{6}{Help}{39}{0}{2}
\beamer@subsectionintoc {2}{7}{Coding}{43}{0}{2}
\beamer@sectionintoc {3}{References}{44}{0}{3}
\beamer@sectionintoc {4}{End}{45}{0}{4}
