\relax 
\providecommand\hyper@newdestlabel[2]{}
\providecommand\HyperFirstAtBeginDocument{\AtBeginDocument}
\HyperFirstAtBeginDocument{\ifx\hyper@anchor\@undefined
\global\let\oldcontentsline\contentsline
\gdef\contentsline#1#2#3#4{\oldcontentsline{#1}{#2}{#3}}
\global\let\oldnewlabel\newlabel
\gdef\newlabel#1#2{\newlabelxx{#1}#2}
\gdef\newlabelxx#1#2#3#4#5#6{\oldnewlabel{#1}{{#2}{#3}}}
\AtEndDocument{\ifx\hyper@anchor\@undefined
\let\contentsline\oldcontentsline
\let\newlabel\oldnewlabel
\fi}
\fi}
\global\let\hyper@last\relax 
\gdef\HyperFirstAtBeginDocument#1{#1}
\providecommand\HyField@AuxAddToFields[1]{}
\providecommand\HyField@AuxAddToCoFields[2]{}
\catcode `"\active 
\@writefile{toc}{\beamer@endinputifotherversion {3.36pt}}
\@writefile{nav}{\beamer@endinputifotherversion {3.36pt}}
\select@language{brazilian}
\@writefile{toc}{\select@language{brazilian}}
\@writefile{lof}{\select@language{brazilian}}
\@writefile{lot}{\select@language{brazilian}}
\@writefile{nav}{\headcommand {\slideentry {0}{0}{1}{1/1}{}{0}}}
\@writefile{nav}{\headcommand {\beamer@framepages {1}{1}}}
\citation{1}
\citation{1}
\citation{1}
\citation{1}
\citation{1}
\citation{1}
\citation{1}
\@writefile{nav}{\headcommand {\slideentry {0}{0}{2}{2/8}{}{0}}}
\@writefile{nav}{\headcommand {\beamer@framepages {2}{8}}}
\citation{2}
\citation{2}
\citation{2}
\citation{2}
\@writefile{nav}{\headcommand {\slideentry {0}{0}{3}{9/12}{}{0}}}
\@writefile{nav}{\headcommand {\beamer@framepages {9}{12}}}
\citation{3}
\citation{3}
\citation{3}
\citation{3}
\citation{3}
\@writefile{nav}{\headcommand {\slideentry {0}{0}{4}{13/17}{}{0}}}
\@writefile{nav}{\headcommand {\beamer@framepages {13}{17}}}
\citation{4}
\citation{4}
\citation{4}
\@writefile{nav}{\headcommand {\slideentry {0}{0}{5}{18/20}{}{0}}}
\@writefile{nav}{\headcommand {\beamer@framepages {18}{20}}}
\@writefile{nav}{\headcommand {\slideentry {0}{0}{6}{21/24}{}{0}}}
\@writefile{nav}{\headcommand {\beamer@framepages {21}{24}}}
\@writefile{nav}{\headcommand {\slideentry {0}{0}{7}{25/32}{}{0}}}
\@writefile{nav}{\headcommand {\beamer@framepages {25}{32}}}
\citation{5}
\citation{5}
\citation{5}
\citation{5}
\citation{5}
\@writefile{nav}{\headcommand {\slideentry {0}{0}{8}{33/37}{}{0}}}
\@writefile{nav}{\headcommand {\beamer@framepages {33}{37}}}
\@writefile{nav}{\headcommand {\slideentry {0}{0}{9}{38/41}{}{0}}}
\@writefile{nav}{\headcommand {\beamer@framepages {38}{41}}}
\@writefile{nav}{\headcommand {\slideentry {0}{0}{10}{42/46}{}{0}}}
\@writefile{nav}{\headcommand {\beamer@framepages {42}{46}}}
\@writefile{nav}{\headcommand {\slideentry {0}{0}{11}{47/51}{}{0}}}
\@writefile{nav}{\headcommand {\beamer@framepages {47}{51}}}
\citation{1}
\citation{1}
\citation{1}
\citation{1}
\citation{1}
\@writefile{nav}{\headcommand {\slideentry {0}{0}{12}{52/56}{}{0}}}
\@writefile{nav}{\headcommand {\beamer@framepages {52}{56}}}
\citation{2}
\citation{2}
\citation{2}
\@writefile{nav}{\headcommand {\slideentry {0}{0}{13}{57/59}{}{0}}}
\@writefile{nav}{\headcommand {\beamer@framepages {57}{59}}}
\@writefile{nav}{\headcommand {\slideentry {0}{0}{14}{60/61}{}{0}}}
\@writefile{nav}{\headcommand {\beamer@framepages {60}{61}}}
\citation{3}
\citation{3}
\citation{3}
\citation{3}
\citation{3}
\citation{3}
\@writefile{nav}{\headcommand {\slideentry {0}{0}{15}{62/67}{}{0}}}
\@writefile{nav}{\headcommand {\beamer@framepages {62}{67}}}
\citation{4}
\citation{4}
\citation{4}
\citation{4}
\citation{4}
\citation{4}
\citation{4}
\citation{4}
\citation{4}
\citation{4}
\citation{4}
\@writefile{nav}{\headcommand {\slideentry {0}{0}{16}{68/78}{}{0}}}
\@writefile{nav}{\headcommand {\beamer@framepages {68}{78}}}
\@writefile{nav}{\headcommand {\slideentry {0}{0}{17}{79/85}{}{0}}}
\@writefile{nav}{\headcommand {\beamer@framepages {79}{85}}}
\@writefile{nav}{\headcommand {\slideentry {0}{0}{18}{86/87}{}{0}}}
\@writefile{nav}{\headcommand {\beamer@framepages {86}{87}}}
\bibdata{talk}
\bibcite{2}{\hyperlink {beamerbib2}{Bittencourt, 2014}}
\bibcite{1}{\hyperlink {beamerbib1}{George, 2014}}
\bibcite{4}{\hyperlink {beamerbib4}{Resende, 2015}}
\bibcite{5}{\hyperlink {beamerbib5}{Rich, 2016}}
\bibcite{3}{\hyperlink {beamerbib3}{Russel and Norvig, 2015}}
\bibstyle{apalike}
\@writefile{nav}{\headcommand {\slideentry {0}{0}{19}{89/89}{}{0}}}
\@writefile{nav}{\headcommand {\beamer@framepages {89}{89}}}
\@writefile{nav}{\headcommand {\slideentry {0}{0}{20}{91/91}{}{0}}}
\@writefile{nav}{\headcommand {\beamer@framepages {91}{91}}}
\@writefile{nav}{\headcommand {\beamer@partpages {1}{91}}}
\@writefile{nav}{\headcommand {\beamer@subsectionpages {1}{91}}}
\@writefile{nav}{\headcommand {\beamer@sectionpages {1}{91}}}
\@writefile{nav}{\headcommand {\beamer@documentpages {91}}}
\@writefile{nav}{\headcommand {\def \inserttotalframenumber {20}}}
