\relax 
\providecommand\hyper@newdestlabel[2]{}
\providecommand\HyperFirstAtBeginDocument{\AtBeginDocument}
\HyperFirstAtBeginDocument{\ifx\hyper@anchor\@undefined
\global\let\oldcontentsline\contentsline
\gdef\contentsline#1#2#3#4{\oldcontentsline{#1}{#2}{#3}}
\global\let\oldnewlabel\newlabel
\gdef\newlabel#1#2{\newlabelxx{#1}#2}
\gdef\newlabelxx#1#2#3#4#5#6{\oldnewlabel{#1}{{#2}{#3}}}
\AtEndDocument{\ifx\hyper@anchor\@undefined
\let\contentsline\oldcontentsline
\let\newlabel\oldnewlabel
\fi}
\fi}
\global\let\hyper@last\relax 
\gdef\HyperFirstAtBeginDocument#1{#1}
\providecommand\HyField@AuxAddToFields[1]{}
\providecommand\HyField@AuxAddToCoFields[2]{}
\catcode `"\active 
\@writefile{toc}{\beamer@endinputifotherversion {3.36pt}}
\@writefile{nav}{\beamer@endinputifotherversion {3.36pt}}
\select@language{brazilian}
\@writefile{toc}{\select@language{brazilian}}
\@writefile{lof}{\select@language{brazilian}}
\@writefile{lot}{\select@language{brazilian}}
\@writefile{nav}{\headcommand {\slideentry {0}{0}{1}{1/1}{}{0}}}
\@writefile{nav}{\headcommand {\beamer@framepages {1}{1}}}
\@writefile{nav}{\headcommand {\slideentry {0}{0}{2}{2/2}{}{0}}}
\@writefile{nav}{\headcommand {\beamer@framepages {2}{2}}}
\@writefile{toc}{\beamer@sectionintoc {1}{About Me}{3}{0}{1}}
\@writefile{nav}{\headcommand {\sectionentry {1}{About Me}{3}{About Me}{0}}}
\@writefile{nav}{\headcommand {\beamer@sectionpages {1}{2}}}
\@writefile{nav}{\headcommand {\beamer@subsectionpages {1}{2}}}
\@writefile{nav}{\headcommand {\slideentry {1}{0}{1}{3/3}{}{0}}}
\@writefile{nav}{\headcommand {\beamer@framepages {3}{3}}}
\@writefile{toc}{\beamer@sectionintoc {2}{GCC}{4}{0}{2}}
\@writefile{nav}{\headcommand {\sectionentry {2}{GCC}{4}{GCC}{0}}}
\@writefile{nav}{\headcommand {\beamer@sectionpages {3}{3}}}
\@writefile{nav}{\headcommand {\beamer@subsectionpages {3}{3}}}
\@writefile{toc}{\beamer@subsectionintoc {2}{1}{About}{4}{0}{2}}
\@writefile{nav}{\headcommand {\beamer@subsectionentry {0}{2}{1}{4}{About}}\headcommand {\beamer@subsectionpages {4}{3}}}
\citation{1}
\@writefile{nav}{\headcommand {\slideentry {2}{1}{1}{4/5}{About}{0}}}
\@writefile{nav}{\headcommand {\beamer@framepages {4}{5}}}
\@writefile{toc}{\beamer@subsectionintoc {2}{2}{Features}{6}{0}{2}}
\@writefile{nav}{\headcommand {\beamer@subsectionentry {0}{2}{2}{6}{Features}}\headcommand {\beamer@subsectionpages {4}{5}}}
\@writefile{nav}{\headcommand {\slideentry {2}{2}{1}{6/11}{Features}{0}}}
\@writefile{nav}{\headcommand {\beamer@framepages {6}{11}}}
\@writefile{toc}{\beamer@subsectionintoc {2}{3}{Programming Languages Supported}{12}{0}{2}}
\@writefile{nav}{\headcommand {\beamer@subsectionentry {0}{2}{3}{12}{Programming Languages Supported}}\headcommand {\beamer@subsectionpages {6}{11}}}
\@writefile{nav}{\headcommand {\slideentry {2}{3}{1}{12/20}{Programming Languages Supported}{0}}}
\@writefile{nav}{\headcommand {\beamer@framepages {12}{20}}}
\@writefile{toc}{\beamer@subsectionintoc {2}{4}{Structure}{21}{0}{2}}
\@writefile{nav}{\headcommand {\beamer@subsectionentry {0}{2}{4}{21}{Structure}}\headcommand {\beamer@subsectionpages {12}{20}}}
\@writefile{nav}{\headcommand {\slideentry {2}{4}{1}{21/24}{Structure}{0}}}
\@writefile{nav}{\headcommand {\beamer@framepages {21}{24}}}
\@writefile{toc}{\beamer@subsectionintoc {2}{5}{Report Bugs}{25}{0}{2}}
\@writefile{nav}{\headcommand {\beamer@subsectionentry {0}{2}{5}{25}{Report Bugs}}\headcommand {\beamer@subsectionpages {21}{24}}}
\@writefile{nav}{\headcommand {\slideentry {2}{5}{1}{25/29}{Report Bugs}{0}}}
\@writefile{nav}{\headcommand {\beamer@framepages {25}{29}}}
\@writefile{toc}{\beamer@subsectionintoc {2}{6}{Code Live}{30}{0}{2}}
\@writefile{nav}{\headcommand {\beamer@subsectionentry {0}{2}{6}{30}{Code Live}}\headcommand {\beamer@subsectionpages {25}{29}}}
\@writefile{lol}{\contentsline {lstlisting}{code/sfd.c}}
\@writefile{nav}{\headcommand {\slideentry {2}{6}{1}{30/30}{Code Live}{0}}}
\@writefile{nav}{\headcommand {\beamer@framepages {30}{30}}}
\bibcite{1}{\hyperlink {beamerbib1}{Stallman 2015}}
\@writefile{toc}{\beamer@sectionintoc {3}{Thanks}{31}{0}{3}}
\@writefile{nav}{\headcommand {\sectionentry {3}{Thanks}{31}{Thanks}{0}}}
\@writefile{nav}{\headcommand {\beamer@sectionpages {4}{30}}}
\@writefile{nav}{\headcommand {\beamer@subsectionpages {30}{30}}}
\@writefile{nav}{\headcommand {\slideentry {3}{0}{1}{31/31}{}{0}}}
\@writefile{nav}{\headcommand {\beamer@framepages {31}{31}}}
\@writefile{nav}{\headcommand {\slideentry {3}{0}{2}{32/32}{}{0}}}
\@writefile{nav}{\headcommand {\beamer@framepages {32}{32}}}
\@writefile{nav}{\headcommand {\beamer@partpages {1}{32}}}
\@writefile{nav}{\headcommand {\beamer@subsectionpages {31}{32}}}
\@writefile{nav}{\headcommand {\beamer@sectionpages {31}{32}}}
\@writefile{nav}{\headcommand {\beamer@documentpages {32}}}
\@writefile{nav}{\headcommand {\def \inserttotalframenumber {11}}}
