\relax 
\providecommand\hyper@newdestlabel[2]{}
\providecommand\HyperFirstAtBeginDocument{\AtBeginDocument}
\HyperFirstAtBeginDocument{\ifx\hyper@anchor\@undefined
\global\let\oldcontentsline\contentsline
\gdef\contentsline#1#2#3#4{\oldcontentsline{#1}{#2}{#3}}
\global\let\oldnewlabel\newlabel
\gdef\newlabel#1#2{\newlabelxx{#1}#2}
\gdef\newlabelxx#1#2#3#4#5#6{\oldnewlabel{#1}{{#2}{#3}}}
\AtEndDocument{\ifx\hyper@anchor\@undefined
\let\contentsline\oldcontentsline
\let\newlabel\oldnewlabel
\fi}
\fi}
\global\let\hyper@last\relax 
\gdef\HyperFirstAtBeginDocument#1{#1}
\providecommand\HyField@AuxAddToFields[1]{}
\providecommand\HyField@AuxAddToCoFields[2]{}
\catcode `"\active 
\@writefile{toc}{\beamer@endinputifotherversion {3.36pt}}
\@writefile{nav}{\beamer@endinputifotherversion {3.36pt}}
\select@language{brazilian}
\@writefile{toc}{\select@language{brazilian}}
\@writefile{lof}{\select@language{brazilian}}
\@writefile{lot}{\select@language{brazilian}}
\@writefile{nav}{\headcommand {\slideentry {0}{0}{1}{1/1}{}{0}}}
\@writefile{nav}{\headcommand {\beamer@framepages {1}{1}}}
\@writefile{nav}{\headcommand {\slideentry {0}{0}{2}{2/7}{}{0}}}
\@writefile{nav}{\headcommand {\beamer@framepages {2}{7}}}
\@writefile{nav}{\headcommand {\slideentry {0}{0}{3}{8/10}{}{0}}}
\@writefile{nav}{\headcommand {\beamer@framepages {8}{10}}}
\@writefile{nav}{\headcommand {\slideentry {0}{0}{4}{11/15}{}{0}}}
\@writefile{nav}{\headcommand {\beamer@framepages {11}{15}}}
\@writefile{nav}{\headcommand {\slideentry {0}{0}{5}{16/19}{}{0}}}
\@writefile{nav}{\headcommand {\beamer@framepages {16}{19}}}
\@writefile{nav}{\headcommand {\slideentry {0}{0}{6}{20/28}{}{0}}}
\@writefile{nav}{\headcommand {\beamer@framepages {20}{28}}}
\@writefile{nav}{\headcommand {\slideentry {0}{0}{7}{29/30}{}{0}}}
\@writefile{nav}{\headcommand {\beamer@framepages {29}{30}}}
\@writefile{nav}{\headcommand {\slideentry {0}{0}{8}{31/32}{}{0}}}
\@writefile{nav}{\headcommand {\beamer@framepages {31}{32}}}
\bibdata{talk}
\bibcite{1}{\hyperlink {beamerbib1}{Lipschutz and Lpson, 2013}}
\bibstyle{apalike}
\@writefile{nav}{\headcommand {\slideentry {0}{0}{9}{33/33}{}{0}}}
\@writefile{nav}{\headcommand {\beamer@framepages {33}{33}}}
\@writefile{nav}{\headcommand {\slideentry {0}{0}{10}{34/34}{}{0}}}
\@writefile{nav}{\headcommand {\beamer@framepages {34}{34}}}
\@writefile{nav}{\headcommand {\beamer@partpages {1}{34}}}
\@writefile{nav}{\headcommand {\beamer@subsectionpages {1}{34}}}
\@writefile{nav}{\headcommand {\beamer@sectionpages {1}{34}}}
\@writefile{nav}{\headcommand {\beamer@documentpages {34}}}
\@writefile{nav}{\headcommand {\def \inserttotalframenumber {10}}}
