\relax 
\providecommand\hyper@newdestlabel[2]{}
\providecommand\HyperFirstAtBeginDocument{\AtBeginDocument}
\HyperFirstAtBeginDocument{\ifx\hyper@anchor\@undefined
\global\let\oldcontentsline\contentsline
\gdef\contentsline#1#2#3#4{\oldcontentsline{#1}{#2}{#3}}
\global\let\oldnewlabel\newlabel
\gdef\newlabel#1#2{\newlabelxx{#1}#2}
\gdef\newlabelxx#1#2#3#4#5#6{\oldnewlabel{#1}{{#2}{#3}}}
\AtEndDocument{\ifx\hyper@anchor\@undefined
\let\contentsline\oldcontentsline
\let\newlabel\oldnewlabel
\fi}
\fi}
\global\let\hyper@last\relax 
\gdef\HyperFirstAtBeginDocument#1{#1}
\providecommand\HyField@AuxAddToFields[1]{}
\providecommand\HyField@AuxAddToCoFields[2]{}
\catcode `"\active 
\select@language{brazilian}
\@writefile{toc}{\select@language{brazilian}}
\@writefile{lof}{\select@language{brazilian}}
\@writefile{lot}{\select@language{brazilian}}
\@writefile{nav}{\headcommand {\slideentry {0}{0}{1}{1/1}{}{0}}}
\@writefile{nav}{\headcommand {\beamer@framepages {1}{1}}}
\@writefile{nav}{\headcommand {\slideentry {0}{0}{2}{2/11}{}{0}}}
\@writefile{nav}{\headcommand {\beamer@framepages {2}{11}}}
\citation{1}
\@writefile{nav}{\headcommand {\slideentry {0}{0}{3}{12/13}{}{0}}}
\@writefile{nav}{\headcommand {\beamer@framepages {12}{13}}}
\citation{1}
\@writefile{nav}{\headcommand {\slideentry {0}{0}{4}{14/15}{}{0}}}
\@writefile{nav}{\headcommand {\beamer@framepages {14}{15}}}
\citation{1}
\@writefile{nav}{\headcommand {\slideentry {0}{0}{5}{16/17}{}{0}}}
\@writefile{nav}{\headcommand {\beamer@framepages {16}{17}}}
\@writefile{nav}{\headcommand {\slideentry {0}{0}{6}{18/23}{}{0}}}
\@writefile{nav}{\headcommand {\beamer@framepages {18}{23}}}
\@writefile{nav}{\headcommand {\slideentry {0}{0}{7}{24/28}{}{0}}}
\@writefile{nav}{\headcommand {\beamer@framepages {24}{28}}}
\@writefile{nav}{\headcommand {\slideentry {0}{0}{8}{29/32}{}{0}}}
\@writefile{nav}{\headcommand {\beamer@framepages {29}{32}}}
\@writefile{lol}{\contentsline {lstlisting}{static/code/code}}
\@writefile{nav}{\headcommand {\slideentry {0}{0}{9}{33/34}{}{0}}}
\@writefile{nav}{\headcommand {\beamer@framepages {33}{34}}}
\@writefile{lol}{\contentsline {lstlisting}{static/code/code}}
\@writefile{nav}{\headcommand {\slideentry {0}{0}{10}{35/36}{}{0}}}
\@writefile{nav}{\headcommand {\beamer@framepages {35}{36}}}
\@writefile{lol}{\contentsline {lstlisting}{static/code/code}}
\@writefile{nav}{\headcommand {\slideentry {0}{0}{11}{37/38}{}{0}}}
\@writefile{nav}{\headcommand {\beamer@framepages {37}{38}}}
\@writefile{lol}{\contentsline {lstlisting}{static/code/code}}
\@writefile{nav}{\headcommand {\slideentry {0}{0}{12}{39/40}{}{0}}}
\@writefile{nav}{\headcommand {\beamer@framepages {39}{40}}}
\@writefile{lol}{\contentsline {lstlisting}{static/code/code}}
\@writefile{nav}{\headcommand {\slideentry {0}{0}{13}{41/42}{}{0}}}
\@writefile{nav}{\headcommand {\beamer@framepages {41}{42}}}
\@writefile{lol}{\contentsline {lstlisting}{static/code/code}}
\@writefile{nav}{\headcommand {\slideentry {0}{0}{14}{43/44}{}{0}}}
\@writefile{nav}{\headcommand {\beamer@framepages {43}{44}}}
\@writefile{lol}{\contentsline {lstlisting}{static/code/code}}
\@writefile{nav}{\headcommand {\slideentry {0}{0}{15}{45/46}{}{0}}}
\@writefile{nav}{\headcommand {\beamer@framepages {45}{46}}}
\@writefile{lol}{\contentsline {lstlisting}{static/code/code}}
\@writefile{nav}{\headcommand {\slideentry {0}{0}{16}{47/48}{}{0}}}
\@writefile{nav}{\headcommand {\beamer@framepages {47}{48}}}
\@writefile{lol}{\contentsline {lstlisting}{static/code/code}}
\@writefile{nav}{\headcommand {\slideentry {0}{0}{17}{49/50}{}{0}}}
\@writefile{nav}{\headcommand {\beamer@framepages {49}{50}}}
\@writefile{lol}{\contentsline {lstlisting}{static/code/code}}
\@writefile{nav}{\headcommand {\slideentry {0}{0}{18}{51/52}{}{0}}}
\@writefile{nav}{\headcommand {\beamer@framepages {51}{52}}}
\@writefile{lol}{\contentsline {lstlisting}{static/code/code}}
\@writefile{nav}{\headcommand {\slideentry {0}{0}{19}{53/54}{}{0}}}
\@writefile{nav}{\headcommand {\beamer@framepages {53}{54}}}
\@writefile{lol}{\contentsline {lstlisting}{static/code/code}}
\@writefile{nav}{\headcommand {\slideentry {0}{0}{20}{55/56}{}{0}}}
\@writefile{nav}{\headcommand {\beamer@framepages {55}{56}}}
\@writefile{lol}{\contentsline {lstlisting}{static/code/code}}
\@writefile{nav}{\headcommand {\slideentry {0}{0}{21}{57/58}{}{0}}}
\@writefile{nav}{\headcommand {\beamer@framepages {57}{58}}}
\citation{2}
\citation{2}
\citation{2}
\citation{2}
\citation{2}
\citation{2}
\citation{2}
\citation{2}
\@writefile{nav}{\headcommand {\slideentry {0}{0}{22}{59/66}{}{0}}}
\@writefile{nav}{\headcommand {\beamer@framepages {59}{66}}}
\@writefile{lol}{\contentsline {lstlisting}{static/code/code}}
\@writefile{nav}{\headcommand {\slideentry {0}{0}{23}{67/68}{}{0}}}
\@writefile{nav}{\headcommand {\beamer@framepages {67}{68}}}
\@writefile{lol}{\contentsline {lstlisting}{static/code/code}}
\@writefile{nav}{\headcommand {\slideentry {0}{0}{24}{69/70}{}{0}}}
\@writefile{nav}{\headcommand {\beamer@framepages {69}{70}}}
\@writefile{lol}{\contentsline {lstlisting}{static/code/code}}
\@writefile{nav}{\headcommand {\slideentry {0}{0}{25}{71/72}{}{0}}}
\@writefile{nav}{\headcommand {\beamer@framepages {71}{72}}}
\@writefile{lol}{\contentsline {lstlisting}{static/code/code}}
\@writefile{nav}{\headcommand {\slideentry {0}{0}{26}{73/74}{}{0}}}
\@writefile{nav}{\headcommand {\beamer@framepages {73}{74}}}
\@writefile{lol}{\contentsline {lstlisting}{static/code/code}}
\@writefile{nav}{\headcommand {\slideentry {0}{0}{27}{75/76}{}{0}}}
\@writefile{nav}{\headcommand {\beamer@framepages {75}{76}}}
\@writefile{lol}{\contentsline {lstlisting}{static/code/code}}
\@writefile{nav}{\headcommand {\slideentry {0}{0}{28}{77/78}{}{0}}}
\@writefile{nav}{\headcommand {\beamer@framepages {77}{78}}}
\@writefile{lol}{\contentsline {lstlisting}{static/code/code}}
\@writefile{nav}{\headcommand {\slideentry {0}{0}{29}{79/80}{}{0}}}
\@writefile{nav}{\headcommand {\beamer@framepages {79}{80}}}
\bibdata{talk}
\bibcite{1}{\hyperlink {beamerbib1}{FSF, 2017}}
\bibcite{2}{\hyperlink {beamerbib2}{Jargas, 2017}}
\bibstyle{apalike}
\@writefile{nav}{\headcommand {\slideentry {0}{0}{30}{81/81}{}{0}}}
\@writefile{nav}{\headcommand {\beamer@framepages {81}{81}}}
\@writefile{nav}{\headcommand {\slideentry {0}{0}{31}{82/82}{}{0}}}
\@writefile{nav}{\headcommand {\beamer@framepages {82}{82}}}
\@writefile{nav}{\headcommand {\beamer@partpages {1}{82}}}
\@writefile{nav}{\headcommand {\beamer@subsectionpages {1}{82}}}
\@writefile{nav}{\headcommand {\beamer@sectionpages {1}{82}}}
\@writefile{nav}{\headcommand {\beamer@documentpages {82}}}
\@writefile{nav}{\headcommand {\def \inserttotalframenumber {31}}}
