\begin{thebibliography}{}

\bibitem[Stallman, 2017a]{1}
Stallman, R.~M. (2017a).
\newblock Gnu emacs.

\bibitem[Stallman, 2017b]{2}
Stallman, R.~M. (2017b).
\newblock Gnu emacs lisp package archive.

\end{thebibliography}
