\relax 
\providecommand\hyper@newdestlabel[2]{}
\providecommand\HyperFirstAtBeginDocument{\AtBeginDocument}
\HyperFirstAtBeginDocument{\ifx\hyper@anchor\@undefined
\global\let\oldcontentsline\contentsline
\gdef\contentsline#1#2#3#4{\oldcontentsline{#1}{#2}{#3}}
\global\let\oldnewlabel\newlabel
\gdef\newlabel#1#2{\newlabelxx{#1}#2}
\gdef\newlabelxx#1#2#3#4#5#6{\oldnewlabel{#1}{{#2}{#3}}}
\AtEndDocument{\ifx\hyper@anchor\@undefined
\let\contentsline\oldcontentsline
\let\newlabel\oldnewlabel
\fi}
\fi}
\global\let\hyper@last\relax 
\gdef\HyperFirstAtBeginDocument#1{#1}
\providecommand\HyField@AuxAddToFields[1]{}
\providecommand\HyField@AuxAddToCoFields[2]{}
\@writefile{toc}{\beamer@endinputifotherversion {3.36pt}}
\@writefile{nav}{\beamer@endinputifotherversion {3.36pt}}
\@writefile{nav}{\headcommand {\slideentry {0}{0}{1}{1/1}{}{0}}}
\@writefile{nav}{\headcommand {\beamer@framepages {1}{1}}}
\citation{1}
\citation{1}
\@writefile{nav}{\headcommand {\slideentry {0}{0}{2}{2/3}{}{0}}}
\@writefile{nav}{\headcommand {\beamer@framepages {2}{3}}}
\citation{2}
\citation{2}
\@writefile{nav}{\headcommand {\slideentry {0}{0}{3}{4/5}{}{0}}}
\@writefile{nav}{\headcommand {\beamer@framepages {4}{5}}}
\@writefile{nav}{\headcommand {\slideentry {0}{0}{4}{6/7}{}{0}}}
\@writefile{nav}{\headcommand {\beamer@framepages {6}{7}}}
\@writefile{nav}{\headcommand {\slideentry {0}{0}{5}{8/9}{}{0}}}
\@writefile{nav}{\headcommand {\beamer@framepages {8}{9}}}
\@writefile{nav}{\headcommand {\slideentry {0}{0}{6}{10/11}{}{0}}}
\@writefile{nav}{\headcommand {\beamer@framepages {10}{11}}}
\bibdata{talk}
\bibcite{1}{\hyperlink {beamerbib1}{Stallman, 2017a}}
\bibcite{2}{\hyperlink {beamerbib2}{Stallman, 2017b}}
\bibstyle{apalike}
\@writefile{nav}{\headcommand {\slideentry {0}{0}{7}{12/12}{}{0}}}
\@writefile{nav}{\headcommand {\beamer@framepages {12}{12}}}
\@writefile{nav}{\headcommand {\slideentry {0}{0}{8}{13/13}{}{0}}}
\@writefile{nav}{\headcommand {\beamer@framepages {13}{13}}}
\@writefile{nav}{\headcommand {\beamer@partpages {1}{13}}}
\@writefile{nav}{\headcommand {\beamer@subsectionpages {1}{13}}}
\@writefile{nav}{\headcommand {\beamer@sectionpages {1}{13}}}
\@writefile{nav}{\headcommand {\beamer@documentpages {13}}}
\@writefile{nav}{\headcommand {\def \inserttotalframenumber {8}}}
