\relax 
\providecommand\hyper@newdestlabel[2]{}
\providecommand\HyperFirstAtBeginDocument{\AtBeginDocument}
\HyperFirstAtBeginDocument{\ifx\hyper@anchor\@undefined
\global\let\oldcontentsline\contentsline
\gdef\contentsline#1#2#3#4{\oldcontentsline{#1}{#2}{#3}}
\global\let\oldnewlabel\newlabel
\gdef\newlabel#1#2{\newlabelxx{#1}#2}
\gdef\newlabelxx#1#2#3#4#5#6{\oldnewlabel{#1}{{#2}{#3}}}
\AtEndDocument{\ifx\hyper@anchor\@undefined
\let\contentsline\oldcontentsline
\let\newlabel\oldnewlabel
\fi}
\fi}
\global\let\hyper@last\relax 
\gdef\HyperFirstAtBeginDocument#1{#1}
\providecommand\HyField@AuxAddToFields[1]{}
\providecommand\HyField@AuxAddToCoFields[2]{}
\catcode `"\active 
\@writefile{toc}{\beamer@endinputifotherversion {3.36pt}}
\@writefile{nav}{\beamer@endinputifotherversion {3.36pt}}
\select@language{brazilian}
\@writefile{toc}{\select@language{brazilian}}
\@writefile{lof}{\select@language{brazilian}}
\@writefile{lot}{\select@language{brazilian}}
\@writefile{nav}{\headcommand {\slideentry {0}{0}{1}{1/1}{}{0}}}
\@writefile{nav}{\headcommand {\beamer@framepages {1}{1}}}
\@writefile{nav}{\headcommand {\slideentry {0}{0}{2}{2/5}{}{0}}}
\@writefile{nav}{\headcommand {\beamer@framepages {2}{5}}}
\@writefile{nav}{\headcommand {\slideentry {0}{0}{3}{6/8}{}{0}}}
\@writefile{nav}{\headcommand {\beamer@framepages {6}{8}}}
\@writefile{nav}{\headcommand {\slideentry {0}{0}{4}{9/12}{}{0}}}
\@writefile{nav}{\headcommand {\beamer@framepages {9}{12}}}
\@writefile{nav}{\headcommand {\slideentry {0}{0}{5}{13/18}{}{0}}}
\@writefile{nav}{\headcommand {\beamer@framepages {13}{18}}}
\@writefile{nav}{\headcommand {\slideentry {0}{0}{6}{19/24}{}{0}}}
\@writefile{nav}{\headcommand {\beamer@framepages {19}{24}}}
\@writefile{nav}{\headcommand {\slideentry {0}{0}{7}{25/32}{}{0}}}
\@writefile{nav}{\headcommand {\beamer@framepages {25}{32}}}
\@writefile{nav}{\headcommand {\slideentry {0}{0}{8}{33/41}{}{0}}}
\@writefile{nav}{\headcommand {\beamer@framepages {33}{41}}}
\@writefile{nav}{\headcommand {\slideentry {0}{0}{9}{42/48}{}{0}}}
\@writefile{nav}{\headcommand {\beamer@framepages {42}{48}}}
\@writefile{lol}{\contentsline {lstlisting}{static/code/code}}
\@writefile{nav}{\headcommand {\slideentry {0}{0}{10}{49/50}{}{0}}}
\@writefile{nav}{\headcommand {\beamer@framepages {49}{50}}}
\bibdata{talk}
\bibcite{1}{\hyperlink {beamerbib1}{Stallings, 2010}}
\bibstyle{apalike}
\@writefile{nav}{\headcommand {\slideentry {0}{0}{11}{51/51}{}{0}}}
\@writefile{nav}{\headcommand {\beamer@framepages {51}{51}}}
\@writefile{nav}{\headcommand {\slideentry {0}{0}{12}{52/52}{}{0}}}
\@writefile{nav}{\headcommand {\beamer@framepages {52}{52}}}
\@writefile{nav}{\headcommand {\beamer@partpages {1}{52}}}
\@writefile{nav}{\headcommand {\beamer@subsectionpages {1}{52}}}
\@writefile{nav}{\headcommand {\beamer@sectionpages {1}{52}}}
\@writefile{nav}{\headcommand {\beamer@documentpages {52}}}
\@writefile{nav}{\headcommand {\def \inserttotalframenumber {12}}}
