\begin{thebibliography}{}

\bibitem[Deitel and Deitel, 2010]{1}
Deitel, H. and Deitel, P.~J. (2010).
\newblock {\em Como programar, 5a edição}.
\newblock Prentice Hall.

\bibitem[Evaristo, 2015]{3}
Evaristo, J. (2015).
\newblock {\em Aprendendo a programar programando na linguagem C}.
\newblock Markron.

\bibitem[Mizrahi, 2014]{2}
Mizrahi, V.~V. (2014).
\newblock {\em Treinamento em linguagem C++}.
\newblock Prentice Hall.

\end{thebibliography}
