\relax 
\providecommand\hyper@newdestlabel[2]{}
\providecommand\HyperFirstAtBeginDocument{\AtBeginDocument}
\HyperFirstAtBeginDocument{\ifx\hyper@anchor\@undefined
\global\let\oldcontentsline\contentsline
\gdef\contentsline#1#2#3#4{\oldcontentsline{#1}{#2}{#3}}
\global\let\oldnewlabel\newlabel
\gdef\newlabel#1#2{\newlabelxx{#1}#2}
\gdef\newlabelxx#1#2#3#4#5#6{\oldnewlabel{#1}{{#2}{#3}}}
\AtEndDocument{\ifx\hyper@anchor\@undefined
\let\contentsline\oldcontentsline
\let\newlabel\oldnewlabel
\fi}
\fi}
\global\let\hyper@last\relax 
\gdef\HyperFirstAtBeginDocument#1{#1}
\providecommand\HyField@AuxAddToFields[1]{}
\providecommand\HyField@AuxAddToCoFields[2]{}
\catcode `"\active 
\@writefile{toc}{\beamer@endinputifotherversion {3.36pt}}
\@writefile{nav}{\beamer@endinputifotherversion {3.36pt}}
\select@language{brazilian}
\@writefile{toc}{\select@language{brazilian}}
\@writefile{lof}{\select@language{brazilian}}
\@writefile{lot}{\select@language{brazilian}}
\@writefile{nav}{\headcommand {\slideentry {0}{0}{1}{1/1}{}{0}}}
\@writefile{nav}{\headcommand {\beamer@framepages {1}{1}}}
\@writefile{nav}{\headcommand {\slideentry {0}{0}{2}{2/8}{}{0}}}
\@writefile{nav}{\headcommand {\beamer@framepages {2}{8}}}
\@writefile{nav}{\headcommand {\slideentry {0}{0}{3}{9/12}{}{0}}}
\@writefile{nav}{\headcommand {\beamer@framepages {9}{12}}}
\@writefile{nav}{\headcommand {\slideentry {0}{0}{4}{13/16}{}{0}}}
\@writefile{nav}{\headcommand {\beamer@framepages {13}{16}}}
\bibdata{talk}
\bibcite{1}{\hyperlink {beamerbib1}{Deitel and Deitel, 2010}}
\bibcite{3}{\hyperlink {beamerbib3}{Evaristo, 2015}}
\bibcite{2}{\hyperlink {beamerbib2}{Mizrahi, 2014}}
\bibstyle{apalike}
\@writefile{nav}{\headcommand {\slideentry {0}{0}{5}{17/17}{}{0}}}
\@writefile{nav}{\headcommand {\beamer@framepages {17}{17}}}
\@writefile{nav}{\headcommand {\slideentry {0}{0}{6}{18/18}{}{0}}}
\@writefile{nav}{\headcommand {\beamer@framepages {18}{18}}}
\@writefile{nav}{\headcommand {\beamer@partpages {1}{18}}}
\@writefile{nav}{\headcommand {\beamer@subsectionpages {1}{18}}}
\@writefile{nav}{\headcommand {\beamer@sectionpages {1}{18}}}
\@writefile{nav}{\headcommand {\beamer@documentpages {18}}}
\@writefile{nav}{\headcommand {\def \inserttotalframenumber {6}}}
