\relax 
\providecommand\hyper@newdestlabel[2]{}
\providecommand\HyperFirstAtBeginDocument{\AtBeginDocument}
\HyperFirstAtBeginDocument{\ifx\hyper@anchor\@undefined
\global\let\oldcontentsline\contentsline
\gdef\contentsline#1#2#3#4{\oldcontentsline{#1}{#2}{#3}}
\global\let\oldnewlabel\newlabel
\gdef\newlabel#1#2{\newlabelxx{#1}#2}
\gdef\newlabelxx#1#2#3#4#5#6{\oldnewlabel{#1}{{#2}{#3}}}
\AtEndDocument{\ifx\hyper@anchor\@undefined
\let\contentsline\oldcontentsline
\let\newlabel\oldnewlabel
\fi}
\fi}
\global\let\hyper@last\relax 
\gdef\HyperFirstAtBeginDocument#1{#1}
\providecommand\HyField@AuxAddToFields[1]{}
\providecommand\HyField@AuxAddToCoFields[2]{}
\catcode `"\active 
\@writefile{toc}{\beamer@endinputifotherversion {3.36pt}}
\@writefile{nav}{\beamer@endinputifotherversion {3.36pt}}
\select@language{brazilian}
\@writefile{toc}{\select@language{brazilian}}
\@writefile{lof}{\select@language{brazilian}}
\@writefile{lot}{\select@language{brazilian}}
\@writefile{nav}{\headcommand {\slideentry {0}{0}{1}{1/1}{}{0}}}
\@writefile{nav}{\headcommand {\beamer@framepages {1}{1}}}
\@writefile{nav}{\headcommand {\slideentry {0}{0}{2}{2/2}{}{0}}}
\@writefile{nav}{\headcommand {\beamer@framepages {2}{2}}}
\@writefile{toc}{\beamer@sectionintoc {1}{Software Livre}{3}{0}{1}}
\@writefile{nav}{\headcommand {\sectionentry {1}{Software Livre}{3}{Software Livre}{0}}}
\@writefile{nav}{\headcommand {\beamer@sectionpages {1}{2}}}
\@writefile{nav}{\headcommand {\beamer@subsectionpages {1}{2}}}
\@writefile{toc}{\beamer@subsectionintoc {1}{1}{Software Livre}{3}{0}{1}}
\@writefile{nav}{\headcommand {\beamer@subsectionentry {0}{1}{1}{3}{Software Livre}}\headcommand {\beamer@subsectionpages {3}{2}}}
\@writefile{nav}{\headcommand {\slideentry {1}{1}{1}{3/4}{Software Livre}{0}}}
\@writefile{nav}{\headcommand {\beamer@framepages {3}{4}}}
\citation{1}
\@writefile{toc}{\beamer@subsectionintoc {1}{2}{Manifesto GNU}{5}{0}{1}}
\@writefile{nav}{\headcommand {\beamer@subsectionentry {0}{1}{2}{5}{Manifesto GNU}}\headcommand {\beamer@subsectionpages {3}{4}}}
\citation{1}
\@writefile{nav}{\headcommand {\slideentry {1}{2}{1}{5/6}{Manifesto GNU}{0}}}
\@writefile{nav}{\headcommand {\beamer@framepages {5}{6}}}
\@writefile{toc}{\beamer@subsectionintoc {1}{3}{Liberdades}{7}{0}{1}}
\@writefile{nav}{\headcommand {\beamer@subsectionentry {0}{1}{3}{7}{Liberdades}}\headcommand {\beamer@subsectionpages {5}{6}}}
\@writefile{nav}{\headcommand {\slideentry {1}{3}{1}{7/11}{Liberdades}{0}}}
\@writefile{nav}{\headcommand {\beamer@framepages {7}{11}}}
\@writefile{toc}{\beamer@subsectionintoc {1}{4}{Licen\IeC {\c c}as}{12}{0}{1}}
\@writefile{nav}{\headcommand {\beamer@subsectionentry {0}{1}{4}{12}{Licen\IeC {\c c}as}}\headcommand {\beamer@subsectionpages {7}{11}}}
\@writefile{nav}{\headcommand {\slideentry {1}{4}{1}{12/15}{Licen\IeC {\c c}as}{0}}}
\@writefile{nav}{\headcommand {\beamer@framepages {12}{15}}}
\@writefile{toc}{\beamer@sectionintoc {2}{Software Livre em tempo sombrios}{16}{0}{2}}
\@writefile{nav}{\headcommand {\sectionentry {2}{Software Livre em tempo sombrios}{16}{Software Livre em tempo sombrios}{0}}}
\@writefile{nav}{\headcommand {\beamer@sectionpages {3}{15}}}
\@writefile{nav}{\headcommand {\beamer@subsectionpages {12}{15}}}
\@writefile{toc}{\beamer@subsectionintoc {2}{1}{Amea\IeC {\c c}as}{16}{0}{2}}
\@writefile{nav}{\headcommand {\beamer@subsectionentry {0}{2}{1}{16}{Amea\IeC {\c c}as}}\headcommand {\beamer@subsectionpages {16}{15}}}
\@writefile{nav}{\headcommand {\slideentry {2}{1}{1}{16/21}{Amea\IeC {\c c}as}{0}}}
\@writefile{nav}{\headcommand {\beamer@framepages {16}{21}}}
\citation{2}
\@writefile{toc}{\beamer@subsectionintoc {2}{2}{Resist\IeC {\^e}ncia}{22}{0}{2}}
\@writefile{nav}{\headcommand {\beamer@subsectionentry {0}{2}{2}{22}{Resist\IeC {\^e}ncia}}\headcommand {\beamer@subsectionpages {16}{21}}}
\citation{2}
\citation{2}
\citation{2}
\citation{2}
\citation{2}
\citation{2}
\citation{2}
\citation{2}
\citation{2}
\citation{2}
\@writefile{nav}{\headcommand {\slideentry {2}{2}{1}{22/32}{Resist\IeC {\^e}ncia}{0}}}
\@writefile{nav}{\headcommand {\beamer@framepages {22}{32}}}
\bibcite{1}{\hyperlink {beamerbib1}{1}}
\bibcite{2}{\hyperlink {beamerbib2}{2}}
\@writefile{toc}{\beamer@sectionintoc {3}{Fim}{33}{0}{3}}
\@writefile{nav}{\headcommand {\sectionentry {3}{Fim}{33}{Fim}{0}}}
\@writefile{nav}{\headcommand {\beamer@sectionpages {16}{32}}}
\@writefile{nav}{\headcommand {\beamer@subsectionpages {22}{32}}}
\@writefile{toc}{\beamer@subsectionintoc {3}{1}{Refer\IeC {\^e}ncias}{33}{0}{3}}
\@writefile{nav}{\headcommand {\beamer@subsectionentry {0}{3}{1}{33}{Refer\IeC {\^e}ncias}}\headcommand {\beamer@subsectionpages {33}{32}}}
\@writefile{nav}{\headcommand {\slideentry {3}{1}{1}{33/33}{Refer\IeC {\^e}ncias}{0}}}
\@writefile{nav}{\headcommand {\beamer@framepages {33}{33}}}
\@writefile{toc}{\beamer@subsectionintoc {3}{2}{Obrigado}{34}{0}{3}}
\@writefile{nav}{\headcommand {\beamer@subsectionentry {0}{3}{2}{34}{Obrigado}}\headcommand {\beamer@subsectionpages {33}{33}}}
\@writefile{nav}{\headcommand {\slideentry {3}{2}{1}{34/34}{Obrigado}{0}}}
\@writefile{nav}{\headcommand {\beamer@framepages {34}{34}}}
\@writefile{nav}{\headcommand {\beamer@partpages {1}{34}}}
\@writefile{nav}{\headcommand {\beamer@subsectionpages {34}{34}}}
\@writefile{nav}{\headcommand {\beamer@sectionpages {33}{34}}}
\@writefile{nav}{\headcommand {\beamer@documentpages {34}}}
\@writefile{nav}{\headcommand {\def \inserttotalframenumber {10}}}
