\relax 
\providecommand\hyper@newdestlabel[2]{}
\providecommand\HyperFirstAtBeginDocument{\AtBeginDocument}
\HyperFirstAtBeginDocument{\ifx\hyper@anchor\@undefined
\global\let\oldcontentsline\contentsline
\gdef\contentsline#1#2#3#4{\oldcontentsline{#1}{#2}{#3}}
\global\let\oldnewlabel\newlabel
\gdef\newlabel#1#2{\newlabelxx{#1}#2}
\gdef\newlabelxx#1#2#3#4#5#6{\oldnewlabel{#1}{{#2}{#3}}}
\AtEndDocument{\ifx\hyper@anchor\@undefined
\let\contentsline\oldcontentsline
\let\newlabel\oldnewlabel
\fi}
\fi}
\global\let\hyper@last\relax 
\gdef\HyperFirstAtBeginDocument#1{#1}
\providecommand\HyField@AuxAddToFields[1]{}
\providecommand\HyField@AuxAddToCoFields[2]{}
\catcode `"\active 
\select@language{brazilian}
\@writefile{toc}{\select@language{brazilian}}
\@writefile{lof}{\select@language{brazilian}}
\@writefile{lot}{\select@language{brazilian}}
\@writefile{nav}{\headcommand {\slideentry {0}{0}{1}{1/1}{}{0}}}
\@writefile{nav}{\headcommand {\beamer@framepages {1}{1}}}
\@writefile{nav}{\headcommand {\slideentry {0}{0}{2}{2/6}{}{0}}}
\@writefile{nav}{\headcommand {\beamer@framepages {2}{6}}}
\@writefile{nav}{\headcommand {\slideentry {0}{0}{3}{7/10}{}{0}}}
\@writefile{nav}{\headcommand {\beamer@framepages {7}{10}}}
\@writefile{nav}{\headcommand {\slideentry {0}{0}{4}{11/14}{}{0}}}
\@writefile{nav}{\headcommand {\beamer@framepages {11}{14}}}
\@writefile{nav}{\headcommand {\slideentry {0}{0}{5}{15/18}{}{0}}}
\@writefile{nav}{\headcommand {\beamer@framepages {15}{18}}}
\@writefile{nav}{\headcommand {\slideentry {0}{0}{6}{19/21}{}{0}}}
\@writefile{nav}{\headcommand {\beamer@framepages {19}{21}}}
\@writefile{nav}{\headcommand {\slideentry {0}{0}{7}{22/25}{}{0}}}
\@writefile{nav}{\headcommand {\beamer@framepages {22}{25}}}
\@writefile{lol}{\contentsline {lstlisting}{static/code/code}}
\@writefile{lol}{\contentsline {lstlisting}{static/code/code}}
\@writefile{lol}{\contentsline {lstlisting}{static/code/code}}
\@writefile{lol}{\contentsline {lstlisting}{static/code/code}}
\@writefile{lol}{\contentsline {lstlisting}{static/code/code}}
\@writefile{lol}{\contentsline {lstlisting}{static/code/code}}
\@writefile{lol}{\contentsline {lstlisting}{static/code/code}}
\@writefile{lol}{\contentsline {lstlisting}{static/code/code}}
\@writefile{lol}{\contentsline {lstlisting}{static/code/code}}
\@writefile{lol}{\contentsline {lstlisting}{static/code/code}}
\@writefile{nav}{\headcommand {\slideentry {0}{0}{8}{26/30}{}{0}}}
\@writefile{nav}{\headcommand {\beamer@framepages {26}{30}}}
\@writefile{nav}{\headcommand {\slideentry {0}{0}{9}{31/33}{}{0}}}
\@writefile{nav}{\headcommand {\beamer@framepages {31}{33}}}
\bibdata{talk}
\bibcite{1}{\hyperlink {beamerbib1}{Lipschutz and Lpson, 2013}}
\bibstyle{apalike}
\@writefile{nav}{\headcommand {\slideentry {0}{0}{10}{34/34}{}{0}}}
\@writefile{nav}{\headcommand {\beamer@framepages {34}{34}}}
\@writefile{nav}{\headcommand {\slideentry {0}{0}{11}{35/35}{}{0}}}
\@writefile{nav}{\headcommand {\beamer@framepages {35}{35}}}
\@writefile{nav}{\headcommand {\beamer@partpages {1}{35}}}
\@writefile{nav}{\headcommand {\beamer@subsectionpages {1}{35}}}
\@writefile{nav}{\headcommand {\beamer@sectionpages {1}{35}}}
\@writefile{nav}{\headcommand {\beamer@documentpages {35}}}
\@writefile{nav}{\headcommand {\def \inserttotalframenumber {11}}}
