\begin{thebibliography}{}

\bibitem[Bittencourt, 2014]{2}
Bittencourt, G. (2014).
\newblock {\em Inteligênci Artificial, feramentas e teorias}.
\newblock UFSC.

\bibitem[George, 2014]{1}
George, G.~F. (2014).
\newblock {\em Inteligência Artificial}.
\newblock Artemed.

\bibitem[Resende, 2015]{4}
Resende, S.~O. (2015).
\newblock {\em Sistemas Inteligentes - Fundamentos e aplicações}.
\newblock Manole.

\bibitem[Rich, 2016]{5}
Rich, R. (2016).
\newblock {\em Artificial Intelligence}.
\newblock McGraw-Hill.

\bibitem[Russel and Norvig, 2015]{3}
Russel, S. and Norvig, P. (2015).
\newblock {\em Inteligência Artificial}.
\newblock Campus-Elsevier.

\end{thebibliography}
