\relax 
\providecommand\hyper@newdestlabel[2]{}
\providecommand\HyperFirstAtBeginDocument{\AtBeginDocument}
\HyperFirstAtBeginDocument{\ifx\hyper@anchor\@undefined
\global\let\oldcontentsline\contentsline
\gdef\contentsline#1#2#3#4{\oldcontentsline{#1}{#2}{#3}}
\global\let\oldnewlabel\newlabel
\gdef\newlabel#1#2{\newlabelxx{#1}#2}
\gdef\newlabelxx#1#2#3#4#5#6{\oldnewlabel{#1}{{#2}{#3}}}
\AtEndDocument{\ifx\hyper@anchor\@undefined
\let\contentsline\oldcontentsline
\let\newlabel\oldnewlabel
\fi}
\fi}
\global\let\hyper@last\relax 
\gdef\HyperFirstAtBeginDocument#1{#1}
\providecommand\HyField@AuxAddToFields[1]{}
\providecommand\HyField@AuxAddToCoFields[2]{}
\catcode `"\active 
\@writefile{toc}{\beamer@endinputifotherversion {3.36pt}}
\@writefile{nav}{\beamer@endinputifotherversion {3.36pt}}
\select@language{brazilian}
\@writefile{toc}{\select@language{brazilian}}
\@writefile{lof}{\select@language{brazilian}}
\@writefile{lot}{\select@language{brazilian}}
\@writefile{nav}{\headcommand {\slideentry {0}{0}{1}{1/1}{}{0}}}
\@writefile{nav}{\headcommand {\beamer@framepages {1}{1}}}
\citation{1}
\citation{1}
\citation{1}
\citation{1}
\citation{1}
\@writefile{nav}{\headcommand {\slideentry {0}{0}{2}{2/6}{}{0}}}
\@writefile{nav}{\headcommand {\beamer@framepages {2}{6}}}
\citation{2}
\citation{2}
\citation{2}
\@writefile{nav}{\headcommand {\slideentry {0}{0}{3}{7/9}{}{0}}}
\@writefile{nav}{\headcommand {\beamer@framepages {7}{9}}}
\@writefile{nav}{\headcommand {\slideentry {0}{0}{4}{10/11}{}{0}}}
\@writefile{nav}{\headcommand {\beamer@framepages {10}{11}}}
\@writefile{nav}{\headcommand {\slideentry {0}{0}{5}{12/13}{}{0}}}
\@writefile{nav}{\headcommand {\beamer@framepages {12}{13}}}
\@writefile{nav}{\headcommand {\slideentry {0}{0}{6}{14/16}{}{0}}}
\@writefile{nav}{\headcommand {\beamer@framepages {14}{16}}}
\@writefile{nav}{\headcommand {\slideentry {0}{0}{7}{17/19}{}{0}}}
\@writefile{nav}{\headcommand {\beamer@framepages {17}{19}}}
\citation{1}
\citation{1}
\citation{1}
\citation{1}
\@writefile{nav}{\headcommand {\slideentry {0}{0}{8}{20/23}{}{0}}}
\@writefile{nav}{\headcommand {\beamer@framepages {20}{23}}}
\@writefile{nav}{\headcommand {\slideentry {0}{0}{9}{24/28}{}{0}}}
\@writefile{nav}{\headcommand {\beamer@framepages {24}{28}}}
\@writefile{nav}{\headcommand {\slideentry {0}{0}{10}{29/30}{}{0}}}
\@writefile{nav}{\headcommand {\beamer@framepages {29}{30}}}
\@writefile{nav}{\headcommand {\slideentry {0}{0}{11}{31/35}{}{0}}}
\@writefile{nav}{\headcommand {\beamer@framepages {31}{35}}}
\@writefile{nav}{\headcommand {\slideentry {0}{0}{12}{36/38}{}{0}}}
\@writefile{nav}{\headcommand {\beamer@framepages {36}{38}}}
\@writefile{nav}{\headcommand {\slideentry {0}{0}{13}{39/40}{}{0}}}
\@writefile{nav}{\headcommand {\beamer@framepages {39}{40}}}
\@writefile{nav}{\headcommand {\slideentry {0}{0}{14}{41/43}{}{0}}}
\@writefile{nav}{\headcommand {\beamer@framepages {41}{43}}}
\@writefile{nav}{\headcommand {\slideentry {0}{0}{15}{44/50}{}{0}}}
\@writefile{nav}{\headcommand {\beamer@framepages {44}{50}}}
\@writefile{nav}{\headcommand {\slideentry {0}{0}{16}{51/52}{}{0}}}
\@writefile{nav}{\headcommand {\beamer@framepages {51}{52}}}
\@writefile{nav}{\headcommand {\slideentry {0}{0}{17}{53/55}{}{0}}}
\@writefile{nav}{\headcommand {\beamer@framepages {53}{55}}}
\@writefile{nav}{\headcommand {\slideentry {0}{0}{18}{56/60}{}{0}}}
\@writefile{nav}{\headcommand {\beamer@framepages {56}{60}}}
\@writefile{nav}{\headcommand {\slideentry {0}{0}{19}{61/65}{}{0}}}
\@writefile{nav}{\headcommand {\beamer@framepages {61}{65}}}
\@writefile{nav}{\headcommand {\slideentry {0}{0}{20}{67/70}{}{0}}}
\@writefile{nav}{\headcommand {\beamer@framepages {67}{70}}}
\bibdata{talk}
\bibcite{2}{\hyperlink {beamerbib2}{Bittencourt, 2014}}
\bibcite{1}{\hyperlink {beamerbib1}{George, 2014}}
\bibcite{4}{\hyperlink {beamerbib4}{Resende, 2015}}
\bibcite{5}{\hyperlink {beamerbib5}{Rich, 2016}}
\bibcite{3}{\hyperlink {beamerbib3}{Russel and Norvig, 2015}}
\bibstyle{apalike}
\@writefile{nav}{\headcommand {\slideentry {0}{0}{21}{71/71}{}{0}}}
\@writefile{nav}{\headcommand {\beamer@framepages {71}{71}}}
\@writefile{nav}{\headcommand {\slideentry {0}{0}{22}{72/72}{}{0}}}
\@writefile{nav}{\headcommand {\beamer@framepages {72}{72}}}
\@writefile{nav}{\headcommand {\beamer@partpages {1}{72}}}
\@writefile{nav}{\headcommand {\beamer@subsectionpages {1}{72}}}
\@writefile{nav}{\headcommand {\beamer@sectionpages {1}{72}}}
\@writefile{nav}{\headcommand {\beamer@documentpages {72}}}
\@writefile{nav}{\headcommand {\def \inserttotalframenumber {22}}}
