This is BibTeX, Version 0.99d (TeX Live 2016)
Capacity: max_strings=35307, hash_size=35307, hash_prime=30011
The top-level auxiliary file: talk.aux
The style file: apalike.bst
Database file #1: talk.bib
You've used 5 entries,
            1935 wiz_defined-function locations,
            488 strings with 3927 characters,
and the built_in function-call counts, 1433 in all, are:
= -- 129
> -- 41
< -- 5
+ -- 12
- -- 12
* -- 91
:= -- 268
add.period$ -- 15
call.type$ -- 5
change.case$ -- 26
chr.to.int$ -- 5
cite$ -- 5
duplicate$ -- 70
empty$ -- 116
format.name$ -- 19
if$ -- 279
int.to.chr$ -- 1
int.to.str$ -- 0
missing$ -- 10
newline$ -- 28
num.names$ -- 15
pop$ -- 41
preamble$ -- 1
purify$ -- 31
quote$ -- 0
skip$ -- 51
stack$ -- 0
substring$ -- 60
swap$ -- 5
text.length$ -- 0
text.prefix$ -- 0
top$ -- 0
type$ -- 20
warning$ -- 0
while$ -- 10
width$ -- 0
write$ -- 62
