\beamer@endinputifotherversion {3.36pt}
\beamer@sectionintoc {1}{Me}{3}{0}{1}
\beamer@sectionintoc {2}{GuixSD}{16}{0}{2}
\beamer@subsectionintoc {2}{1}{GuixSD}{16}{0}{2}
\beamer@subsectionintoc {2}{2}{Features}{18}{0}{2}
\beamer@subsectionintoc {2}{3}{Plataforms}{25}{0}{2}
\beamer@subsectionintoc {2}{4}{Architecture}{28}{0}{2}
\beamer@subsectionintoc {2}{5}{Config}{33}{0}{2}
\beamer@subsectionintoc {2}{6}{Instalation}{36}{0}{2}
\beamer@subsectionintoc {2}{7}{Help}{38}{0}{2}
\beamer@sectionintoc {3}{References}{43}{0}{3}
\beamer@sectionintoc {4}{End}{44}{0}{4}
