\relax 
\providecommand\hyper@newdestlabel[2]{}
\providecommand\HyperFirstAtBeginDocument{\AtBeginDocument}
\HyperFirstAtBeginDocument{\ifx\hyper@anchor\@undefined
\global\let\oldcontentsline\contentsline
\gdef\contentsline#1#2#3#4{\oldcontentsline{#1}{#2}{#3}}
\global\let\oldnewlabel\newlabel
\gdef\newlabel#1#2{\newlabelxx{#1}#2}
\gdef\newlabelxx#1#2#3#4#5#6{\oldnewlabel{#1}{{#2}{#3}}}
\AtEndDocument{\ifx\hyper@anchor\@undefined
\let\contentsline\oldcontentsline
\let\newlabel\oldnewlabel
\fi}
\fi}
\global\let\hyper@last\relax 
\gdef\HyperFirstAtBeginDocument#1{#1}
\providecommand\HyField@AuxAddToFields[1]{}
\providecommand\HyField@AuxAddToCoFields[2]{}
\@writefile{toc}{\beamer@endinputifotherversion {3.36pt}}
\@writefile{nav}{\beamer@endinputifotherversion {3.36pt}}
\@writefile{nav}{\headcommand {\slideentry {0}{0}{1}{1/1}{}{0}}}
\@writefile{nav}{\headcommand {\beamer@framepages {1}{1}}}
\@writefile{nav}{\headcommand {\slideentry {0}{0}{2}{2/2}{}{0}}}
\@writefile{nav}{\headcommand {\beamer@framepages {2}{2}}}
\@writefile{toc}{\beamer@sectionintoc {1}{Me}{3}{0}{1}}
\@writefile{nav}{\headcommand {\sectionentry {1}{Me}{3}{Me}{0}}}
\@writefile{nav}{\headcommand {\beamer@sectionpages {1}{2}}}
\@writefile{nav}{\headcommand {\beamer@subsectionpages {1}{2}}}
\@writefile{nav}{\headcommand {\slideentry {1}{0}{1}{3/15}{}{0}}}
\@writefile{nav}{\headcommand {\beamer@framepages {3}{15}}}
\@writefile{toc}{\beamer@sectionintoc {2}{GuixSD}{16}{0}{2}}
\@writefile{nav}{\headcommand {\sectionentry {2}{GuixSD}{16}{GuixSD}{0}}}
\@writefile{nav}{\headcommand {\beamer@sectionpages {3}{15}}}
\@writefile{nav}{\headcommand {\beamer@subsectionpages {3}{15}}}
\@writefile{toc}{\beamer@subsectionintoc {2}{1}{GuixSD}{16}{0}{2}}
\@writefile{nav}{\headcommand {\beamer@subsectionentry {0}{2}{1}{16}{GuixSD}}\headcommand {\beamer@subsectionpages {16}{15}}}
\citation{1}
\@writefile{nav}{\headcommand {\slideentry {2}{1}{1}{16/17}{GuixSD}{0}}}
\@writefile{nav}{\headcommand {\beamer@framepages {16}{17}}}
\@writefile{toc}{\beamer@subsectionintoc {2}{2}{Features}{18}{0}{2}}
\@writefile{nav}{\headcommand {\beamer@subsectionentry {0}{2}{2}{18}{Features}}\headcommand {\beamer@subsectionpages {16}{17}}}
\@writefile{nav}{\headcommand {\slideentry {2}{2}{1}{18/24}{Features}{0}}}
\@writefile{nav}{\headcommand {\beamer@framepages {18}{24}}}
\@writefile{toc}{\beamer@subsectionintoc {2}{3}{Plataforms}{25}{0}{2}}
\@writefile{nav}{\headcommand {\beamer@subsectionentry {0}{2}{3}{25}{Plataforms}}\headcommand {\beamer@subsectionpages {18}{24}}}
\@writefile{nav}{\headcommand {\slideentry {2}{3}{1}{25/27}{Plataforms}{0}}}
\@writefile{nav}{\headcommand {\beamer@framepages {25}{27}}}
\@writefile{toc}{\beamer@subsectionintoc {2}{4}{Architecture}{28}{0}{2}}
\@writefile{nav}{\headcommand {\beamer@subsectionentry {0}{2}{4}{28}{Architecture}}\headcommand {\beamer@subsectionpages {25}{27}}}
\@writefile{nav}{\headcommand {\slideentry {2}{4}{1}{28/32}{Architecture}{0}}}
\@writefile{nav}{\headcommand {\beamer@framepages {28}{32}}}
\@writefile{toc}{\beamer@subsectionintoc {2}{5}{Config}{33}{0}{2}}
\@writefile{nav}{\headcommand {\beamer@subsectionentry {0}{2}{5}{33}{Config}}\headcommand {\beamer@subsectionpages {28}{32}}}
\@writefile{nav}{\headcommand {\slideentry {2}{5}{1}{33/33}{Config}{0}}}
\@writefile{nav}{\headcommand {\beamer@framepages {33}{33}}}
\@writefile{nav}{\headcommand {\slideentry {2}{5}{1}{33/34}{Config}{0}}}
\@writefile{nav}{\headcommand {\beamer@framepages {33}{34}}}
\@writefile{nav}{\headcommand {\slideentry {2}{5}{1}{33/35}{Config}{0}}}
\@writefile{nav}{\headcommand {\beamer@framepages {33}{35}}}
\@writefile{toc}{\beamer@subsectionintoc {2}{6}{Instalation}{36}{0}{2}}
\@writefile{nav}{\headcommand {\beamer@subsectionentry {0}{2}{6}{36}{Instalation}}\headcommand {\beamer@subsectionpages {33}{35}}}
\@writefile{nav}{\headcommand {\slideentry {2}{6}{1}{36/36}{Instalation}{0}}}
\@writefile{nav}{\headcommand {\beamer@framepages {36}{36}}}
\@writefile{nav}{\headcommand {\slideentry {2}{6}{1}{36/37}{Instalation}{0}}}
\@writefile{nav}{\headcommand {\beamer@framepages {36}{37}}}
\@writefile{toc}{\beamer@subsectionintoc {2}{7}{Help}{38}{0}{2}}
\@writefile{nav}{\headcommand {\beamer@subsectionentry {0}{2}{7}{38}{Help}}\headcommand {\beamer@subsectionpages {36}{37}}}
\@writefile{nav}{\headcommand {\slideentry {2}{7}{1}{38/42}{Help}{0}}}
\@writefile{nav}{\headcommand {\beamer@framepages {38}{42}}}
\bibdata{talk}
\bibcite{1}{\hyperlink {beamerbib1}{FSF, 2016}}
\bibstyle{apalike}
\@writefile{toc}{\beamer@sectionintoc {3}{References}{43}{0}{3}}
\@writefile{nav}{\headcommand {\sectionentry {3}{References}{43}{References}{0}}}
\@writefile{nav}{\headcommand {\beamer@sectionpages {16}{42}}}
\@writefile{nav}{\headcommand {\beamer@subsectionpages {38}{42}}}
\@writefile{nav}{\headcommand {\slideentry {3}{0}{1}{43/43}{}{0}}}
\@writefile{nav}{\headcommand {\beamer@framepages {43}{43}}}
\@writefile{toc}{\beamer@sectionintoc {4}{End}{44}{0}{4}}
\@writefile{nav}{\headcommand {\sectionentry {4}{End}{44}{End}{0}}}
\@writefile{nav}{\headcommand {\beamer@sectionpages {43}{43}}}
\@writefile{nav}{\headcommand {\beamer@subsectionpages {43}{43}}}
\@writefile{nav}{\headcommand {\slideentry {4}{0}{1}{44/44}{}{0}}}
\@writefile{nav}{\headcommand {\beamer@framepages {44}{44}}}
\@writefile{nav}{\headcommand {\beamer@partpages {1}{44}}}
\@writefile{nav}{\headcommand {\beamer@subsectionpages {44}{44}}}
\@writefile{nav}{\headcommand {\beamer@sectionpages {44}{44}}}
\@writefile{nav}{\headcommand {\beamer@documentpages {44}}}
\@writefile{nav}{\headcommand {\def \inserttotalframenumber {15}}}
