\relax 
\providecommand\hyper@newdestlabel[2]{}
\providecommand\HyperFirstAtBeginDocument{\AtBeginDocument}
\HyperFirstAtBeginDocument{\ifx\hyper@anchor\@undefined
\global\let\oldcontentsline\contentsline
\gdef\contentsline#1#2#3#4{\oldcontentsline{#1}{#2}{#3}}
\global\let\oldnewlabel\newlabel
\gdef\newlabel#1#2{\newlabelxx{#1}#2}
\gdef\newlabelxx#1#2#3#4#5#6{\oldnewlabel{#1}{{#2}{#3}}}
\AtEndDocument{\ifx\hyper@anchor\@undefined
\let\contentsline\oldcontentsline
\let\newlabel\oldnewlabel
\fi}
\fi}
\global\let\hyper@last\relax 
\gdef\HyperFirstAtBeginDocument#1{#1}
\providecommand\HyField@AuxAddToFields[1]{}
\providecommand\HyField@AuxAddToCoFields[2]{}
\catcode `"\active 
\babel@aux{brazilian}{}
\@writefile{nav}{\headcommand {\slideentry {0}{0}{1}{1/1}{}{0}}}
\@writefile{nav}{\headcommand {\beamer@framepages {1}{1}}}
\citation{1}
\citation{1}
\citation{1}
\@writefile{nav}{\headcommand {\slideentry {0}{0}{2}{2/4}{}{0}}}
\@writefile{nav}{\headcommand {\beamer@framepages {2}{4}}}
\citation{2}
\citation{2}
\citation{2}
\@writefile{nav}{\headcommand {\slideentry {0}{0}{3}{5/7}{}{0}}}
\@writefile{nav}{\headcommand {\beamer@framepages {5}{7}}}
\citation{3}
\citation{3}
\citation{3}
\@writefile{nav}{\headcommand {\slideentry {0}{0}{4}{8/10}{}{0}}}
\@writefile{nav}{\headcommand {\beamer@framepages {8}{10}}}
\citation{4}
\citation{4}
\citation{4}
\citation{4}
\citation{4}
\citation{4}
\citation{4}
\citation{4}
\citation{4}
\@writefile{nav}{\headcommand {\slideentry {0}{0}{5}{11/19}{}{0}}}
\@writefile{nav}{\headcommand {\beamer@framepages {11}{19}}}
\@writefile{nav}{\headcommand {\slideentry {0}{0}{6}{20/28}{}{0}}}
\@writefile{nav}{\headcommand {\beamer@framepages {20}{28}}}
\@writefile{nav}{\headcommand {\slideentry {0}{0}{7}{29/32}{}{0}}}
\@writefile{nav}{\headcommand {\beamer@framepages {29}{32}}}
\@writefile{nav}{\headcommand {\slideentry {0}{0}{8}{33/36}{}{0}}}
\@writefile{nav}{\headcommand {\beamer@framepages {33}{36}}}
\@writefile{nav}{\headcommand {\slideentry {0}{0}{9}{37/39}{}{0}}}
\@writefile{nav}{\headcommand {\beamer@framepages {37}{39}}}
\@writefile{nav}{\headcommand {\slideentry {0}{0}{10}{40/45}{}{0}}}
\@writefile{nav}{\headcommand {\beamer@framepages {40}{45}}}
\@writefile{nav}{\headcommand {\slideentry {0}{0}{11}{46/51}{}{0}}}
\@writefile{nav}{\headcommand {\beamer@framepages {46}{51}}}
\@writefile{nav}{\headcommand {\slideentry {0}{0}{12}{52/55}{}{0}}}
\@writefile{nav}{\headcommand {\beamer@framepages {52}{55}}}
\@writefile{nav}{\headcommand {\slideentry {0}{0}{13}{56/59}{}{0}}}
\@writefile{nav}{\headcommand {\beamer@framepages {56}{59}}}
\@writefile{nav}{\headcommand {\slideentry {0}{0}{14}{60/62}{}{0}}}
\@writefile{nav}{\headcommand {\beamer@framepages {60}{62}}}
\@writefile{nav}{\headcommand {\slideentry {0}{0}{15}{63/65}{}{0}}}
\@writefile{nav}{\headcommand {\beamer@framepages {63}{65}}}
\@writefile{nav}{\headcommand {\slideentry {0}{0}{16}{66/72}{}{0}}}
\@writefile{nav}{\headcommand {\beamer@framepages {66}{72}}}
\@writefile{lol}{\contentsline {lstlisting}{static/code/code}}
\@writefile{nav}{\headcommand {\slideentry {0}{0}{17}{73/74}{}{0}}}
\@writefile{nav}{\headcommand {\beamer@framepages {73}{74}}}
\@writefile{lol}{\contentsline {lstlisting}{static/code/code}}
\@writefile{nav}{\headcommand {\slideentry {0}{0}{18}{75/76}{}{0}}}
\@writefile{nav}{\headcommand {\beamer@framepages {75}{76}}}
\@writefile{nav}{\headcommand {\slideentry {0}{0}{19}{77/78}{}{0}}}
\@writefile{nav}{\headcommand {\beamer@framepages {77}{78}}}
\bibdata{talk}
\bibcite{3}{\hyperlink {beamerbib3}{Debian, 2018}}
\bibcite{4}{\hyperlink {beamerbib4}{Jargas, 2008}}
\bibcite{1}{\hyperlink {beamerbib1}{Mazioli, 2010}}
\bibcite{2}{\hyperlink {beamerbib2}{Ramey and Fox, 2016}}
\bibstyle{apalike}
\@writefile{nav}{\headcommand {\slideentry {0}{0}{20}{79/79}{}{0}}}
\@writefile{nav}{\headcommand {\beamer@framepages {79}{79}}}
\@writefile{nav}{\headcommand {\slideentry {0}{0}{21}{80/80}{}{0}}}
\@writefile{nav}{\headcommand {\beamer@framepages {80}{80}}}
\@writefile{nav}{\headcommand {\beamer@partpages {1}{80}}}
\@writefile{nav}{\headcommand {\beamer@subsectionpages {1}{80}}}
\@writefile{nav}{\headcommand {\beamer@sectionpages {1}{80}}}
\@writefile{nav}{\headcommand {\beamer@documentpages {80}}}
\@writefile{nav}{\headcommand {\gdef \inserttotalframenumber {21}}}
