\relax 
\providecommand\hyper@newdestlabel[2]{}
\providecommand\HyperFirstAtBeginDocument{\AtBeginDocument}
\HyperFirstAtBeginDocument{\ifx\hyper@anchor\@undefined
\global\let\oldcontentsline\contentsline
\gdef\contentsline#1#2#3#4{\oldcontentsline{#1}{#2}{#3}}
\global\let\oldnewlabel\newlabel
\gdef\newlabel#1#2{\newlabelxx{#1}#2}
\gdef\newlabelxx#1#2#3#4#5#6{\oldnewlabel{#1}{{#2}{#3}}}
\AtEndDocument{\ifx\hyper@anchor\@undefined
\let\contentsline\oldcontentsline
\let\newlabel\oldnewlabel
\fi}
\fi}
\global\let\hyper@last\relax 
\gdef\HyperFirstAtBeginDocument#1{#1}
\providecommand\HyField@AuxAddToFields[1]{}
\providecommand\HyField@AuxAddToCoFields[2]{}
\catcode `"\active 
\@writefile{toc}{\beamer@endinputifotherversion {3.36pt}}
\@writefile{nav}{\beamer@endinputifotherversion {3.36pt}}
\select@language{brazilian}
\@writefile{toc}{\select@language{brazilian}}
\@writefile{lof}{\select@language{brazilian}}
\@writefile{lot}{\select@language{brazilian}}
\@writefile{nav}{\headcommand {\slideentry {0}{0}{1}{1/1}{}{0}}}
\@writefile{nav}{\headcommand {\beamer@framepages {1}{1}}}
\@writefile{nav}{\headcommand {\slideentry {0}{0}{2}{2/2}{}{0}}}
\@writefile{nav}{\headcommand {\beamer@framepages {2}{2}}}
\@writefile{toc}{\beamer@sectionintoc {1}{An\IeC {\'a}lise Sint\IeC {\'a}tica}{3}{0}{1}}
\@writefile{nav}{\headcommand {\sectionentry {1}{An\IeC {\'a}lise Sint\IeC {\'a}tica}{3}{An\IeC {\'a}lise Sint\IeC {\'a}tica}{0}}}
\@writefile{nav}{\headcommand {\beamer@sectionpages {1}{2}}}
\@writefile{nav}{\headcommand {\beamer@subsectionpages {1}{2}}}
\@writefile{toc}{\beamer@subsectionintoc {1}{1}{Analisador Sint\IeC {\'a}tico}{3}{0}{1}}
\@writefile{nav}{\headcommand {\beamer@subsectionentry {0}{1}{1}{3}{Analisador Sint\IeC {\'a}tico}}\headcommand {\beamer@subsectionpages {3}{2}}}
\citation{1}
\@writefile{nav}{\headcommand {\slideentry {1}{1}{1}{3/4}{Analisador Sint\IeC {\'a}tico}{0}}}
\@writefile{nav}{\headcommand {\beamer@framepages {3}{4}}}
\@writefile{toc}{\beamer@subsectionintoc {1}{2}{Reconhecimento de Senten\IeC {\c c}as}{5}{0}{1}}
\@writefile{nav}{\headcommand {\beamer@subsectionentry {0}{1}{2}{5}{Reconhecimento de Senten\IeC {\c c}as}}\headcommand {\beamer@subsectionpages {3}{4}}}
\@writefile{nav}{\headcommand {\slideentry {1}{2}{1}{5/7}{Reconhecimento de Senten\IeC {\c c}as}{0}}}
\@writefile{nav}{\headcommand {\beamer@framepages {5}{7}}}
\@writefile{toc}{\beamer@subsectionintoc {1}{3}{Valida\IeC {\c c}\IeC {\~a}o de Senten\IeC {\c c}a}{8}{0}{1}}
\@writefile{nav}{\headcommand {\beamer@subsectionentry {0}{1}{3}{8}{Valida\IeC {\c c}\IeC {\~a}o de Senten\IeC {\c c}a}}\headcommand {\beamer@subsectionpages {5}{7}}}
\@writefile{nav}{\headcommand {\slideentry {1}{3}{1}{8/10}{Valida\IeC {\c c}\IeC {\~a}o de Senten\IeC {\c c}a}{0}}}
\@writefile{nav}{\headcommand {\beamer@framepages {8}{10}}}
\@writefile{toc}{\beamer@subsectionintoc {1}{4}{Reconhecimento de Senten\IeC {\c c}a}{11}{0}{1}}
\@writefile{nav}{\headcommand {\beamer@subsectionentry {0}{1}{4}{11}{Reconhecimento de Senten\IeC {\c c}a}}\headcommand {\beamer@subsectionpages {8}{10}}}
\@writefile{nav}{\headcommand {\slideentry {1}{4}{1}{11/15}{Reconhecimento de Senten\IeC {\c c}a}{0}}}
\@writefile{nav}{\headcommand {\beamer@framepages {11}{15}}}
\@writefile{toc}{\beamer@subsectionintoc {1}{5}{Valida\IeC {\c c}\IeC {\~a}o Top-Down}{16}{0}{1}}
\@writefile{nav}{\headcommand {\beamer@subsectionentry {0}{1}{5}{16}{Valida\IeC {\c c}\IeC {\~a}o Top-Down}}\headcommand {\beamer@subsectionpages {11}{15}}}
\@writefile{nav}{\headcommand {\slideentry {1}{5}{1}{16/23}{Valida\IeC {\c c}\IeC {\~a}o Top-Down}{0}}}
\@writefile{nav}{\headcommand {\beamer@framepages {16}{23}}}
\@writefile{toc}{\beamer@subsectionintoc {1}{6}{Valida\IeC {\c c}\IeC {\~a}o Bottom-Up}{24}{0}{1}}
\@writefile{nav}{\headcommand {\beamer@subsectionentry {0}{1}{6}{24}{Valida\IeC {\c c}\IeC {\~a}o Bottom-Up}}\headcommand {\beamer@subsectionpages {16}{23}}}
\@writefile{nav}{\headcommand {\slideentry {1}{6}{1}{24/31}{Valida\IeC {\c c}\IeC {\~a}o Bottom-Up}{0}}}
\@writefile{nav}{\headcommand {\beamer@framepages {24}{31}}}
\@writefile{toc}{\beamer@subsectionintoc {1}{7}{Deriva\IeC {\c c}\IeC {\~a}o Can\IeC {\^o}nica}{32}{0}{1}}
\@writefile{nav}{\headcommand {\beamer@subsectionentry {0}{1}{7}{32}{Deriva\IeC {\c c}\IeC {\~a}o Can\IeC {\^o}nica}}\headcommand {\beamer@subsectionpages {24}{31}}}
\@writefile{nav}{\headcommand {\slideentry {1}{7}{1}{32/35}{Deriva\IeC {\c c}\IeC {\~a}o Can\IeC {\^o}nica}{0}}}
\@writefile{nav}{\headcommand {\beamer@framepages {32}{35}}}
\@writefile{toc}{\beamer@subsectionintoc {1}{8}{\IeC {\'A}rvore Sint\IeC {\'a}tica}{36}{0}{1}}
\@writefile{nav}{\headcommand {\beamer@subsectionentry {0}{1}{8}{36}{\IeC {\'A}rvore Sint\IeC {\'a}tica}}\headcommand {\beamer@subsectionpages {32}{35}}}
\@writefile{nav}{\headcommand {\slideentry {1}{8}{1}{36/39}{\IeC {\'A}rvore Sint\IeC {\'a}tica}{0}}}
\@writefile{nav}{\headcommand {\beamer@framepages {36}{39}}}
\@writefile{nav}{\headcommand {\slideentry {1}{8}{2}{40/41}{\IeC {\'A}rvore Sint\IeC {\'a}tica}{0}}}
\@writefile{nav}{\headcommand {\beamer@framepages {40}{41}}}
\@writefile{toc}{\beamer@subsectionintoc {1}{9}{Gram\IeC {\'a}tica Amb\IeC {\'\i }guas}{42}{0}{1}}
\@writefile{nav}{\headcommand {\beamer@subsectionentry {0}{1}{9}{42}{Gram\IeC {\'a}tica Amb\IeC {\'\i }guas}}\headcommand {\beamer@subsectionpages {36}{41}}}
\@writefile{nav}{\headcommand {\slideentry {1}{9}{1}{42/46}{Gram\IeC {\'a}tica Amb\IeC {\'\i }guas}{0}}}
\@writefile{nav}{\headcommand {\beamer@framepages {42}{46}}}
\@writefile{toc}{\beamer@subsectionintoc {1}{10}{Analisadores Sint\IeC {\'a}ticos}{47}{0}{1}}
\@writefile{nav}{\headcommand {\beamer@subsectionentry {0}{1}{10}{47}{Analisadores Sint\IeC {\'a}ticos}}\headcommand {\beamer@subsectionpages {42}{46}}}
\@writefile{nav}{\headcommand {\slideentry {1}{10}{1}{47/51}{Analisadores Sint\IeC {\'a}ticos}{0}}}
\@writefile{nav}{\headcommand {\beamer@framepages {47}{51}}}
\@writefile{toc}{\beamer@subsectionintoc {1}{11}{Geradores de Analisadores Sint\IeC {\'a}ticos}{52}{0}{1}}
\@writefile{nav}{\headcommand {\beamer@subsectionentry {0}{1}{11}{52}{Geradores de Analisadores Sint\IeC {\'a}ticos}}\headcommand {\beamer@subsectionpages {47}{51}}}
\@writefile{nav}{\headcommand {\slideentry {1}{11}{1}{52/55}{Geradores de Analisadores Sint\IeC {\'a}ticos}{0}}}
\@writefile{nav}{\headcommand {\beamer@framepages {52}{55}}}
\@writefile{toc}{\beamer@subsectionintoc {1}{12}{C\IeC {\'o}digo}{56}{0}{1}}
\@writefile{nav}{\headcommand {\beamer@subsectionentry {0}{1}{12}{56}{C\IeC {\'o}digo}}\headcommand {\beamer@subsectionpages {52}{55}}}
\bibdata{talk}
\bibcite{1}{\hyperlink {beamerbib1}{AHO and Sethi, 2013}}
\bibcite{4}{\hyperlink {beamerbib4}{Louden, 2016}}
\bibcite{3}{\hyperlink {beamerbib3}{Prince and Toscani, 2015}}
\bibcite{2}{\hyperlink {beamerbib2}{Sebesta, 2014}}
\bibcite{5}{\hyperlink {beamerbib5}{Toscani, 2016}}
\bibstyle{apalike}
\@writefile{toc}{\beamer@sectionintoc {2}{Refer\IeC {\^e}ncias}{59}{0}{2}}
\@writefile{nav}{\headcommand {\sectionentry {2}{Refer\IeC {\^e}ncias}{59}{Refer\IeC {\^e}ncias}{0}}}
\@writefile{nav}{\headcommand {\beamer@sectionpages {3}{58}}}
\@writefile{nav}{\headcommand {\beamer@subsectionpages {56}{58}}}
\@writefile{nav}{\headcommand {\slideentry {2}{0}{1}{59/59}{}{0}}}
\@writefile{nav}{\headcommand {\beamer@framepages {59}{59}}}
\@writefile{toc}{\beamer@sectionintoc {3}{Fim}{61}{0}{3}}
\@writefile{nav}{\headcommand {\sectionentry {3}{Fim}{61}{Fim}{0}}}
\@writefile{nav}{\headcommand {\beamer@sectionpages {59}{60}}}
\@writefile{nav}{\headcommand {\beamer@subsectionpages {59}{60}}}
\@writefile{nav}{\headcommand {\slideentry {3}{0}{1}{61/61}{}{0}}}
\@writefile{nav}{\headcommand {\beamer@framepages {61}{61}}}
\@writefile{nav}{\headcommand {\beamer@partpages {1}{61}}}
\@writefile{nav}{\headcommand {\beamer@subsectionpages {61}{61}}}
\@writefile{nav}{\headcommand {\beamer@sectionpages {61}{61}}}
\@writefile{nav}{\headcommand {\beamer@documentpages {61}}}
\@writefile{nav}{\headcommand {\def \inserttotalframenumber {16}}}
