\BOOKMARK [2][]{Outline0.1}{An\341lise Sint\341tica}{}% 1
\BOOKMARK [3][]{Outline0.1.1.3}{Analisador Sint\341tico}{Outline0.1}% 2
\BOOKMARK [3][]{Outline0.1.2.5}{Reconhecimento de Senten\347as}{Outline0.1}% 3
\BOOKMARK [3][]{Outline0.1.3.8}{Valida\347\343o de Senten\347a}{Outline0.1}% 4
\BOOKMARK [3][]{Outline0.1.4.11}{Reconhecimento de Senten\347a}{Outline0.1}% 5
\BOOKMARK [3][]{Outline0.1.5.16}{Valida\347\343o Top-Down}{Outline0.1}% 6
\BOOKMARK [3][]{Outline0.1.6.24}{Valida\347\343o Bottom-Up}{Outline0.1}% 7
\BOOKMARK [3][]{Outline0.1.7.32}{Deriva\347\343o Can\364nica}{Outline0.1}% 8
\BOOKMARK [3][]{Outline0.1.8.36}{\301rvore Sint\341tica}{Outline0.1}% 9
\BOOKMARK [3][]{Outline0.1.9.42}{Gram\341tica Amb\355guas}{Outline0.1}% 10
\BOOKMARK [3][]{Outline0.1.10.47}{Analisadores Sint\341ticos}{Outline0.1}% 11
\BOOKMARK [3][]{Outline0.1.11.52}{Geradores de Analisadores Sint\341ticos}{Outline0.1}% 12
\BOOKMARK [3][]{Outline0.1.12.56}{C\363digo}{Outline0.1}% 13
\BOOKMARK [2][]{Outline0.2}{Refer\352ncias}{}% 14
\BOOKMARK [2][]{Outline0.3}{Fim}{}% 15
