\BOOKMARK [2][]{Outline0.1}{Pirata}{}% 1
\BOOKMARK [3][]{Outline0.1.1.3}{Pirata}{Outline0.1}% 2
\BOOKMARK [3][]{Outline0.1.2.5}{Hist\363ria}{Outline0.1}% 3
\BOOKMARK [3][]{Outline0.1.3.10}{Objetivos}{Outline0.1}% 4
\BOOKMARK [3][]{Outline0.1.4.16}{Amea\347as}{Outline0.1}% 5
\BOOKMARK [3][]{Outline0.1.5.21}{Parceiros}{Outline0.1}% 6
\BOOKMARK [2][]{Outline0.2}{Fim}{}% 7
\BOOKMARK [3][]{Outline0.2.1.28}{Refer\352ncias}{Outline0.2}% 8
\BOOKMARK [3][]{Outline0.2.2.29}{Obrigado}{Outline0.2}% 9
