\begin{thebibliography}{}

\bibitem[FSFLA, 2016]{3}
FSFLA (2016).
\newblock Gnu linux-libre, free as in freedo.
\newblock Acesso em Abril.

\bibitem[GNU, 2016]{4}
GNU (2016).
\newblock The gnu art gallery.
\newblock Acesso em Abril.

\bibitem[Trisquel, 2016]{1}
Trisquel (2016).
\newblock Documentation.
\newblock Acesso em Abril.

\bibitem[Wikipedia, 2016]{2}
Wikipedia (2016).
\newblock Trisquel.
\newblock Acesso em Abril.

\end{thebibliography}
