\beamer@endinputifotherversion {3.36pt}
\select@language {brazilian}
\beamer@sectionintoc {1}{Pirata}{3}{0}{1}
\beamer@subsectionintoc {1}{1}{Pirata}{3}{0}{1}
\beamer@subsectionintoc {1}{2}{Hist\IeC {\'o}ria}{5}{0}{1}
\beamer@subsectionintoc {1}{3}{Objetivos}{10}{0}{1}
\beamer@subsectionintoc {1}{4}{Amea\IeC {\c c}as}{16}{0}{1}
\beamer@subsectionintoc {1}{5}{Parceiros}{21}{0}{1}
\beamer@sectionintoc {2}{Fim}{28}{0}{2}
\beamer@subsectionintoc {2}{1}{Refer\IeC {\^e}ncias}{28}{0}{2}
\beamer@subsectionintoc {2}{2}{Obrigado}{29}{0}{2}
