\relax 
\providecommand\hyper@newdestlabel[2]{}
\providecommand\HyperFirstAtBeginDocument{\AtBeginDocument}
\HyperFirstAtBeginDocument{\ifx\hyper@anchor\@undefined
\global\let\oldcontentsline\contentsline
\gdef\contentsline#1#2#3#4{\oldcontentsline{#1}{#2}{#3}}
\global\let\oldnewlabel\newlabel
\gdef\newlabel#1#2{\newlabelxx{#1}#2}
\gdef\newlabelxx#1#2#3#4#5#6{\oldnewlabel{#1}{{#2}{#3}}}
\AtEndDocument{\ifx\hyper@anchor\@undefined
\let\contentsline\oldcontentsline
\let\newlabel\oldnewlabel
\fi}
\fi}
\global\let\hyper@last\relax 
\gdef\HyperFirstAtBeginDocument#1{#1}
\providecommand\HyField@AuxAddToFields[1]{}
\providecommand\HyField@AuxAddToCoFields[2]{}
\catcode `"\active 
\@writefile{toc}{\beamer@endinputifotherversion {3.36pt}}
\@writefile{nav}{\beamer@endinputifotherversion {3.36pt}}
\select@language{brazilian}
\@writefile{toc}{\select@language{brazilian}}
\@writefile{lof}{\select@language{brazilian}}
\@writefile{lot}{\select@language{brazilian}}
\@writefile{nav}{\headcommand {\slideentry {0}{0}{1}{1/1}{}{0}}}
\@writefile{nav}{\headcommand {\beamer@framepages {1}{1}}}
\@writefile{nav}{\headcommand {\slideentry {0}{0}{2}{2/2}{}{0}}}
\@writefile{nav}{\headcommand {\beamer@framepages {2}{2}}}
\@writefile{toc}{\beamer@sectionintoc {1}{Pirata}{3}{0}{1}}
\@writefile{nav}{\headcommand {\sectionentry {1}{Pirata}{3}{Pirata}{0}}}
\@writefile{nav}{\headcommand {\beamer@sectionpages {1}{2}}}
\@writefile{nav}{\headcommand {\beamer@subsectionpages {1}{2}}}
\@writefile{toc}{\beamer@subsectionintoc {1}{1}{Pirata}{3}{0}{1}}
\@writefile{nav}{\headcommand {\beamer@subsectionentry {0}{1}{1}{3}{Pirata}}\headcommand {\beamer@subsectionpages {3}{2}}}
\@writefile{nav}{\headcommand {\slideentry {1}{1}{1}{3/4}{Pirata}{0}}}
\@writefile{nav}{\headcommand {\beamer@framepages {3}{4}}}
\citation{1}
\@writefile{toc}{\beamer@subsectionintoc {1}{2}{Hist\IeC {\'o}ria}{5}{0}{1}}
\@writefile{nav}{\headcommand {\beamer@subsectionentry {0}{1}{2}{5}{Hist\IeC {\'o}ria}}\headcommand {\beamer@subsectionpages {3}{4}}}
\citation{1}
\citation{1}
\citation{1}
\citation{1}
\@writefile{nav}{\headcommand {\slideentry {1}{2}{1}{5/9}{Hist\IeC {\'o}ria}{0}}}
\@writefile{nav}{\headcommand {\beamer@framepages {5}{9}}}
\@writefile{toc}{\beamer@subsectionintoc {1}{3}{Objetivos}{10}{0}{1}}
\@writefile{nav}{\headcommand {\beamer@subsectionentry {0}{1}{3}{10}{Objetivos}}\headcommand {\beamer@subsectionpages {5}{9}}}
\@writefile{nav}{\headcommand {\slideentry {1}{3}{1}{10/15}{Objetivos}{0}}}
\@writefile{nav}{\headcommand {\beamer@framepages {10}{15}}}
\@writefile{toc}{\beamer@subsectionintoc {1}{4}{Amea\IeC {\c c}as}{16}{0}{1}}
\@writefile{nav}{\headcommand {\beamer@subsectionentry {0}{1}{4}{16}{Amea\IeC {\c c}as}}\headcommand {\beamer@subsectionpages {10}{15}}}
\@writefile{nav}{\headcommand {\slideentry {1}{4}{1}{16/20}{Amea\IeC {\c c}as}{0}}}
\@writefile{nav}{\headcommand {\beamer@framepages {16}{20}}}
\@writefile{toc}{\beamer@subsectionintoc {1}{5}{Parceiros}{21}{0}{1}}
\@writefile{nav}{\headcommand {\beamer@subsectionentry {0}{1}{5}{21}{Parceiros}}\headcommand {\beamer@subsectionpages {16}{20}}}
\@writefile{nav}{\headcommand {\slideentry {1}{5}{1}{21/27}{Parceiros}{0}}}
\@writefile{nav}{\headcommand {\beamer@framepages {21}{27}}}
\bibcite{1}{\hyperlink {beamerbib1}{1}}
\@writefile{toc}{\beamer@sectionintoc {2}{Fim}{28}{0}{2}}
\@writefile{nav}{\headcommand {\sectionentry {2}{Fim}{28}{Fim}{0}}}
\@writefile{nav}{\headcommand {\beamer@sectionpages {3}{27}}}
\@writefile{nav}{\headcommand {\beamer@subsectionpages {21}{27}}}
\@writefile{toc}{\beamer@subsectionintoc {2}{1}{Refer\IeC {\^e}ncias}{28}{0}{2}}
\@writefile{nav}{\headcommand {\beamer@subsectionentry {0}{2}{1}{28}{Refer\IeC {\^e}ncias}}\headcommand {\beamer@subsectionpages {28}{27}}}
\@writefile{nav}{\headcommand {\slideentry {2}{1}{1}{28/28}{Refer\IeC {\^e}ncias}{0}}}
\@writefile{nav}{\headcommand {\beamer@framepages {28}{28}}}
\@writefile{toc}{\beamer@subsectionintoc {2}{2}{Obrigado}{29}{0}{2}}
\@writefile{nav}{\headcommand {\beamer@subsectionentry {0}{2}{2}{29}{Obrigado}}\headcommand {\beamer@subsectionpages {28}{28}}}
\@writefile{nav}{\headcommand {\slideentry {2}{2}{1}{29/29}{Obrigado}{0}}}
\@writefile{nav}{\headcommand {\beamer@framepages {29}{29}}}
\@writefile{nav}{\headcommand {\beamer@partpages {1}{29}}}
\@writefile{nav}{\headcommand {\beamer@subsectionpages {29}{29}}}
\@writefile{nav}{\headcommand {\beamer@sectionpages {28}{29}}}
\@writefile{nav}{\headcommand {\beamer@documentpages {29}}}
\@writefile{nav}{\headcommand {\def \inserttotalframenumber {9}}}
