\relax 
\providecommand\hyper@newdestlabel[2]{}
\providecommand\HyperFirstAtBeginDocument{\AtBeginDocument}
\HyperFirstAtBeginDocument{\ifx\hyper@anchor\@undefined
\global\let\oldcontentsline\contentsline
\gdef\contentsline#1#2#3#4{\oldcontentsline{#1}{#2}{#3}}
\global\let\oldnewlabel\newlabel
\gdef\newlabel#1#2{\newlabelxx{#1}#2}
\gdef\newlabelxx#1#2#3#4#5#6{\oldnewlabel{#1}{{#2}{#3}}}
\AtEndDocument{\ifx\hyper@anchor\@undefined
\let\contentsline\oldcontentsline
\let\newlabel\oldnewlabel
\fi}
\fi}
\global\let\hyper@last\relax 
\gdef\HyperFirstAtBeginDocument#1{#1}
\providecommand\HyField@AuxAddToFields[1]{}
\providecommand\HyField@AuxAddToCoFields[2]{}
\catcode `"\active 
\@writefile{toc}{\beamer@endinputifotherversion {3.36pt}}
\@writefile{nav}{\beamer@endinputifotherversion {3.36pt}}
\select@language{brazilian}
\@writefile{toc}{\select@language{brazilian}}
\@writefile{lof}{\select@language{brazilian}}
\@writefile{lot}{\select@language{brazilian}}
\@writefile{nav}{\headcommand {\slideentry {0}{0}{1}{1/1}{}{0}}}
\@writefile{nav}{\headcommand {\beamer@framepages {1}{1}}}
\@writefile{nav}{\headcommand {\slideentry {0}{0}{2}{2/5}{}{0}}}
\@writefile{nav}{\headcommand {\beamer@framepages {2}{5}}}
\@writefile{nav}{\headcommand {\slideentry {0}{0}{3}{6/11}{}{0}}}
\@writefile{nav}{\headcommand {\beamer@framepages {6}{11}}}
\@writefile{nav}{\headcommand {\slideentry {0}{0}{4}{12/14}{}{0}}}
\@writefile{nav}{\headcommand {\beamer@framepages {12}{14}}}
\@writefile{nav}{\headcommand {\slideentry {0}{0}{5}{15/19}{}{0}}}
\@writefile{nav}{\headcommand {\beamer@framepages {15}{19}}}
\@writefile{nav}{\headcommand {\slideentry {0}{0}{6}{20/22}{}{0}}}
\@writefile{nav}{\headcommand {\beamer@framepages {20}{22}}}
\@writefile{nav}{\headcommand {\slideentry {0}{0}{7}{23/25}{}{0}}}
\@writefile{nav}{\headcommand {\beamer@framepages {23}{25}}}
\@writefile{nav}{\headcommand {\slideentry {0}{0}{8}{26/27}{}{0}}}
\@writefile{nav}{\headcommand {\beamer@framepages {26}{27}}}
\@writefile{nav}{\headcommand {\slideentry {0}{0}{9}{28/34}{}{0}}}
\@writefile{nav}{\headcommand {\beamer@framepages {28}{34}}}
\@writefile{nav}{\headcommand {\slideentry {0}{0}{10}{35/37}{}{0}}}
\@writefile{nav}{\headcommand {\beamer@framepages {35}{37}}}
\@writefile{nav}{\headcommand {\slideentry {0}{0}{11}{38/40}{}{0}}}
\@writefile{nav}{\headcommand {\beamer@framepages {38}{40}}}
\@writefile{nav}{\headcommand {\slideentry {0}{0}{12}{41/44}{}{0}}}
\@writefile{nav}{\headcommand {\beamer@framepages {41}{44}}}
\@writefile{nav}{\headcommand {\slideentry {0}{0}{13}{45/47}{}{0}}}
\@writefile{nav}{\headcommand {\beamer@framepages {45}{47}}}
\@writefile{nav}{\headcommand {\slideentry {0}{0}{14}{48/51}{}{0}}}
\@writefile{nav}{\headcommand {\beamer@framepages {48}{51}}}
\@writefile{nav}{\headcommand {\slideentry {0}{0}{15}{52/54}{}{0}}}
\@writefile{nav}{\headcommand {\beamer@framepages {52}{54}}}
\@writefile{nav}{\headcommand {\slideentry {0}{0}{16}{55/57}{}{0}}}
\@writefile{nav}{\headcommand {\beamer@framepages {55}{57}}}
\@writefile{lol}{\contentsline {lstlisting}{static/code/code}}
\@writefile{nav}{\headcommand {\slideentry {0}{0}{17}{58/59}{}{0}}}
\@writefile{nav}{\headcommand {\beamer@framepages {58}{59}}}
\bibdata{talk}
\bibcite{1}{\hyperlink {beamerbib1}{Stallings, 2010}}
\bibstyle{apalike}
\@writefile{nav}{\headcommand {\slideentry {0}{0}{18}{60/60}{}{0}}}
\@writefile{nav}{\headcommand {\beamer@framepages {60}{60}}}
\@writefile{nav}{\headcommand {\slideentry {0}{0}{19}{61/61}{}{0}}}
\@writefile{nav}{\headcommand {\beamer@framepages {61}{61}}}
\@writefile{nav}{\headcommand {\beamer@partpages {1}{61}}}
\@writefile{nav}{\headcommand {\beamer@subsectionpages {1}{61}}}
\@writefile{nav}{\headcommand {\beamer@sectionpages {1}{61}}}
\@writefile{nav}{\headcommand {\beamer@documentpages {61}}}
\@writefile{nav}{\headcommand {\def \inserttotalframenumber {19}}}
