This is BibTeX, Version 0.99d (TeX Live 2015)
Capacity: max_strings=35307, hash_size=35307, hash_prime=30011
The top-level auxiliary file: talk.aux
The style file: apalike.bst
Database file #1: talk.bib
You've used 11 entries,
            1935 wiz_defined-function locations,
            515 strings with 4850 characters,
and the built_in function-call counts, 3298 in all, are:
= -- 340
> -- 99
< -- 12
+ -- 32
- -- 30
* -- 214
:= -- 613
add.period$ -- 33
call.type$ -- 11
change.case$ -- 70
chr.to.int$ -- 9
cite$ -- 11
duplicate$ -- 141
empty$ -- 215
format.name$ -- 41
if$ -- 645
int.to.chr$ -- 3
int.to.str$ -- 0
missing$ -- 3
newline$ -- 58
num.names$ -- 33
pop$ -- 45
preamble$ -- 1
purify$ -- 70
quote$ -- 0
skip$ -- 126
stack$ -- 0
substring$ -- 187
swap$ -- 22
text.length$ -- 3
text.prefix$ -- 0
top$ -- 0
type$ -- 66
warning$ -- 0
while$ -- 28
width$ -- 0
write$ -- 137
