\relax 
\providecommand\hyper@newdestlabel[2]{}
\providecommand\HyperFirstAtBeginDocument{\AtBeginDocument}
\HyperFirstAtBeginDocument{\ifx\hyper@anchor\@undefined
\global\let\oldcontentsline\contentsline
\gdef\contentsline#1#2#3#4{\oldcontentsline{#1}{#2}{#3}}
\global\let\oldnewlabel\newlabel
\gdef\newlabel#1#2{\newlabelxx{#1}#2}
\gdef\newlabelxx#1#2#3#4#5#6{\oldnewlabel{#1}{{#2}{#3}}}
\AtEndDocument{\ifx\hyper@anchor\@undefined
\let\contentsline\oldcontentsline
\let\newlabel\oldnewlabel
\fi}
\fi}
\global\let\hyper@last\relax 
\gdef\HyperFirstAtBeginDocument#1{#1}
\providecommand\HyField@AuxAddToFields[1]{}
\providecommand\HyField@AuxAddToCoFields[2]{}
\catcode `"\active 
\@writefile{toc}{\beamer@endinputifotherversion {3.36pt}}
\@writefile{nav}{\beamer@endinputifotherversion {3.36pt}}
\select@language{brazilian}
\@writefile{toc}{\select@language{brazilian}}
\@writefile{lof}{\select@language{brazilian}}
\@writefile{lot}{\select@language{brazilian}}
\@writefile{nav}{\headcommand {\slideentry {0}{0}{1}{1/1}{}{0}}}
\@writefile{nav}{\headcommand {\beamer@framepages {1}{1}}}
\@writefile{nav}{\headcommand {\slideentry {0}{0}{2}{2/2}{}{0}}}
\@writefile{nav}{\headcommand {\beamer@framepages {2}{2}}}
\@writefile{nav}{\headcommand {\slideentry {0}{0}{2}{2/3}{}{0}}}
\@writefile{nav}{\headcommand {\beamer@framepages {2}{3}}}
\@writefile{toc}{\beamer@sectionintoc {1}{Eu}{4}{0}{1}}
\@writefile{nav}{\headcommand {\sectionentry {1}{Eu}{4}{Eu}{0}}}
\@writefile{nav}{\headcommand {\beamer@sectionpages {1}{3}}}
\@writefile{nav}{\headcommand {\beamer@subsectionpages {1}{3}}}
\@writefile{toc}{\beamer@subsectionintoc {1}{1}{Eu}{4}{0}{1}}
\@writefile{nav}{\headcommand {\beamer@subsectionentry {0}{1}{1}{4}{Eu}}\headcommand {\beamer@subsectionpages {4}{3}}}
\@writefile{nav}{\headcommand {\slideentry {1}{1}{1}{4/13}{Eu}{0}}}
\@writefile{nav}{\headcommand {\beamer@framepages {4}{13}}}
\citation{1}
\@writefile{toc}{\beamer@sectionintoc {2}{Criptomoedas}{14}{0}{2}}
\@writefile{nav}{\headcommand {\sectionentry {2}{Criptomoedas}{14}{Criptomoedas}{0}}}
\@writefile{nav}{\headcommand {\beamer@sectionpages {4}{13}}}
\@writefile{nav}{\headcommand {\beamer@subsectionpages {4}{13}}}
\@writefile{toc}{\beamer@subsectionintoc {2}{1}{Cryptomoedas}{14}{0}{2}}
\@writefile{nav}{\headcommand {\beamer@subsectionentry {0}{2}{1}{14}{Cryptomoedas}}\headcommand {\beamer@subsectionpages {14}{13}}}
\citation{1}
\@writefile{nav}{\headcommand {\slideentry {2}{1}{1}{14/15}{Cryptomoedas}{0}}}
\@writefile{nav}{\headcommand {\beamer@framepages {14}{15}}}
\@writefile{toc}{\beamer@subsectionintoc {2}{2}{Caracter\IeC {\'\i }sticas}{16}{0}{2}}
\@writefile{nav}{\headcommand {\beamer@subsectionentry {0}{2}{2}{16}{Caracter\IeC {\'\i }sticas}}\headcommand {\beamer@subsectionpages {14}{15}}}
\@writefile{nav}{\headcommand {\slideentry {2}{2}{1}{16/21}{Caracter\IeC {\'\i }sticas}{0}}}
\@writefile{nav}{\headcommand {\beamer@framepages {16}{21}}}
\citation{2}
\citation{3}
\citation{4}
\citation{5}
\@writefile{toc}{\beamer@subsectionintoc {2}{3}{Hist\IeC {\'o}ria}{22}{0}{2}}
\@writefile{nav}{\headcommand {\beamer@subsectionentry {0}{2}{3}{22}{Hist\IeC {\'o}ria}}\headcommand {\beamer@subsectionpages {16}{21}}}
\citation{2}
\citation{3}
\citation{4}
\citation{5}
\citation{2}
\citation{3}
\citation{4}
\citation{5}
\citation{2}
\citation{3}
\citation{4}
\citation{5}
\citation{2}
\citation{3}
\citation{4}
\citation{5}
\@writefile{nav}{\headcommand {\slideentry {2}{3}{1}{22/26}{Hist\IeC {\'o}ria}{0}}}
\@writefile{nav}{\headcommand {\beamer@framepages {22}{26}}}
\@writefile{toc}{\beamer@subsectionintoc {2}{4}{Legalidade}{27}{0}{2}}
\@writefile{nav}{\headcommand {\beamer@subsectionentry {0}{2}{4}{27}{Legalidade}}\headcommand {\beamer@subsectionpages {22}{26}}}
\@writefile{nav}{\headcommand {\slideentry {2}{4}{1}{27/32}{Legalidade}{0}}}
\@writefile{nav}{\headcommand {\beamer@framepages {27}{32}}}
\citation{1}
\@writefile{toc}{\beamer@sectionintoc {3}{Bitcoin}{33}{0}{3}}
\@writefile{nav}{\headcommand {\sectionentry {3}{Bitcoin}{33}{Bitcoin}{0}}}
\@writefile{nav}{\headcommand {\beamer@sectionpages {14}{32}}}
\@writefile{nav}{\headcommand {\beamer@subsectionpages {27}{32}}}
\@writefile{toc}{\beamer@subsectionintoc {3}{1}{Bitcoin}{33}{0}{3}}
\@writefile{nav}{\headcommand {\beamer@subsectionentry {0}{3}{1}{33}{Bitcoin}}\headcommand {\beamer@subsectionpages {33}{32}}}
\citation{1}
\@writefile{nav}{\headcommand {\slideentry {3}{1}{1}{33/34}{Bitcoin}{0}}}
\@writefile{nav}{\headcommand {\beamer@framepages {33}{34}}}
\@writefile{toc}{\beamer@subsectionintoc {3}{2}{Caracteristicas}{35}{0}{3}}
\@writefile{nav}{\headcommand {\beamer@subsectionentry {0}{3}{2}{35}{Caracteristicas}}\headcommand {\beamer@subsectionpages {33}{34}}}
\@writefile{nav}{\headcommand {\slideentry {3}{2}{1}{35/42}{Caracteristicas}{0}}}
\@writefile{nav}{\headcommand {\beamer@framepages {35}{42}}}
\@writefile{toc}{\beamer@subsectionintoc {3}{3}{Bitcoin para Todos}{43}{0}{3}}
\@writefile{nav}{\headcommand {\beamer@subsectionentry {0}{3}{3}{43}{Bitcoin para Todos}}\headcommand {\beamer@subsectionpages {35}{42}}}
\@writefile{nav}{\headcommand {\slideentry {3}{3}{1}{43/56}{Bitcoin para Todos}{0}}}
\@writefile{nav}{\headcommand {\beamer@framepages {43}{56}}}
\@writefile{toc}{\beamer@subsectionintoc {3}{4}{Quantidade de Clientes}{57}{0}{3}}
\@writefile{nav}{\headcommand {\beamer@subsectionentry {0}{3}{4}{57}{Quantidade de Clientes}}\headcommand {\beamer@subsectionpages {43}{56}}}
\citation{6}
\@writefile{nav}{\headcommand {\slideentry {3}{4}{1}{57/58}{Quantidade de Clientes}{0}}}
\@writefile{nav}{\headcommand {\beamer@framepages {57}{58}}}
\@writefile{toc}{\beamer@subsectionintoc {3}{5}{Quantidade de Transa\IeC {\c c}\IeC {\~o}es}{59}{0}{3}}
\@writefile{nav}{\headcommand {\beamer@subsectionentry {0}{3}{5}{59}{Quantidade de Transa\IeC {\c c}\IeC {\~o}es}}\headcommand {\beamer@subsectionpages {57}{58}}}
\citation{7}
\@writefile{nav}{\headcommand {\slideentry {3}{5}{1}{59/60}{Quantidade de Transa\IeC {\c c}\IeC {\~o}es}{0}}}
\@writefile{nav}{\headcommand {\beamer@framepages {59}{60}}}
\@writefile{toc}{\beamer@subsectionintoc {3}{6}{Sistema}{61}{0}{3}}
\@writefile{nav}{\headcommand {\beamer@subsectionentry {0}{3}{6}{61}{Sistema}}\headcommand {\beamer@subsectionpages {59}{60}}}
\citation{9}
\@writefile{nav}{\headcommand {\slideentry {3}{6}{1}{61/62}{Sistema}{0}}}
\@writefile{nav}{\headcommand {\beamer@framepages {61}{62}}}
\@writefile{toc}{\beamer@sectionintoc {4}{Elementos Bitcoin}{63}{0}{4}}
\@writefile{nav}{\headcommand {\sectionentry {4}{Elementos Bitcoin}{63}{Elementos Bitcoin}{0}}}
\@writefile{nav}{\headcommand {\beamer@sectionpages {33}{62}}}
\@writefile{nav}{\headcommand {\beamer@subsectionpages {61}{62}}}
\@writefile{toc}{\beamer@subsectionintoc {4}{1}{Wallet}{63}{0}{4}}
\@writefile{nav}{\headcommand {\beamer@subsectionentry {0}{4}{1}{63}{Wallet}}\headcommand {\beamer@subsectionpages {63}{62}}}
\@writefile{nav}{\headcommand {\slideentry {4}{1}{1}{63/71}{Wallet}{0}}}
\@writefile{nav}{\headcommand {\beamer@framepages {63}{71}}}
\@writefile{toc}{\beamer@subsectionintoc {4}{2}{Miner}{72}{0}{4}}
\@writefile{nav}{\headcommand {\beamer@subsectionentry {0}{4}{2}{72}{Miner}}\headcommand {\beamer@subsectionpages {63}{71}}}
\@writefile{nav}{\headcommand {\slideentry {4}{2}{1}{72/80}{Miner}{0}}}
\@writefile{nav}{\headcommand {\beamer@framepages {72}{80}}}
\@writefile{toc}{\beamer@subsectionintoc {4}{3}{Block chain}{81}{0}{4}}
\@writefile{nav}{\headcommand {\beamer@subsectionentry {0}{4}{3}{81}{Block chain}}\headcommand {\beamer@subsectionpages {72}{80}}}
\citation{8}
\@writefile{nav}{\headcommand {\slideentry {4}{3}{1}{81/82}{Block chain}{0}}}
\@writefile{nav}{\headcommand {\beamer@framepages {81}{82}}}
\citation{10}
\citation{11}
\@writefile{toc}{\beamer@sectionintoc {5}{Cracking}{83}{0}{5}}
\@writefile{nav}{\headcommand {\sectionentry {5}{Cracking}{83}{Cracking}{0}}}
\@writefile{nav}{\headcommand {\beamer@sectionpages {63}{82}}}
\@writefile{nav}{\headcommand {\beamer@subsectionpages {81}{82}}}
\@writefile{toc}{\beamer@subsectionintoc {5}{1}{Cracking}{83}{0}{5}}
\@writefile{nav}{\headcommand {\beamer@subsectionentry {0}{5}{1}{83}{Cracking}}\headcommand {\beamer@subsectionpages {83}{82}}}
\citation{10}
\citation{11}
\citation{10}
\citation{11}
\citation{10}
\citation{11}
\citation{10}
\citation{11}
\@writefile{nav}{\headcommand {\slideentry {5}{1}{1}{83/87}{Cracking}{0}}}
\@writefile{nav}{\headcommand {\beamer@framepages {83}{87}}}
\@writefile{toc}{\beamer@sectionintoc {6}{Hacking}{88}{0}{6}}
\@writefile{nav}{\headcommand {\sectionentry {6}{Hacking}{88}{Hacking}{0}}}
\@writefile{nav}{\headcommand {\beamer@sectionpages {83}{87}}}
\@writefile{nav}{\headcommand {\beamer@subsectionpages {83}{87}}}
\@writefile{toc}{\beamer@subsectionintoc {6}{1}{Hacking}{88}{0}{6}}
\@writefile{nav}{\headcommand {\beamer@subsectionentry {0}{6}{1}{88}{Hacking}}\headcommand {\beamer@subsectionpages {88}{87}}}
\@writefile{nav}{\headcommand {\slideentry {6}{1}{1}{88/96}{Hacking}{0}}}
\@writefile{nav}{\headcommand {\beamer@framepages {88}{96}}}
\bibdata{talk}
\bibcite{11}{\hyperlink {beamerbib11}{Biryukov et~al., 2014}}
\bibcite{10}{\hyperlink {beamerbib10}{Bradbury, 2015}}
\bibcite{5}{\hyperlink {beamerbib5}{CoinMarketCap, 2016}}
\bibcite{2}{\hyperlink {beamerbib2}{Dai, 2016}}
\bibcite{4}{\hyperlink {beamerbib4}{Evans-Pughe et~al., 2014}}
\bibcite{1}{\hyperlink {beamerbib1}{Nakamoto, 2016a}}
\bibcite{8}{\hyperlink {beamerbib8}{Nakamoto, 2016b}}
\bibcite{3}{\hyperlink {beamerbib3}{Peck, 2016}}
\bibcite{6}{\hyperlink {beamerbib6}{Smith, 2016a}}
\bibcite{7}{\hyperlink {beamerbib7}{Smith, 2016b}}
\bibcite{9}{\hyperlink {beamerbib9}{Times, 2016}}
\bibstyle{apalike}
\@writefile{toc}{\beamer@sectionintoc {7}{Refer\IeC {\^e}ncias}{97}{0}{7}}
\@writefile{nav}{\headcommand {\sectionentry {7}{Refer\IeC {\^e}ncias}{97}{Refer\IeC {\^e}ncias}{0}}}
\@writefile{nav}{\headcommand {\beamer@sectionpages {88}{96}}}
\@writefile{nav}{\headcommand {\beamer@subsectionpages {88}{96}}}
\@writefile{toc}{\beamer@subsectionintoc {7}{1}{Refer\IeC {\^e}ncias}{97}{0}{7}}
\@writefile{nav}{\headcommand {\beamer@subsectionentry {0}{7}{1}{97}{Refer\IeC {\^e}ncias}}\headcommand {\beamer@subsectionpages {97}{96}}}
\@writefile{nav}{\headcommand {\slideentry {7}{1}{1}{97/97}{Refer\IeC {\^e}ncias}{0}}}
\@writefile{nav}{\headcommand {\beamer@framepages {97}{97}}}
\@writefile{nav}{\headcommand {\slideentry {7}{1}{1}{97/98}{Refer\IeC {\^e}ncias}{0}}}
\@writefile{nav}{\headcommand {\beamer@framepages {97}{98}}}
\@writefile{nav}{\headcommand {\slideentry {7}{1}{1}{97/99}{Refer\IeC {\^e}ncias}{0}}}
\@writefile{nav}{\headcommand {\beamer@framepages {97}{99}}}
\@writefile{toc}{\beamer@sectionintoc {8}{Fim}{100}{0}{8}}
\@writefile{nav}{\headcommand {\sectionentry {8}{Fim}{100}{Fim}{0}}}
\@writefile{nav}{\headcommand {\beamer@sectionpages {97}{99}}}
\@writefile{nav}{\headcommand {\beamer@subsectionpages {97}{99}}}
\@writefile{toc}{\beamer@subsectionintoc {8}{1}{Fim0}{100}{0}{8}}
\@writefile{nav}{\headcommand {\beamer@subsectionentry {0}{8}{1}{100}{Fim0}}\headcommand {\beamer@subsectionpages {100}{99}}}
\@writefile{nav}{\headcommand {\slideentry {8}{1}{1}{100/100}{Fim0}{0}}}
\@writefile{nav}{\headcommand {\beamer@framepages {100}{100}}}
\@writefile{nav}{\headcommand {\beamer@partpages {1}{100}}}
\@writefile{nav}{\headcommand {\beamer@subsectionpages {100}{100}}}
\@writefile{nav}{\headcommand {\beamer@sectionpages {100}{100}}}
\@writefile{nav}{\headcommand {\beamer@documentpages {100}}}
\@writefile{nav}{\headcommand {\def \inserttotalframenumber {23}}}
